<svg width="24" height="24" viewBox="0 0 24 24" fill="none" xmlns="http://www.w3.org/2000/svg">
<path d="M12 4C12.5523 4 13 4.44772 13 5V11H19C19.5523 11 20 11.4477 20 12C20 12.5523 19.5523 13 19 13H13L12.999 19C12.999 19.5523 12.5513 20 11.999 20C11.4467 20 10.999 19.5523 10.999 19V13H5C4.44772 13 4 12.5523 4 12C4 11.4477 4.44772 11 5 11H10.999L11 5C11 4.44772 11.4477 4 12 4Z" fill="#0B1125"/>
</svg>
