<svg width="24" height="18" viewBox="0 0 24 18" fill="none" xmlns="http://www.w3.org/2000/svg">
<g filter="url(#filter0_i_2665_7440)">
<rect x="0.25" y="0.25" width="23.5" height="17.5" rx="1.75" fill="white" stroke="#F5F5F5" stroke-width="0.5"/>
<mask id="mask0_2665_7440" style="mask-type:alpha" maskUnits="userSpaceOnUse" x="0" y="0" width="24" height="18">
<rect x="0.25" y="0.25" width="23.5" height="17.5" rx="1.75" fill="white" stroke="white" stroke-width="0.5"/>
</mask>
<g mask="url(#mask0_2665_7440)">
<rect x="9.14282" width="5.71429" height="18" fill="#D6182D"/>
<rect y="6" width="24" height="6" fill="#1425A2"/>
<path fill-rule="evenodd" clip-rule="evenodd" d="M9.71425 10.5L9.31019 10.6242L9.42854 10.2L9.31019 9.77571L9.71425 9.89998L10.1183 9.77571L9.99997 10.2L10.1183 10.6242L9.71425 10.5Z" fill="white"/>
<path fill-rule="evenodd" clip-rule="evenodd" d="M14.2858 10.5L13.8817 10.6242L14.0001 10.2L13.8817 9.77571L14.2858 9.89998L14.6898 9.77571L14.5715 10.2L14.6898 10.6242L14.2858 10.5Z" fill="white"/>
<path fill-rule="evenodd" clip-rule="evenodd" d="M7.42861 9.30002L7.02455 9.42429L7.14289 9.00002L7.02455 8.57576L7.42861 8.70002L7.83267 8.57576L7.71432 9.00002L7.83267 9.42429L7.42861 9.30002Z" fill="white"/>
<path fill-rule="evenodd" clip-rule="evenodd" d="M16.5714 9.30002L16.1674 9.42429L16.2857 9.00002L16.1674 8.57576L16.5714 8.70002L16.9755 8.57576L16.8571 9.00002L16.9755 9.42429L16.5714 9.30002Z" fill="white"/>
<path fill-rule="evenodd" clip-rule="evenodd" d="M11.9999 8.10001L11.5958 8.22428L11.7142 7.80001L11.5958 7.37575L11.9999 7.50001L12.404 7.37575L12.2856 7.80001L12.404 8.22428L11.9999 8.10001Z" fill="white"/>
</g>
</g>
<defs>
<filter id="filter0_i_2665_7440" x="0" y="0" width="24" height="18" filterUnits="userSpaceOnUse" color-interpolation-filters="sRGB">
<feFlood flood-opacity="0" result="BackgroundImageFix"/>
<feBlend mode="normal" in="SourceGraphic" in2="BackgroundImageFix" result="shape"/>
<feColorMatrix in="SourceAlpha" type="matrix" values="0 0 0 0 0 0 0 0 0 0 0 0 0 0 0 0 0 0 127 0" result="hardAlpha"/>
<feOffset/>
<feGaussianBlur stdDeviation="1.5"/>
<feComposite in2="hardAlpha" operator="arithmetic" k2="-1" k3="1"/>
<feColorMatrix type="matrix" values="0 0 0 0 0 0 0 0 0 0 0 0 0 0 0 0 0 0 0.08 0"/>
<feBlend mode="normal" in2="shape" result="effect1_innerShadow_2665_7440"/>
</filter>
</defs>
</svg>
