<svg width="24" height="18" viewBox="0 0 24 18" fill="none" xmlns="http://www.w3.org/2000/svg">
<g filter="url(#filter0_i_2665_5512)">
<rect width="24" height="18" rx="2" fill="white"/>
<mask id="mask0_2665_5512" style="mask-type:alpha" maskUnits="userSpaceOnUse" x="0" y="0" width="24" height="18">
<rect width="24" height="18" rx="2" fill="white"/>
</mask>
<g mask="url(#mask0_2665_5512)">
<rect width="24" height="18" fill="#0A17A7"/>
<path d="M0 -0.333333H-0.868653L-0.222988 0.247765L3.66667 3.74845V4.63333L-0.2 7.53333L-0.333333 7.63333V7.8V8.4V9.01745L0.182885 8.67868L4.67104 5.73333H5.60317L9.46244 8.62778C9.55379 8.6963 9.6649 8.73333 9.77909 8.73333C10.2628 8.73333 10.4916 8.13688 10.1321 7.81332L6.61905 4.65155V3.76667L10.3524 0.966667C10.5203 0.840764 10.619 0.643171 10.619 0.433333V0V-0.617451L10.1028 -0.278683L5.61468 2.66667H4.68254L0.771429 -0.266667L0.68254 -0.333333H0.571429H0Z" fill="#FF2E3B" stroke="white" stroke-width="0.666667"/>
<path fill-rule="evenodd" clip-rule="evenodd" d="M0 3V5.4H4V8.33333C4 8.70152 4.29848 9 4.66667 9H5.61905C5.98724 9 6.28571 8.70152 6.28571 8.33333V5.4H10.1905C10.5587 5.4 10.8571 5.10152 10.8571 4.73333V3.66667C10.8571 3.29848 10.5587 3 10.1905 3H6.28571V0H4V3H0Z" fill="url(#paint0_linear_2665_5512)"/>
<path fill-rule="evenodd" clip-rule="evenodd" d="M0 3.6H4.57143V3V0H5.71429V3V3.6H10.2857V4.8H5.71429V5.4V8.4H4.57143V5.4V4.8H0V3.6Z" fill="url(#paint1_linear_2665_5512)"/>
<path fill-rule="evenodd" clip-rule="evenodd" d="M5.14275 14.7L4.13512 15.2562L4.32756 14.0781L3.51237 13.2438L4.63894 13.0719L5.14275 12L5.64657 13.0719L6.77314 13.2438L5.95794 14.0781L6.15038 15.2562L5.14275 14.7Z" fill="white"/>
<path fill-rule="evenodd" clip-rule="evenodd" d="M17.1429 15.6L16.3347 15.8486L16.5714 15L16.3347 14.1515L17.1429 14.4L17.951 14.1515L17.7143 15L17.951 15.8486L17.1429 15.6Z" fill="white"/>
<path fill-rule="evenodd" clip-rule="evenodd" d="M17.1429 4.20002L16.3347 4.44855L16.5714 3.60002L16.3347 2.7515L17.1429 3.00002L17.951 2.7515L17.7143 3.60002L17.951 4.44855L17.1429 4.20002Z" fill="white"/>
<path fill-rule="evenodd" clip-rule="evenodd" d="M20.5713 7.8L19.7632 8.04853L19.9999 7.2L19.7632 6.35147L20.5713 6.6L21.3794 6.35147L21.1428 7.2L21.3794 8.04853L20.5713 7.8Z" fill="white"/>
<path fill-rule="evenodd" clip-rule="evenodd" d="M13.7144 9.00001L12.9063 9.24854L13.143 8.40001L12.9063 7.55148L13.7144 7.80001L14.5225 7.55148L14.2858 8.40001L14.5225 9.24854L13.7144 9.00001Z" fill="white"/>
<path fill-rule="evenodd" clip-rule="evenodd" d="M18.8571 10.5L18.453 10.6242L18.5714 10.2L18.453 9.77571L18.8571 9.89998L19.2611 9.77571L19.1428 10.2L19.2611 10.6242L18.8571 10.5Z" fill="white"/>
</g>
</g>
<defs>
<filter id="filter0_i_2665_5512" x="0" y="0" width="24" height="18" filterUnits="userSpaceOnUse" color-interpolation-filters="sRGB">
<feFlood flood-opacity="0" result="BackgroundImageFix"/>
<feBlend mode="normal" in="SourceGraphic" in2="BackgroundImageFix" result="shape"/>
<feColorMatrix in="SourceAlpha" type="matrix" values="0 0 0 0 0 0 0 0 0 0 0 0 0 0 0 0 0 0 127 0" result="hardAlpha"/>
<feOffset/>
<feGaussianBlur stdDeviation="1.5"/>
<feComposite in2="hardAlpha" operator="arithmetic" k2="-1" k3="1"/>
<feColorMatrix type="matrix" values="0 0 0 0 0 0 0 0 0 0 0 0 0 0 0 0 0 0 0.08 0"/>
<feBlend mode="normal" in2="shape" result="effect1_innerShadow_2665_5512"/>
</filter>
<linearGradient id="paint0_linear_2665_5512" x1="0" y1="0" x2="0" y2="9" gradientUnits="userSpaceOnUse">
<stop stop-color="white"/>
<stop offset="1" stop-color="#F0F0F0"/>
</linearGradient>
<linearGradient id="paint1_linear_2665_5512" x1="0" y1="0" x2="0" y2="8.4" gradientUnits="userSpaceOnUse">
<stop stop-color="#FF2E3B"/>
<stop offset="1" stop-color="#FC0D1B"/>
</linearGradient>
</defs>
</svg>
