<svg width="24" height="18" viewBox="0 0 24 18" fill="none" xmlns="http://www.w3.org/2000/svg">
<g filter="url(#filter0_i_2665_5693)">
<rect width="24" height="18" rx="2" fill="white"/>
<mask id="mask0_2665_5693" style="mask-type:alpha" maskUnits="userSpaceOnUse" x="0" y="0" width="24" height="18">
<rect width="24" height="18" rx="2" fill="white"/>
</mask>
<g mask="url(#mask0_2665_5693)">
<path fill-rule="evenodd" clip-rule="evenodd" d="M0 18H24V9.59998H0V18Z" fill="#00B051"/>
<path fill-rule="evenodd" clip-rule="evenodd" d="M0 9.6H24V0H0V9.6Z" fill="#FA494B"/>
<path fill-rule="evenodd" clip-rule="evenodd" d="M12.0001 11.004L9.98484 12.5125L10.7284 10.0339L8.73934 8.48754L11.2142 8.46414L12.0001 6L12.7861 8.46414L15.2609 8.48754L13.2718 10.0339L14.0154 12.5125L12.0001 11.004Z" fill="#FDD216"/>
</g>
</g>
<defs>
<filter id="filter0_i_2665_5693" x="0" y="0" width="24" height="18" filterUnits="userSpaceOnUse" color-interpolation-filters="sRGB">
<feFlood flood-opacity="0" result="BackgroundImageFix"/>
<feBlend mode="normal" in="SourceGraphic" in2="BackgroundImageFix" result="shape"/>
<feColorMatrix in="SourceAlpha" type="matrix" values="0 0 0 0 0 0 0 0 0 0 0 0 0 0 0 0 0 0 127 0" result="hardAlpha"/>
<feOffset/>
<feGaussianBlur stdDeviation="1.5"/>
<feComposite in2="hardAlpha" operator="arithmetic" k2="-1" k3="1"/>
<feColorMatrix type="matrix" values="0 0 0 0 0 0 0 0 0 0 0 0 0 0 0 0 0 0 0.08 0"/>
<feBlend mode="normal" in2="shape" result="effect1_innerShadow_2665_5693"/>
</filter>
</defs>
</svg>
