<svg width="32" height="24" viewBox="0 0 32 24" fill="none" xmlns="http://www.w3.org/2000/svg">
<g filter="url(#filter0_i_2665_8133)">
<rect width="32" height="24" rx="2" fill="white"/>
<mask id="mask0_2665_8133" style="mask-type:alpha" maskUnits="userSpaceOnUse" x="0" y="0" width="32" height="24">
<rect width="32" height="24" rx="2" fill="white"/>
</mask>
<g mask="url(#mask0_2665_8133)">
<rect width="32" height="24" fill="#19BFBF"/>
<path fill-rule="evenodd" clip-rule="evenodd" d="M9.16866 6.56274C9.15238 6.46014 9.18485 6.35582 9.25649 6.2806L12.0919 3.3034C12.1548 3.23734 12.2421 3.19995 12.3333 3.19995H14.2657C14.3943 3.19995 14.5114 3.27389 14.5666 3.38997L15.1476 4.60993C15.2029 4.72601 15.32 4.79995 15.4485 4.79995H18.0752C18.2038 4.79995 18.3209 4.87389 18.3762 4.98997L20.4809 9.40993C20.5362 9.52601 20.6533 9.59995 20.7819 9.59995H22.2094C22.4805 9.59995 22.6382 9.90641 22.4806 10.127L20.5885 12.776C20.5771 12.792 20.5672 12.8088 20.5588 12.8265L19.8419 14.332C19.8206 14.3767 19.8095 14.4257 19.8095 14.4753V15.9246C19.8095 15.9742 19.7984 16.0232 19.7771 16.0679L19.0476 17.6L18.2857 19.2L17.6143 20.6099C17.559 20.726 17.4419 20.7999 17.3133 20.7999H16.2104C16.0819 20.7999 15.9648 20.726 15.9095 20.6099L15.2704 19.2679C15.2491 19.2232 15.2381 19.1742 15.2381 19.1246V14.5333C15.2381 14.4477 15.2051 14.3654 15.1461 14.3034L14.5292 13.6557C14.4943 13.619 14.4682 13.5749 14.4529 13.5266L13.7881 11.4324C13.7441 11.294 13.6156 11.2 13.4703 11.2H10.1893C10.0254 11.2 9.88581 11.0808 9.86011 10.9189L9.16866 6.56274Z" fill="white"/>
<path fill-rule="evenodd" clip-rule="evenodd" d="M21.3333 16.3333C21.3333 16.1492 21.4825 16 21.6666 16H22.5237C22.7078 16 22.8571 16.1492 22.8571 16.3333V17.5247C22.8571 17.5743 22.846 17.6232 22.8247 17.668L22.1856 19.01C22.1304 19.1261 22.0133 19.2 21.8847 19.2H21.6666C21.4825 19.2 21.3333 19.0508 21.3333 18.8667V16.3333Z" fill="white"/>
</g>
</g>
<defs>
<filter id="filter0_i_2665_8133" x="0" y="0" width="32" height="24" filterUnits="userSpaceOnUse" color-interpolation-filters="sRGB">
<feFlood flood-opacity="0" result="BackgroundImageFix"/>
<feBlend mode="normal" in="SourceGraphic" in2="BackgroundImageFix" result="shape"/>
<feColorMatrix in="SourceAlpha" type="matrix" values="0 0 0 0 0 0 0 0 0 0 0 0 0 0 0 0 0 0 127 0" result="hardAlpha"/>
<feOffset/>
<feGaussianBlur stdDeviation="1.5"/>
<feComposite in2="hardAlpha" operator="arithmetic" k2="-1" k3="1"/>
<feColorMatrix type="matrix" values="0 0 0 0 0 0 0 0 0 0 0 0 0 0 0 0 0 0 0.08 0"/>
<feBlend mode="normal" in2="shape" result="effect1_innerShadow_2665_8133"/>
</filter>
</defs>
</svg>
