<svg width="32" height="24" viewBox="0 0 32 24" fill="none" xmlns="http://www.w3.org/2000/svg">
<g filter="url(#filter0_i_2665_8131)">
<rect width="32" height="24" rx="2" fill="white"/>
<mask id="mask0_2665_8131" style="mask-type:alpha" maskUnits="userSpaceOnUse" x="0" y="0" width="32" height="24">
<rect width="32" height="24" rx="2" fill="white"/>
</mask>
<g mask="url(#mask0_2665_8131)">
<rect width="32" height="24" fill="#19BFBF"/>
<path fill-rule="evenodd" clip-rule="evenodd" d="M15.2382 17.6L14.5668 16.19C14.5115 16.0739 14.3944 16 14.2658 16H13.8572C13.766 16 13.6788 15.9626 13.6159 15.8965L10.7587 12.8965C10.6997 12.8345 10.6668 12.7522 10.6668 12.6666V11.3333C10.6668 11.2477 10.6338 11.1654 10.5748 11.1034L9.20501 9.6651C9.16437 9.62243 9.13577 9.56975 9.12212 9.51243L8.42325 6.57718C8.39696 6.46674 8.31626 6.37727 8.2091 6.33977L6.11847 5.60805C6.10307 5.60266 6.08809 5.59614 6.07365 5.58856L4.74992 4.89361C4.64024 4.83602 4.57153 4.72236 4.57153 4.59847V3.53328C4.57153 3.34919 4.72077 3.19995 4.90487 3.19995H5.95249C6.04371 3.19995 6.13095 3.23734 6.19387 3.3034L6.75873 3.8965C6.82164 3.96256 6.90888 3.99995 7.0001 3.99995H8.2382C8.32943 3.99995 8.41667 3.96256 8.47958 3.8965L9.04444 3.3034C9.10735 3.23734 9.19459 3.19995 9.28582 3.19995H12.1084C12.1624 3.19995 12.2156 3.21306 12.2633 3.23815L13.6416 3.96175C13.6894 3.98684 13.7426 3.99995 13.7966 3.99995H15.156C15.21 3.99995 15.2632 3.98684 15.311 3.96175L16.6892 3.23815C16.737 3.21306 16.7902 3.19995 16.8442 3.19995H19.4763C19.6604 3.19995 19.8096 3.34919 19.8096 3.53328V4.46662C19.8096 4.65071 19.6604 4.79995 19.4763 4.79995H18.6192C18.4351 4.79995 18.2858 4.94919 18.2858 5.13328V6.99847C18.2858 7.12236 18.3545 7.23602 18.4642 7.2936L19.3214 7.74361C19.5433 7.86013 19.8096 7.69916 19.8096 7.44847V5.93328C19.8096 5.74919 19.9589 5.59995 20.143 5.59995H21.762C21.9461 5.59995 22.0953 5.74919 22.0953 5.93328V6.06662C22.0953 6.25071 22.2446 6.39995 22.4287 6.39995H24.0477C24.2318 6.39995 24.3811 6.54919 24.3811 6.73328V7.94831C24.3811 7.98253 24.3758 8.01655 24.3654 8.04917L23.6424 10.3266C23.6271 10.3749 23.601 10.419 23.5661 10.4557L21.3701 12.7614C21.3458 12.7869 21.3257 12.8162 21.3106 12.848L20.6039 14.332C20.5826 14.3767 20.5715 14.4257 20.5715 14.4753V15.6666C20.5715 15.8507 20.4223 16 20.2382 16H20.0201C19.8915 16 19.7744 15.926 19.7191 15.8099L19.1382 14.59C19.0829 14.4739 18.9658 14.4 18.8373 14.4H16.9725C16.8439 14.4 16.7268 14.4739 16.6715 14.59L16.0683 15.8566C16.0252 15.9473 16.0252 16.0526 16.0683 16.1433L16.6715 17.4099C16.7268 17.526 16.8439 17.6 16.9725 17.6H18.143C18.2342 17.6 18.3214 17.6373 18.3843 17.7034L19.7177 19.1034C19.7767 19.1654 19.8096 19.2477 19.8096 19.3333V20.4666C19.8096 20.6507 19.6604 20.7999 19.4763 20.7999H18.4963C18.3677 20.7999 18.2506 20.726 18.1953 20.6099L17.6144 19.39C17.5591 19.2739 17.442 19.2 17.3134 19.2H16.2106C16.082 19.2 15.9649 19.126 15.9096 19.0099L15.2382 17.6Z" fill="white"/>
</g>
</g>
<defs>
<filter id="filter0_i_2665_8131" x="0" y="0" width="32" height="24" filterUnits="userSpaceOnUse" color-interpolation-filters="sRGB">
<feFlood flood-opacity="0" result="BackgroundImageFix"/>
<feBlend mode="normal" in="SourceGraphic" in2="BackgroundImageFix" result="shape"/>
<feColorMatrix in="SourceAlpha" type="matrix" values="0 0 0 0 0 0 0 0 0 0 0 0 0 0 0 0 0 0 127 0" result="hardAlpha"/>
<feOffset/>
<feGaussianBlur stdDeviation="1.5"/>
<feComposite in2="hardAlpha" operator="arithmetic" k2="-1" k3="1"/>
<feColorMatrix type="matrix" values="0 0 0 0 0 0 0 0 0 0 0 0 0 0 0 0 0 0 0.08 0"/>
<feBlend mode="normal" in2="shape" result="effect1_innerShadow_2665_8131"/>
</filter>
</defs>
</svg>
