<svg width="24" height="18" viewBox="0 0 24 18" fill="none" xmlns="http://www.w3.org/2000/svg">
<g filter="url(#filter0_i_2665_5797)">
<rect width="24" height="18" rx="2" fill="white"/>
<mask id="mask0_2665_5797" style="mask-type:alpha" maskUnits="userSpaceOnUse" x="0" y="0" width="24" height="18">
<rect width="24" height="18" rx="2" fill="white"/>
</mask>
<g mask="url(#mask0_2665_5797)">
<path fill-rule="evenodd" clip-rule="evenodd" d="M0 9.6H24V0H0V9.6Z" fill="#0C49AE"/>
<path fill-rule="evenodd" clip-rule="evenodd" d="M0 18H24V13.2H0V18Z" fill="#0C49AE"/>
<path fill-rule="evenodd" clip-rule="evenodd" d="M0 13.2H24V9.59998H0V13.2Z" fill="white"/>
<path fill-rule="evenodd" clip-rule="evenodd" d="M0 12H24V10.8H0V12Z" fill="#CD232E"/>
<path fill-rule="evenodd" clip-rule="evenodd" d="M9.14293 15C11.0365 15 12.5715 13.3883 12.5715 11.4C12.5715 9.41182 11.0365 7.80005 9.14293 7.80005C7.24938 7.80005 5.71436 9.41182 5.71436 11.4C5.71436 13.3883 7.24938 15 9.14293 15Z" stroke="#F7D035" stroke-width="1.33333" stroke-linecap="round" stroke-dasharray="0.67 2"/>
</g>
</g>
<defs>
<filter id="filter0_i_2665_5797" x="0" y="0" width="24" height="18" filterUnits="userSpaceOnUse" color-interpolation-filters="sRGB">
<feFlood flood-opacity="0" result="BackgroundImageFix"/>
<feBlend mode="normal" in="SourceGraphic" in2="BackgroundImageFix" result="shape"/>
<feColorMatrix in="SourceAlpha" type="matrix" values="0 0 0 0 0 0 0 0 0 0 0 0 0 0 0 0 0 0 127 0" result="hardAlpha"/>
<feOffset/>
<feGaussianBlur stdDeviation="1.5"/>
<feComposite in2="hardAlpha" operator="arithmetic" k2="-1" k3="1"/>
<feColorMatrix type="matrix" values="0 0 0 0 0 0 0 0 0 0 0 0 0 0 0 0 0 0 0.08 0"/>
<feBlend mode="normal" in2="shape" result="effect1_innerShadow_2665_5797"/>
</filter>
</defs>
</svg>
