<svg width="24" height="24" viewBox="0 0 24 24" fill="none" xmlns="http://www.w3.org/2000/svg">
<path fill-rule="evenodd" clip-rule="evenodd" d="M6 7C6 5.89543 6.89543 5 8 5H12V8C12 9.65686 13.3431 11 15 11H18V13.4118C18 13.9641 18.4477 14.4118 19 14.4118C19.5523 14.4118 20 13.9641 20 13.4118V9.67327C20 8.62331 19.5872 7.61546 18.8506 6.8672L16.2191 4.19393C15.4672 3.43012 14.4403 3 13.3685 3H8C5.79086 3 4 4.79086 4 7V17C4 19.2091 5.79086 21 8 21H13C13.5523 21 14 20.5523 14 20C14 19.4477 13.5523 19 13 19H8C6.89543 19 6 18.1046 6 17V7ZM17.8833 9C17.7863 8.72887 17.6311 8.47929 17.4253 8.27024L14.7938 5.59697C14.5699 5.36949 14.2972 5.20121 14 5.10231V8C14 8.55228 14.4477 9 15 9H17.8833Z" fill="#0B1125"/>
<path d="M17 18C16.4477 18 16 18.4477 16 19C16 19.5523 16.4477 20 17 20H18V21C18 21.5523 18.4477 22 19 22C19.5523 22 20 21.5523 20 21V20H21C21.5523 20 22 19.5523 22 19C22 18.4477 21.5523 18 21 18H20V17C20 16.4477 19.5523 16 19 16C18.4477 16 18 16.4477 18 17V18H17Z" fill="#0B1125"/>
</svg>
