<svg width="24" height="18" viewBox="0 0 24 18" fill="none" xmlns="http://www.w3.org/2000/svg">
<g filter="url(#filter0_i_2665_5924)">
<rect width="24" height="18" rx="2" fill="white"/>
<mask id="mask0_2665_5924" style="mask-type:alpha" maskUnits="userSpaceOnUse" x="0" y="0" width="24" height="18">
<rect width="24" height="18" rx="2" fill="white"/>
</mask>
<g mask="url(#mask0_2665_5924)">
<path fill-rule="evenodd" clip-rule="evenodd" d="M0 4.8H24V0H0V4.8Z" fill="#DD172C"/>
<path fill-rule="evenodd" clip-rule="evenodd" d="M0 18H24V13.2H0V18Z" fill="#DD172C"/>
<path fill-rule="evenodd" clip-rule="evenodd" d="M0 13.2H24V4.80005H0V13.2Z" fill="#FFD133"/>
<path fill-rule="evenodd" clip-rule="evenodd" d="M6.28564 8.39995H7.4285V8.99995H6.28564V8.39995Z" fill="#FFEDB1"/>
<path d="M5.24656 8.49309C5.23117 8.29921 5.38436 8.13338 5.57885 8.13338H6.99265C7.18714 8.13338 7.34032 8.29921 7.32494 8.49309L7.18674 10.2344C7.14944 10.7044 6.75718 11.0667 6.28575 11.0667C5.81431 11.0667 5.42206 10.7044 5.38476 10.2344L5.24656 8.49309Z" stroke="#A41517" stroke-width="0.666667"/>
<path fill-rule="evenodd" clip-rule="evenodd" d="M5.14282 9H7.42854V9.6H6.85711L6.28568 10.8L5.71425 9.6H5.14282V9Z" fill="#A41517"/>
<rect x="3.42847" y="7.19995" width="1.14286" height="4.2" rx="0.571429" fill="#A41517"/>
<rect x="8" y="7.19995" width="1.14286" height="4.2" rx="0.571429" fill="#A41517"/>
<path d="M5.14282 6.96C5.14282 6.42981 5.57263 6 6.10282 6H6.46854C6.99873 6 7.42854 6.42981 7.42854 6.96C7.42854 7.09255 7.32108 7.2 7.18854 7.2H5.38282C5.25027 7.2 5.14282 7.09255 5.14282 6.96Z" fill="#A41517"/>
</g>
</g>
<defs>
<filter id="filter0_i_2665_5924" x="0" y="0" width="24" height="18" filterUnits="userSpaceOnUse" color-interpolation-filters="sRGB">
<feFlood flood-opacity="0" result="BackgroundImageFix"/>
<feBlend mode="normal" in="SourceGraphic" in2="BackgroundImageFix" result="shape"/>
<feColorMatrix in="SourceAlpha" type="matrix" values="0 0 0 0 0 0 0 0 0 0 0 0 0 0 0 0 0 0 127 0" result="hardAlpha"/>
<feOffset/>
<feGaussianBlur stdDeviation="1.5"/>
<feComposite in2="hardAlpha" operator="arithmetic" k2="-1" k3="1"/>
<feColorMatrix type="matrix" values="0 0 0 0 0 0 0 0 0 0 0 0 0 0 0 0 0 0 0.08 0"/>
<feBlend mode="normal" in2="shape" result="effect1_innerShadow_2665_5924"/>
</filter>
</defs>
</svg>
