<svg width="24" height="18" viewBox="0 0 24 18" fill="none" xmlns="http://www.w3.org/2000/svg">
<g filter="url(#filter0_i_2665_5949)">
<rect width="24" height="18" rx="2" fill="white"/>
<mask id="mask0_2665_5949" style="mask-type:alpha" maskUnits="userSpaceOnUse" x="0" y="0" width="24" height="18">
<rect width="24" height="18" rx="2" fill="white"/>
</mask>
<g mask="url(#mask0_2665_5949)">
<rect width="24" height="18" fill="#79CFF6"/>
<rect width="10.2857" height="8.4" fill="url(#paint0_linear_2665_5949)"/>
<path fill-rule="evenodd" clip-rule="evenodd" d="M14.8572 9.00005C14.8572 7.20005 14.8572 4.80005 14.8572 4.80005H20.5715C20.5715 4.80005 20.5715 7.20005 20.5715 9.00005C20.5715 12 17.7143 13.2 17.7143 13.2C17.7143 13.2 14.8572 12 14.8572 9.00005Z" fill="white"/>
<mask id="mask1_2665_5949" style="mask-type:alpha" maskUnits="userSpaceOnUse" x="14" y="4" width="7" height="10">
<path fill-rule="evenodd" clip-rule="evenodd" d="M14.8572 9.00005C14.8572 7.20005 14.8572 4.80005 14.8572 4.80005H20.5715C20.5715 4.80005 20.5715 7.20005 20.5715 9.00005C20.5715 12 17.7143 13.2 17.7143 13.2C17.7143 13.2 14.8572 12 14.8572 9.00005Z" fill="white"/>
</mask>
<g mask="url(#mask1_2665_5949)">
<path fill-rule="evenodd" clip-rule="evenodd" d="M16.5716 7.2001C16.5716 7.53147 16.3157 7.8001 16.0001 7.8001C15.6845 7.8001 15.4287 7.53147 15.4287 7.2001C15.4287 6.86873 15.6845 6.6001 16.0001 6.6001C16.3157 6.6001 16.5716 6.86873 16.5716 7.2001ZM20.0001 7.2001C20.0001 7.53147 19.7443 7.8001 19.4287 7.8001C19.1131 7.8001 18.8573 7.53147 18.8573 7.2001C18.8573 6.86873 19.1131 6.6001 19.4287 6.6001C19.7443 6.6001 20.0001 6.86873 20.0001 7.2001Z" fill="#2A915C"/>
<path fill-rule="evenodd" clip-rule="evenodd" d="M14.8572 4.80005H20.5715V6.00005H18.2857V8.40005H20.5715V9.60005H18.2857V13.2H17.1429V9.60005H14.8572V8.40005H17.1429V6.00005H14.8572V4.80005Z" fill="#EB1D43"/>
</g>
<path d="M0 -0.333333H-0.868653L-0.222988 0.247765L3.66667 3.74845V4.63333L-0.2 7.53333L-0.333333 7.63333V7.8V8.4V9.01745L0.182885 8.67868L4.67104 5.73333H5.60317L9.46244 8.62778C9.55379 8.6963 9.6649 8.73333 9.77909 8.73333C10.2628 8.73333 10.4916 8.13688 10.1321 7.81332L6.61905 4.65155V3.76667L10.3524 0.966667C10.5203 0.840764 10.619 0.643171 10.619 0.433333V0V-0.617451L10.1028 -0.278683L5.61468 2.66667H4.68254L0.771429 -0.266667L0.68254 -0.333333H0.571429H0Z" fill="#DB1E36" stroke="white" stroke-width="0.666667"/>
<path fill-rule="evenodd" clip-rule="evenodd" d="M0 3V5.4H4V8.33333C4 8.70152 4.29848 9 4.66667 9H5.61905C5.98724 9 6.28571 8.70152 6.28571 8.33333V5.4H10.1905C10.5587 5.4 10.8571 5.10152 10.8571 4.73333V3.66667C10.8571 3.29848 10.5587 3 10.1905 3H6.28571V0H4V3H0Z" fill="url(#paint1_linear_2665_5949)"/>
<path fill-rule="evenodd" clip-rule="evenodd" d="M0 3.6H4.57143V3V0H5.71429V3V3.6H10.2857V4.8H5.71429V5.4V8.4H4.57143V5.4V4.8H0V3.6Z" fill="#DB1E36"/>
</g>
</g>
<defs>
<filter id="filter0_i_2665_5949" x="0" y="0" width="24" height="18" filterUnits="userSpaceOnUse" color-interpolation-filters="sRGB">
<feFlood flood-opacity="0" result="BackgroundImageFix"/>
<feBlend mode="normal" in="SourceGraphic" in2="BackgroundImageFix" result="shape"/>
<feColorMatrix in="SourceAlpha" type="matrix" values="0 0 0 0 0 0 0 0 0 0 0 0 0 0 0 0 0 0 127 0" result="hardAlpha"/>
<feOffset/>
<feGaussianBlur stdDeviation="1.5"/>
<feComposite in2="hardAlpha" operator="arithmetic" k2="-1" k3="1"/>
<feColorMatrix type="matrix" values="0 0 0 0 0 0 0 0 0 0 0 0 0 0 0 0 0 0 0.08 0"/>
<feBlend mode="normal" in2="shape" result="effect1_innerShadow_2665_5949"/>
</filter>
<linearGradient id="paint0_linear_2665_5949" x1="0" y1="0" x2="0" y2="8.4" gradientUnits="userSpaceOnUse">
<stop stop-color="#042C90"/>
<stop offset="1" stop-color="#00247E"/>
</linearGradient>
<linearGradient id="paint1_linear_2665_5949" x1="0" y1="0" x2="0" y2="9" gradientUnits="userSpaceOnUse">
<stop stop-color="white"/>
<stop offset="1" stop-color="#F0F0F0"/>
</linearGradient>
</defs>
</svg>
