<svg width="64" height="64" viewBox="0 0 64 64" fill="none" xmlns="http://www.w3.org/2000/svg">
<path d="M0 16.1143C0 13.3528 2.23858 11.1143 5 11.1143H56C60.4183 11.1143 64 14.696 64 19.1143V48.8285C64 53.2468 60.4183 56.8285 56 56.8285H8C3.58172 56.8285 0 53.2468 0 48.8285V16.1143Z" fill="url(#paint0_linear_1110_1329)"/>
<path d="M0 15C0 10.5817 3.58172 7 8 7H18.4363C20.0738 7 21.6402 7.66931 22.7721 8.85266L30.2279 16.6473C31.3598 17.8307 32.9262 18.5 34.5637 18.5H56C60.4183 18.5 64 22.0817 64 26.5V49C64 53.4183 60.4183 57 56 57H8C3.58172 57 0 53.4183 0 49V15Z" fill="url(#paint1_linear_1110_1329)"/>
<defs>
<linearGradient id="paint0_linear_1110_1329" x1="32" y1="11.1143" x2="32" y2="29.5" gradientUnits="userSpaceOnUse">
<stop stop-color="#4391E8"/>
<stop offset="1" stop-color="#3470DA"/>
</linearGradient>
<linearGradient id="paint1_linear_1110_1329" x1="32" y1="11" x2="32" y2="57" gradientUnits="userSpaceOnUse">
<stop stop-color="#55B3E9"/>
<stop offset="1" stop-color="#2F65E3"/>
</linearGradient>
</defs>
</svg>
