<svg width="32" height="24" viewBox="0 0 32 24" fill="none" xmlns="http://www.w3.org/2000/svg">
<g filter="url(#filter0_i_2665_8002)">
<rect width="32" height="24" rx="2" fill="white"/>
<mask id="mask0_2665_8002" style="mask-type:alpha" maskUnits="userSpaceOnUse" x="0" y="0" width="32" height="24">
<rect width="32" height="24" rx="2" fill="white"/>
</mask>
<g mask="url(#mask0_2665_8002)">
<rect width="32" height="24" fill="#E42235"/>
<rect x="3.04761" y="3.19995" width="25.9048" height="17.6" fill="#079B77"/>
<mask id="mask1_2665_8002" style="mask-type:alpha" maskUnits="userSpaceOnUse" x="3" y="3" width="26" height="18">
<rect x="3.04761" y="3.19995" width="25.9048" height="17.6" fill="white"/>
</mask>
<g mask="url(#mask1_2665_8002)">
<path fill-rule="evenodd" clip-rule="evenodd" d="M5.02065 12.1581C5.45208 12.883 6.07148 13.3616 6.64839 13.4844C6.96601 13.552 6.38449 12.0226 6.6379 11.8563C6.85412 11.7145 7.89442 12.9863 7.98551 12.721C8.1951 12.1104 8.07146 11.2459 7.60517 10.4623C6.93622 9.33827 6.91011 10.0802 5.10167 9.2749C5.29075 10.4265 4.3517 11.034 5.02065 12.1581Z" fill="#FFD938"/>
<path fill-rule="evenodd" clip-rule="evenodd" d="M16 12L28.9524 3.19995H3.04761L16 12ZM16 12L28.9524 20.8H3.04761L16 12Z" fill="#FFD93B"/>
<path fill-rule="evenodd" clip-rule="evenodd" d="M16 16C18.1039 16 19.8095 14.2091 19.8095 12C19.8095 9.79086 18.1039 8 16 8C13.896 8 12.1904 9.79086 12.1904 12C12.1904 14.2091 13.896 16 16 16Z" fill="url(#paint0_linear_2665_8002)"/>
<path fill-rule="evenodd" clip-rule="evenodd" d="M16 13.2341L14.2087 14.5889L14.8822 12.3814L13.1016 11.0112L15.3092 11.0017L16 8.80005L16.6908 11.0017L18.8985 11.0112L17.1178 12.3814L17.7914 14.5889L16 13.2341Z" fill="#FFD938"/>
</g>
</g>
</g>
<defs>
<filter id="filter0_i_2665_8002" x="0" y="0" width="32" height="24" filterUnits="userSpaceOnUse" color-interpolation-filters="sRGB">
<feFlood flood-opacity="0" result="BackgroundImageFix"/>
<feBlend mode="normal" in="SourceGraphic" in2="BackgroundImageFix" result="shape"/>
<feColorMatrix in="SourceAlpha" type="matrix" values="0 0 0 0 0 0 0 0 0 0 0 0 0 0 0 0 0 0 127 0" result="hardAlpha"/>
<feOffset/>
<feGaussianBlur stdDeviation="1.5"/>
<feComposite in2="hardAlpha" operator="arithmetic" k2="-1" k3="1"/>
<feColorMatrix type="matrix" values="0 0 0 0 0 0 0 0 0 0 0 0 0 0 0 0 0 0 0.08 0"/>
<feBlend mode="normal" in2="shape" result="effect1_innerShadow_2665_8002"/>
</filter>
<linearGradient id="paint0_linear_2665_8002" x1="12.1904" y1="8" x2="12.1904" y2="16" gradientUnits="userSpaceOnUse">
<stop stop-color="#E21C30"/>
<stop offset="1" stop-color="#CE1225"/>
</linearGradient>
</defs>
</svg>
