<svg width="24" height="18" viewBox="0 0 24 18" fill="none" xmlns="http://www.w3.org/2000/svg">
<g filter="url(#filter0_i_2665_6040)">
<rect width="24" height="18" rx="2" fill="white"/>
<mask id="mask0_2665_6040" style="mask-type:alpha" maskUnits="userSpaceOnUse" x="0" y="0" width="24" height="18">
<rect width="24" height="18" rx="2" fill="white"/>
</mask>
<g mask="url(#mask0_2665_6040)">
<path fill-rule="evenodd" clip-rule="evenodd" d="M0 6H24V0H0V6Z" fill="#E71F37"/>
<path fill-rule="evenodd" clip-rule="evenodd" d="M0 18H24V12H0V18Z" fill="#118B56"/>
<path fill-rule="evenodd" clip-rule="evenodd" d="M0 12H24V6H0V12Z" fill="#FDD64C"/>
<path fill-rule="evenodd" clip-rule="evenodd" d="M12 10.4506L10.3206 11.7271L10.9579 9.65558L9.28266 8.373L11.3559 8.36926L12 6.30005L12.644 8.36926L14.7173 8.373L13.0421 9.65558L13.6794 11.7271L12 10.4506Z" fill="#262626"/>
</g>
</g>
<defs>
<filter id="filter0_i_2665_6040" x="0" y="0" width="24" height="18" filterUnits="userSpaceOnUse" color-interpolation-filters="sRGB">
<feFlood flood-opacity="0" result="BackgroundImageFix"/>
<feBlend mode="normal" in="SourceGraphic" in2="BackgroundImageFix" result="shape"/>
<feColorMatrix in="SourceAlpha" type="matrix" values="0 0 0 0 0 0 0 0 0 0 0 0 0 0 0 0 0 0 127 0" result="hardAlpha"/>
<feOffset/>
<feGaussianBlur stdDeviation="1.5"/>
<feComposite in2="hardAlpha" operator="arithmetic" k2="-1" k3="1"/>
<feColorMatrix type="matrix" values="0 0 0 0 0 0 0 0 0 0 0 0 0 0 0 0 0 0 0.08 0"/>
<feBlend mode="normal" in2="shape" result="effect1_innerShadow_2665_6040"/>
</filter>
</defs>
</svg>
