<svg width="32" height="24" viewBox="0 0 32 24" fill="none" xmlns="http://www.w3.org/2000/svg">
<g filter="url(#filter0_i_2665_8000)">
<rect x="0.25" y="0.25" width="31.5" height="23.5" rx="1.75" fill="white" stroke="#F5F5F5" stroke-width="0.5"/>
<mask id="mask0_2665_8000" style="mask-type:alpha" maskUnits="userSpaceOnUse" x="0" y="0" width="32" height="24">
<rect x="0.25" y="0.25" width="31.5" height="23.5" rx="1.75" fill="white" stroke="white" stroke-width="0.5"/>
</mask>
<g mask="url(#mask0_2665_8000)">
<rect x="21.3333" width="10.6667" height="24" fill="#63AEE3"/>
<path fill-rule="evenodd" clip-rule="evenodd" d="M0 24H10.6667V0H0V24Z" fill="#63AEE3"/>
<path d="M13.6191 11.2C13.6191 10.8318 13.3206 10.5333 12.9524 10.5333C12.5842 10.5333 12.2857 10.8318 12.2857 11.2H13.6191ZM14.1258 14.539C14.4403 14.7306 14.8505 14.631 15.042 14.3166C15.2336 14.0022 15.134 13.592 14.8196 13.4004L14.1258 14.539ZM17.2682 13.3443C16.9625 13.5495 16.8811 13.9637 17.0864 14.2694C17.2917 14.575 17.7058 14.6564 18.0115 14.4512L17.2682 13.3443ZM19.7143 11.2C19.7143 10.8318 19.4158 10.5333 19.0476 10.5333C18.6794 10.5333 18.381 10.8318 18.381 11.2H19.7143ZM12.2857 11.2C12.2857 12.6145 13.0174 13.8638 14.1258 14.539L14.8196 13.4004C14.11 12.9681 13.6191 12.1512 13.6191 11.2H12.2857ZM18.0115 14.4512C19.0424 13.7589 19.7143 12.5556 19.7143 11.2H18.381C18.381 12.1112 17.9304 12.8995 17.2682 13.3443L18.0115 14.4512Z" fill="#628A40"/>
<path fill-rule="evenodd" clip-rule="evenodd" d="M15.9999 12.8001C16.8415 12.8001 17.5237 12.0838 17.5237 11.2001C17.5237 10.3164 16.8415 9.6001 15.9999 9.6001C15.1583 9.6001 14.4761 10.3164 14.4761 11.2001C14.4761 12.0838 15.1583 12.8001 15.9999 12.8001Z" fill="#DCC26D"/>
</g>
</g>
<defs>
<filter id="filter0_i_2665_8000" x="0" y="0" width="32" height="24" filterUnits="userSpaceOnUse" color-interpolation-filters="sRGB">
<feFlood flood-opacity="0" result="BackgroundImageFix"/>
<feBlend mode="normal" in="SourceGraphic" in2="BackgroundImageFix" result="shape"/>
<feColorMatrix in="SourceAlpha" type="matrix" values="0 0 0 0 0 0 0 0 0 0 0 0 0 0 0 0 0 0 127 0" result="hardAlpha"/>
<feOffset/>
<feGaussianBlur stdDeviation="1.5"/>
<feComposite in2="hardAlpha" operator="arithmetic" k2="-1" k3="1"/>
<feColorMatrix type="matrix" values="0 0 0 0 0 0 0 0 0 0 0 0 0 0 0 0 0 0 0.08 0"/>
<feBlend mode="normal" in2="shape" result="effect1_innerShadow_2665_8000"/>
</filter>
</defs>
</svg>
