<svg width="24" height="18" viewBox="0 0 24 18" fill="none" xmlns="http://www.w3.org/2000/svg">
<g filter="url(#filter0_i_2665_6198)">
<rect x="0.25" y="0.25" width="23.5" height="17.5" rx="1.75" fill="white" stroke="#F5F5F5" stroke-width="0.5"/>
<mask id="mask0_2665_6198" style="mask-type:alpha" maskUnits="userSpaceOnUse" x="0" y="0" width="24" height="18">
<rect x="0.25" y="0.25" width="23.5" height="17.5" rx="1.75" fill="white" stroke="white" stroke-width="0.5"/>
</mask>
<g mask="url(#mask0_2665_6198)">
<path fill-rule="evenodd" clip-rule="evenodd" d="M0 3.6H24V0H0V3.6Z" fill="#0E46D4"/>
<path fill-rule="evenodd" clip-rule="evenodd" d="M0 18H24V14.4H0V18Z" fill="#0E46D4"/>
<path d="M8.85671 10.6416L8.59332 11.1394L9.13586 11.1394L14.8501 11.1394L15.4131 11.1394L15.1446 10.632L12.2875 5.23196L12.0032 4.69469L11.7138 5.24161L8.85671 10.6416Z" stroke="#093EC5" stroke-width="0.666667"/>
<path d="M8.85671 7.35839L8.59332 6.86059L9.13586 6.86059L14.8501 6.86059L15.4131 6.86059L15.1446 7.36804L12.2875 12.768L12.0032 13.3053L11.7138 12.7584L8.85671 7.35839Z" stroke="#093EC5" stroke-width="0.666667"/>
</g>
</g>
<defs>
<filter id="filter0_i_2665_6198" x="0" y="0" width="24" height="18" filterUnits="userSpaceOnUse" color-interpolation-filters="sRGB">
<feFlood flood-opacity="0" result="BackgroundImageFix"/>
<feBlend mode="normal" in="SourceGraphic" in2="BackgroundImageFix" result="shape"/>
<feColorMatrix in="SourceAlpha" type="matrix" values="0 0 0 0 0 0 0 0 0 0 0 0 0 0 0 0 0 0 127 0" result="hardAlpha"/>
<feOffset/>
<feGaussianBlur stdDeviation="1.5"/>
<feComposite in2="hardAlpha" operator="arithmetic" k2="-1" k3="1"/>
<feColorMatrix type="matrix" values="0 0 0 0 0 0 0 0 0 0 0 0 0 0 0 0 0 0 0.08 0"/>
<feBlend mode="normal" in2="shape" result="effect1_innerShadow_2665_6198"/>
</filter>
</defs>
</svg>
