<svg width="32" height="24" viewBox="0 0 32 24" fill="none" xmlns="http://www.w3.org/2000/svg">
<g filter="url(#filter0_i_2665_8037)">
<rect width="32" height="24" rx="2" fill="white"/>
<mask id="mask0_2665_8037" style="mask-type:alpha" maskUnits="userSpaceOnUse" x="0" y="0" width="32" height="24">
<rect width="32" height="24" rx="2" fill="white"/>
</mask>
<g mask="url(#mask0_2665_8037)">
<rect width="32" height="24" fill="#86D7FF"/>
<g filter="url(#filter1_d_2665_8037)">
<path fill-rule="evenodd" clip-rule="evenodd" d="M16 3.19995L22.8571 20.7999H9.14282L16 3.19995Z" fill="white"/>
</g>
<path fill-rule="evenodd" clip-rule="evenodd" d="M16 6.3999L21.3333 20.7999H10.6666L16 6.3999Z" fill="#262626"/>
<path fill-rule="evenodd" clip-rule="evenodd" d="M16 11.2L22.8571 20.8H9.14282L16 11.2Z" fill="#FFDA57"/>
</g>
</g>
<defs>
<filter id="filter0_i_2665_8037" x="0" y="0" width="32" height="24" filterUnits="userSpaceOnUse" color-interpolation-filters="sRGB">
<feFlood flood-opacity="0" result="BackgroundImageFix"/>
<feBlend mode="normal" in="SourceGraphic" in2="BackgroundImageFix" result="shape"/>
<feColorMatrix in="SourceAlpha" type="matrix" values="0 0 0 0 0 0 0 0 0 0 0 0 0 0 0 0 0 0 127 0" result="hardAlpha"/>
<feOffset/>
<feGaussianBlur stdDeviation="1.5"/>
<feComposite in2="hardAlpha" operator="arithmetic" k2="-1" k3="1"/>
<feColorMatrix type="matrix" values="0 0 0 0 0 0 0 0 0 0 0 0 0 0 0 0 0 0 0.08 0"/>
<feBlend mode="normal" in2="shape" result="effect1_innerShadow_2665_8037"/>
</filter>
<filter id="filter1_d_2665_8037" x="9.14282" y="3.19995" width="13.7142" height="18.6001" filterUnits="userSpaceOnUse" color-interpolation-filters="sRGB">
<feFlood flood-opacity="0" result="BackgroundImageFix"/>
<feColorMatrix in="SourceAlpha" type="matrix" values="0 0 0 0 0 0 0 0 0 0 0 0 0 0 0 0 0 0 127 0" result="hardAlpha"/>
<feOffset dy="1"/>
<feColorMatrix type="matrix" values="0 0 0 0 0 0 0 0 0 0 0 0 0 0 0 0 0 0 0.06 0"/>
<feBlend mode="normal" in2="BackgroundImageFix" result="effect1_dropShadow_2665_8037"/>
<feBlend mode="normal" in="SourceGraphic" in2="effect1_dropShadow_2665_8037" result="shape"/>
</filter>
</defs>
</svg>
