<svg width="24" height="18" viewBox="0 0 24 18" fill="none" xmlns="http://www.w3.org/2000/svg">
<g filter="url(#filter0_i_2665_6459)">
<rect x="0.25" y="0.25" width="23.5" height="17.5" rx="1.75" fill="white" stroke="#F5F5F5" stroke-width="0.5"/>
<mask id="mask0_2665_6459" style="mask-type:alpha" maskUnits="userSpaceOnUse" x="0" y="0" width="24" height="18">
<rect x="0.25" y="0.25" width="23.5" height="17.5" rx="1.75" fill="white" stroke="white" stroke-width="0.5"/>
</mask>
<g mask="url(#mask0_2665_6459)">
<path fill-rule="evenodd" clip-rule="evenodd" d="M0 6H24V0H0V6Z" fill="#0C33B8"/>
<path fill-rule="evenodd" clip-rule="evenodd" d="M0 18H24V12H0V18Z" fill="#1DB158"/>
<path fill-rule="evenodd" clip-rule="evenodd" d="M11.4286 9C11.6056 8.4425 12.3944 8.4425 12.5714 9L13.5747 10.5801C13.6567 10.7093 13.6381 10.8768 13.5121 10.9637C13.2544 11.1414 12.7504 11.4 12 11.4C11.2496 11.4 10.7456 11.1414 10.4879 10.9637C10.3619 10.8768 10.3433 10.7093 10.4253 10.5801L11.4286 9Z" fill="#262626"/>
<path d="M12.8096 7.79998C12.8096 8.29413 12.432 8.66664 12 8.66664C11.5681 8.66664 11.1905 8.29413 11.1905 7.79998C11.1905 7.30582 11.5681 6.93331 12 6.93331C12.432 6.93331 12.8096 7.30582 12.8096 7.79998Z" stroke="#262626" stroke-width="0.666667"/>
</g>
</g>
<defs>
<filter id="filter0_i_2665_6459" x="0" y="0" width="24" height="18" filterUnits="userSpaceOnUse" color-interpolation-filters="sRGB">
<feFlood flood-opacity="0" result="BackgroundImageFix"/>
<feBlend mode="normal" in="SourceGraphic" in2="BackgroundImageFix" result="shape"/>
<feColorMatrix in="SourceAlpha" type="matrix" values="0 0 0 0 0 0 0 0 0 0 0 0 0 0 0 0 0 0 127 0" result="hardAlpha"/>
<feOffset/>
<feGaussianBlur stdDeviation="1.5"/>
<feComposite in2="hardAlpha" operator="arithmetic" k2="-1" k3="1"/>
<feColorMatrix type="matrix" values="0 0 0 0 0 0 0 0 0 0 0 0 0 0 0 0 0 0 0.08 0"/>
<feBlend mode="normal" in2="shape" result="effect1_innerShadow_2665_6459"/>
</filter>
</defs>
</svg>
