<svg width="24" height="24" viewBox="0 0 24 24" fill="none" xmlns="http://www.w3.org/2000/svg">
<path fill-rule="evenodd" clip-rule="evenodd" d="M20 10.9226V18.0001C20 19.1046 19.1046 20.0001 18 20.0001H6C4.89543 20.0001 4 19.1046 4 18.0001V10.9226C4 10.315 4.27618 9.74037 4.75061 9.36082L10.7506 4.56082C11.481 3.97647 12.519 3.97647 13.2494 4.56082L19.2494 9.36082C19.7238 9.74037 20 10.315 20 10.9226ZM2 10.9226C2 9.70742 2.55236 8.55817 3.50122 7.79908L9.50122 2.99908C10.9621 1.83038 13.0379 1.83038 14.4988 2.99908L20.4988 7.79908C21.4476 8.55817 22 9.70742 22 10.9226V18.0001C22 20.2092 20.2091 22.0001 18 22.0001H6C3.79086 22.0001 2 20.2092 2 18.0001V10.9226ZM7.70711 10.293C7.31658 9.90243 6.68342 9.90243 6.29289 10.293C5.90237 10.6835 5.90237 11.3166 6.29289 11.7072L9.87868 15.293C11.0503 16.4645 12.9497 16.4645 14.1213 15.293L17.7071 11.7072C18.0976 11.3166 18.0976 10.6835 17.7071 10.293C17.3166 9.90243 16.6834 9.90243 16.2929 10.293L12.7071 13.8787C12.3166 14.2693 11.6834 14.2693 11.2929 13.8787L7.70711 10.293Z" fill="#0B1125"/>
</svg>
