<svg width="24" height="24" viewBox="0 0 24 24" fill="none" xmlns="http://www.w3.org/2000/svg">
<path fill-rule="evenodd" clip-rule="evenodd" d="M14 6H10C9.44772 6 9 6.44772 9 7V17C9 17.5523 9.44772 18 10 18H14C14.5523 18 15 17.5523 15 17V7C15 6.44772 14.5523 6 14 6ZM10 4C8.34315 4 7 5.34315 7 7V17C7 18.6569 8.34315 20 10 20H14C15.6569 20 17 18.6569 17 17V7C17 5.34315 15.6569 4 14 4H10Z" fill="#0B1125"/>
</svg>
