<svg width="24" height="18" viewBox="0 0 24 18" fill="none" xmlns="http://www.w3.org/2000/svg">
<g filter="url(#filter0_i_2665_6820)">
<rect x="0.25" y="0.25" width="23.5" height="17.5" rx="1.75" fill="white" stroke="#F5F5F5" stroke-width="0.5"/>
<mask id="mask0_2665_6820" style="mask-type:alpha" maskUnits="userSpaceOnUse" x="0" y="0" width="24" height="18">
<rect x="0.25" y="0.25" width="23.5" height="17.5" rx="1.75" fill="white" stroke="white" stroke-width="0.5"/>
</mask>
<g mask="url(#mask0_2665_6820)">
<path fill-rule="evenodd" clip-rule="evenodd" d="M24 0H6.85718V18H24V0Z" fill="#0A632F"/>
<path fill-rule="evenodd" clip-rule="evenodd" d="M20.2887 9.67545C20.1787 10.801 19.7218 11.8826 18.9142 12.7306C16.9892 14.7518 13.8005 14.6809 11.7921 12.572C9.78366 10.4632 9.71606 7.11509 11.6411 5.09381C12.4487 4.24581 13.4787 3.76607 14.5507 3.65057C14.2131 3.85951 13.8934 4.11734 13.6017 4.42372C11.8516 6.26125 11.7651 9.14958 13.4083 10.875C15.0516 12.6004 17.8023 12.5095 19.5524 10.672C19.8442 10.3656 20.0897 10.03 20.2887 9.67545ZM18.0793 7.29419L17.8065 9.00279L17.0442 7.46632L15.4123 7.72192L16.5685 6.48592L15.8327 4.93529L17.3095 5.70787L18.4866 4.49393L18.2432 6.20741L19.7065 7.00779L18.0793 7.29419Z" fill="white"/>
</g>
</g>
<defs>
<filter id="filter0_i_2665_6820" x="0" y="0" width="24" height="18" filterUnits="userSpaceOnUse" color-interpolation-filters="sRGB">
<feFlood flood-opacity="0" result="BackgroundImageFix"/>
<feBlend mode="normal" in="SourceGraphic" in2="BackgroundImageFix" result="shape"/>
<feColorMatrix in="SourceAlpha" type="matrix" values="0 0 0 0 0 0 0 0 0 0 0 0 0 0 0 0 0 0 127 0" result="hardAlpha"/>
<feOffset/>
<feGaussianBlur stdDeviation="1.5"/>
<feComposite in2="hardAlpha" operator="arithmetic" k2="-1" k3="1"/>
<feColorMatrix type="matrix" values="0 0 0 0 0 0 0 0 0 0 0 0 0 0 0 0 0 0 0.08 0"/>
<feBlend mode="normal" in2="shape" result="effect1_innerShadow_2665_6820"/>
</filter>
</defs>
</svg>
