<svg width="24" height="18" viewBox="0 0 24 18" fill="none" xmlns="http://www.w3.org/2000/svg">
<g filter="url(#filter0_i_2665_6803)">
<rect width="24" height="18" rx="2" fill="white"/>
<mask id="mask0_2665_6803" style="mask-type:alpha" maskUnits="userSpaceOnUse" x="0" y="0" width="24" height="18">
<rect width="24" height="18" rx="2" fill="white"/>
</mask>
<g mask="url(#mask0_2665_6803)">
<rect width="24" height="18" fill="#FF2936"/>
<path fill-rule="evenodd" clip-rule="evenodd" d="M0 18H9.14286V0H0V18Z" fill="#128415"/>
<path d="M9.14289 12.0666C10.8037 12.0666 12.0953 10.6626 12.0953 8.99998C12.0953 7.33733 10.8037 5.93331 9.14289 5.93331C7.48206 5.93331 6.19051 7.33733 6.19051 8.99998C6.19051 10.6626 7.48206 12.0666 9.14289 12.0666Z" stroke="#FAF94F" stroke-width="1.33333"/>
<path fill-rule="evenodd" clip-rule="evenodd" d="M8 7.53328C8 7.34919 8.14924 7.19995 8.33333 7.19995H9.95238C10.1365 7.19995 10.2857 7.34919 10.2857 7.53328V9.65709C10.2857 10.2883 9.77404 10.8 9.14286 10.8C8.51167 10.8 8 10.2883 8 9.65709V7.53328Z" fill="white"/>
<path fill-rule="evenodd" clip-rule="evenodd" d="M9.14296 9.60005C9.45855 9.60005 9.71439 8.73142 9.71439 8.40005C9.71439 8.06868 9.45855 7.80005 9.14296 7.80005C8.82737 7.80005 8.57153 8.06868 8.57153 8.40005C8.57153 8.73142 8.82737 9.60005 9.14296 9.60005Z" fill="#1D50B5"/>
</g>
</g>
<defs>
<filter id="filter0_i_2665_6803" x="0" y="0" width="24" height="18" filterUnits="userSpaceOnUse" color-interpolation-filters="sRGB">
<feFlood flood-opacity="0" result="BackgroundImageFix"/>
<feBlend mode="normal" in="SourceGraphic" in2="BackgroundImageFix" result="shape"/>
<feColorMatrix in="SourceAlpha" type="matrix" values="0 0 0 0 0 0 0 0 0 0 0 0 0 0 0 0 0 0 127 0" result="hardAlpha"/>
<feOffset/>
<feGaussianBlur stdDeviation="1.5"/>
<feComposite in2="hardAlpha" operator="arithmetic" k2="-1" k3="1"/>
<feColorMatrix type="matrix" values="0 0 0 0 0 0 0 0 0 0 0 0 0 0 0 0 0 0 0.08 0"/>
<feBlend mode="normal" in2="shape" result="effect1_innerShadow_2665_6803"/>
</filter>
</defs>
</svg>
