<svg width="32" height="24" viewBox="0 0 32 24" fill="none" xmlns="http://www.w3.org/2000/svg">
<g filter="url(#filter0_i_2665_8085)">
<rect x="0.25" y="0.25" width="31.5" height="23.5" rx="1.75" fill="white" stroke="#F5F5F5" stroke-width="0.5"/>
<mask id="mask0_2665_8085" style="mask-type:alpha" maskUnits="userSpaceOnUse" x="0" y="0" width="32" height="24">
<rect x="0.25" y="0.25" width="31.5" height="23.5" rx="1.75" fill="white" stroke="white" stroke-width="0.5"/>
</mask>
<g mask="url(#mask0_2665_8085)">
<path fill-rule="evenodd" clip-rule="evenodd" d="M0 16H32V8H0V16Z" fill="#17508F"/>
<path fill-rule="evenodd" clip-rule="evenodd" d="M0 8H32V0H0V8Z" fill="#E1444D"/>
<path fill-rule="evenodd" clip-rule="evenodd" d="M6.85718 12C6.85718 11.1992 7.27757 9.38099 7.49381 8.49874C7.56604 8.20406 7.8308 8 8.1342 8H11.6765C11.9794 8 12.2438 8.2033 12.3164 8.49735C12.5328 9.37446 12.9524 11.1808 12.9524 12C12.9524 12.9082 12.3623 15.3158 12.2208 15.8803C12.2008 15.9601 12.1664 16.0339 12.1159 16.0988C11.8446 16.4476 10.8747 17.6 9.9048 17.6C8.93433 17.6 7.96387 16.4463 7.69317 16.0982C7.64298 16.0337 7.6088 15.9603 7.58876 15.8811C7.44709 15.3206 6.85718 12.9307 6.85718 12Z" fill="white"/>
<mask id="mask1_2665_8085" style="mask-type:alpha" maskUnits="userSpaceOnUse" x="6" y="8" width="7" height="10">
<path fill-rule="evenodd" clip-rule="evenodd" d="M6.85718 12C6.85718 11.1992 7.27757 9.38099 7.49381 8.49874C7.56604 8.20406 7.8308 8 8.1342 8H11.6765C11.9794 8 12.2438 8.2033 12.3164 8.49735C12.5328 9.37446 12.9524 11.1808 12.9524 12C12.9524 12.9082 12.3623 15.3158 12.2208 15.8803C12.2008 15.9601 12.1664 16.0339 12.1159 16.0988C11.8446 16.4476 10.8747 17.6 9.9048 17.6C8.93433 17.6 7.96387 16.4463 7.69317 16.0982C7.64298 16.0337 7.6088 15.9603 7.58876 15.8811C7.44709 15.3206 6.85718 12.9307 6.85718 12Z" fill="white"/>
</mask>
<g mask="url(#mask1_2665_8085)">
<path d="M12.9524 8.8L6.85712 16.8" stroke="#E1444D" stroke-width="1.33333" stroke-linecap="square"/>
<path d="M6.85721 8.8L12.9525 16.8" stroke="#E1444D" stroke-width="1.33333" stroke-linecap="square"/>
</g>
</g>
</g>
<defs>
<filter id="filter0_i_2665_8085" x="0" y="0" width="32" height="24" filterUnits="userSpaceOnUse" color-interpolation-filters="sRGB">
<feFlood flood-opacity="0" result="BackgroundImageFix"/>
<feBlend mode="normal" in="SourceGraphic" in2="BackgroundImageFix" result="shape"/>
<feColorMatrix in="SourceAlpha" type="matrix" values="0 0 0 0 0 0 0 0 0 0 0 0 0 0 0 0 0 0 127 0" result="hardAlpha"/>
<feOffset/>
<feGaussianBlur stdDeviation="1.5"/>
<feComposite in2="hardAlpha" operator="arithmetic" k2="-1" k3="1"/>
<feColorMatrix type="matrix" values="0 0 0 0 0 0 0 0 0 0 0 0 0 0 0 0 0 0 0.08 0"/>
<feBlend mode="normal" in2="shape" result="effect1_innerShadow_2665_8085"/>
</filter>
</defs>
</svg>
