<svg width="24" height="18" viewBox="0 0 24 18" fill="none" xmlns="http://www.w3.org/2000/svg">
<g filter="url(#filter0_i_2665_6854)">
<rect x="0.25" y="0.25" width="23.5" height="17.5" rx="1.75" fill="white" stroke="#F5F5F5" stroke-width="0.5"/>
<mask id="mask0_2665_6854" style="mask-type:alpha" maskUnits="userSpaceOnUse" x="0" y="0" width="24" height="18">
<rect x="0.25" y="0.25" width="23.5" height="17.5" rx="1.75" fill="white" stroke="white" stroke-width="0.5"/>
</mask>
<g mask="url(#mask0_2665_6854)">
<path fill-rule="evenodd" clip-rule="evenodd" d="M0 12H24V6H0V12Z" fill="#17508F"/>
<path fill-rule="evenodd" clip-rule="evenodd" d="M0 6H24V0H0V6Z" fill="#E1444D"/>
<path fill-rule="evenodd" clip-rule="evenodd" d="M5.14282 9C5.14282 8.43505 5.42178 7.19504 5.58988 6.49908C5.66112 6.20416 5.92597 6 6.22937 6H8.62885C8.93172 6 9.19625 6.20348 9.26777 6.49778C9.43593 7.18973 9.71425 8.42223 9.71425 9C9.71425 9.66627 9.29078 11.4086 9.17293 11.8806C9.15302 11.9604 9.11887 12.0339 9.06788 12.0984C8.84118 12.3851 8.13486 13.2 7.42854 13.2C6.72174 13.2 6.01494 12.384 5.78874 12.0978C5.73805 12.0337 5.70404 11.9606 5.68409 11.8814C5.56616 11.4127 5.14282 9.68277 5.14282 9Z" fill="white"/>
<mask id="mask1_2665_6854" style="mask-type:alpha" maskUnits="userSpaceOnUse" x="5" y="6" width="5" height="8">
<path fill-rule="evenodd" clip-rule="evenodd" d="M5.14282 9C5.14282 8.43505 5.42178 7.19504 5.58988 6.49908C5.66112 6.20416 5.92597 6 6.22937 6H8.62885C8.93172 6 9.19625 6.20348 9.26777 6.49778C9.43593 7.18973 9.71425 8.42223 9.71425 9C9.71425 9.66627 9.29078 11.4086 9.17293 11.8806C9.15302 11.9604 9.11887 12.0339 9.06788 12.0984C8.84118 12.3851 8.13486 13.2 7.42854 13.2C6.72174 13.2 6.01494 12.384 5.78874 12.0978C5.73805 12.0337 5.70404 11.9606 5.68409 11.8814C5.56616 11.4127 5.14282 9.68277 5.14282 9Z" fill="white"/>
</mask>
<g mask="url(#mask1_2665_6854)">
<path d="M9.71415 6.6L5.14272 12.6" stroke="#E1444D" stroke-width="1.33333" stroke-linecap="square"/>
<path d="M5.14279 6.6L9.71422 12.6" stroke="#E1444D" stroke-width="1.33333" stroke-linecap="square"/>
</g>
</g>
</g>
<defs>
<filter id="filter0_i_2665_6854" x="0" y="0" width="24" height="18" filterUnits="userSpaceOnUse" color-interpolation-filters="sRGB">
<feFlood flood-opacity="0" result="BackgroundImageFix"/>
<feBlend mode="normal" in="SourceGraphic" in2="BackgroundImageFix" result="shape"/>
<feColorMatrix in="SourceAlpha" type="matrix" values="0 0 0 0 0 0 0 0 0 0 0 0 0 0 0 0 0 0 127 0" result="hardAlpha"/>
<feOffset/>
<feGaussianBlur stdDeviation="1.5"/>
<feComposite in2="hardAlpha" operator="arithmetic" k2="-1" k3="1"/>
<feColorMatrix type="matrix" values="0 0 0 0 0 0 0 0 0 0 0 0 0 0 0 0 0 0 0.08 0"/>
<feBlend mode="normal" in2="shape" result="effect1_innerShadow_2665_6854"/>
</filter>
</defs>
</svg>
