<svg width="24" height="24" viewBox="0 0 24 24" fill="none" xmlns="http://www.w3.org/2000/svg">
<path fill-rule="evenodd" clip-rule="evenodd" d="M17 5H11V9L19 9V7C19 5.89543 18.1046 5 17 5ZM19 11L11 11V19H17C18.1046 19 19 18.1046 19 17V11ZM9 9V5H7C5.89543 5 5 5.89543 5 7V9H9ZM5 11H9V19H7C5.89543 19 5 18.1046 5 17V11ZM7 3C4.79086 3 3 4.79086 3 7V17C3 19.2091 4.79086 21 7 21H17C19.2091 21 21 19.2091 21 17V7C21 4.79086 19.2091 3 17 3H7Z" fill="#0B1125"/>
</svg>
