<svg width="24" height="18" viewBox="0 0 24 18" fill="none" xmlns="http://www.w3.org/2000/svg">
<g filter="url(#filter0_i_2665_7020)">
<rect x="0.25" y="0.25" width="23.5" height="17.5" rx="1.75" fill="white" stroke="#F5F5F5" stroke-width="0.5"/>
<mask id="mask0_2665_7020" style="mask-type:alpha" maskUnits="userSpaceOnUse" x="0" y="0" width="24" height="18">
<rect x="0.25" y="0.25" width="23.5" height="17.5" rx="1.75" fill="white" stroke="white" stroke-width="0.5"/>
</mask>
<g mask="url(#mask0_2665_7020)">
<path fill-rule="evenodd" clip-rule="evenodd" d="M0 6H24V0H0V6Z" fill="#D9101C"/>
<path fill-rule="evenodd" clip-rule="evenodd" d="M0 18H24V12H0V18Z" fill="#0F7811"/>
<path fill-rule="evenodd" clip-rule="evenodd" d="M11.4286 7.79995C11.4286 8.13132 11.1727 8.39995 10.8571 8.39995C10.5416 8.39995 10.2857 8.13132 10.2857 7.79995C10.2857 7.46858 10.5416 7.19995 10.8571 7.19995C11.1727 7.19995 11.4286 7.46858 11.4286 7.79995ZM12.5714 8.99995C12.5714 9.10848 12.544 9.33899 12.496 9.59995H13.1143C13.4457 9.59995 13.7143 9.86858 13.7143 10.2C13.7143 10.5313 13.4457 10.8 13.1143 10.8H12.0002L12 10.8L11.9998 10.8H10.8857C10.5543 10.8 10.2857 10.5313 10.2857 10.2C10.2857 9.86858 10.5543 9.59995 10.8857 9.59995H11.504C11.456 9.33899 11.4286 9.10848 11.4286 8.99995C11.4286 8.66858 11.6844 8.39995 12 8.39995C12.3156 8.39995 12.5714 8.66858 12.5714 8.99995ZM13.7143 7.79995C13.7143 8.13132 13.4584 8.39995 13.1429 8.39995C12.8273 8.39995 12.5714 8.13132 12.5714 7.79995C12.5714 7.46858 12.8273 7.19995 13.1429 7.19995C13.4584 7.19995 13.7143 7.46858 13.7143 7.79995ZM15.4286 9.59995C15.7442 9.59995 16 9.33132 16 8.99995C16 8.66858 15.7442 8.39995 15.4286 8.39995C15.113 8.39995 14.8571 8.66858 14.8571 8.99995C14.8571 9.33132 15.113 9.59995 15.4286 9.59995ZM9.14286 8.99995C9.14286 9.33132 8.88702 9.59995 8.57143 9.59995C8.25584 9.59995 8 9.33132 8 8.99995C8 8.66858 8.25584 8.39995 8.57143 8.39995C8.88702 8.39995 9.14286 8.66858 9.14286 8.99995Z" fill="#FAD14E"/>
</g>
</g>
<defs>
<filter id="filter0_i_2665_7020" x="0" y="0" width="24" height="18" filterUnits="userSpaceOnUse" color-interpolation-filters="sRGB">
<feFlood flood-opacity="0" result="BackgroundImageFix"/>
<feBlend mode="normal" in="SourceGraphic" in2="BackgroundImageFix" result="shape"/>
<feColorMatrix in="SourceAlpha" type="matrix" values="0 0 0 0 0 0 0 0 0 0 0 0 0 0 0 0 0 0 127 0" result="hardAlpha"/>
<feOffset/>
<feGaussianBlur stdDeviation="1.5"/>
<feComposite in2="hardAlpha" operator="arithmetic" k2="-1" k3="1"/>
<feColorMatrix type="matrix" values="0 0 0 0 0 0 0 0 0 0 0 0 0 0 0 0 0 0 0.08 0"/>
<feBlend mode="normal" in2="shape" result="effect1_innerShadow_2665_7020"/>
</filter>
</defs>
</svg>
