<svg width="32" height="24" viewBox="0 0 32 24" fill="none" xmlns="http://www.w3.org/2000/svg">
<g filter="url(#filter0_i_2665_8114)">
<rect width="32" height="24" rx="2" fill="white"/>
<mask id="mask0_2665_8114" style="mask-type:alpha" maskUnits="userSpaceOnUse" x="0" y="0" width="32" height="24">
<rect width="32" height="24" rx="2" fill="white"/>
</mask>
<g mask="url(#mask0_2665_8114)">
<path fill-rule="evenodd" clip-rule="evenodd" d="M0 24H32V0H0V24Z" fill="#30C375"/>
<rect x="4.57153" width="4.57143" height="24" fill="#DE414F"/>
<path fill-rule="evenodd" clip-rule="evenodd" d="M6.85725 4.8001C8.11961 4.8001 9.14296 4.08375 9.14296 3.2001C9.14296 2.31644 8.11961 1.6001 6.85725 1.6001C5.59488 1.6001 4.57153 2.31644 4.57153 3.2001C4.57153 4.08375 5.59488 4.8001 6.85725 4.8001Z" fill="white"/>
<mask id="mask1_2665_8114" style="mask-type:alpha" maskUnits="userSpaceOnUse" x="4" y="1" width="6" height="4">
<path fill-rule="evenodd" clip-rule="evenodd" d="M6.85725 4.8001C8.11961 4.8001 9.14296 4.08375 9.14296 3.2001C9.14296 2.31644 8.11961 1.6001 6.85725 1.6001C5.59488 1.6001 4.57153 2.31644 4.57153 3.2001C4.57153 4.08375 5.59488 4.8001 6.85725 4.8001Z" fill="white"/>
</mask>
<g mask="url(#mask1_2665_8114)">
<path fill-rule="evenodd" clip-rule="evenodd" d="M6.85736 4.00015C7.27815 4.00015 7.61927 3.64197 7.61927 3.20015C7.61927 2.75832 7.27815 2.40015 6.85736 2.40015C6.43658 2.40015 6.09546 2.75832 6.09546 3.20015C6.09546 3.64197 6.43658 4.00015 6.85736 4.00015Z" fill="#DD404F"/>
<rect x="4.57153" y="1.6001" width="2.28571" height="1.6" fill="#FBAF29"/>
<rect x="6.85718" y="3.2002" width="2.28571" height="1.6" fill="#FBAF29"/>
</g>
<path fill-rule="evenodd" clip-rule="evenodd" d="M6.85725 22.4C8.11961 22.4 9.14296 21.6836 9.14296 20.8C9.14296 19.9163 8.11961 19.2 6.85725 19.2C5.59488 19.2 4.57153 19.9163 4.57153 20.8C4.57153 21.6836 5.59488 22.4 6.85725 22.4Z" fill="white"/>
<mask id="mask2_2665_8114" style="mask-type:alpha" maskUnits="userSpaceOnUse" x="4" y="19" width="6" height="4">
<path fill-rule="evenodd" clip-rule="evenodd" d="M6.85725 22.4C8.11961 22.4 9.14296 21.6836 9.14296 20.8C9.14296 19.9163 8.11961 19.2 6.85725 19.2C5.59488 19.2 4.57153 19.9163 4.57153 20.8C4.57153 21.6836 5.59488 22.4 6.85725 22.4Z" fill="white"/>
</mask>
<g mask="url(#mask2_2665_8114)">
<path fill-rule="evenodd" clip-rule="evenodd" d="M6.85736 21.6C7.27815 21.6 7.61927 21.2418 7.61927 20.8C7.61927 20.3582 7.27815 20 6.85736 20C6.43658 20 6.09546 20.3582 6.09546 20.8C6.09546 21.2418 6.43658 21.6 6.85736 21.6Z" fill="#DD404F"/>
<rect x="4.57153" y="19.2" width="2.28571" height="1.6" fill="#FBAF29"/>
<rect x="6.85718" y="20.8" width="2.28571" height="1.6" fill="#FBAF29"/>
</g>
<path fill-rule="evenodd" clip-rule="evenodd" d="M6.85725 14.4C8.11961 14.4 9.14296 13.6836 9.14296 12.8C9.14296 11.9163 8.11961 11.2 6.85725 11.2C5.59488 11.2 4.57153 11.9163 4.57153 12.8C4.57153 13.6836 5.59488 14.4 6.85725 14.4Z" fill="#28AE67"/>
<mask id="mask3_2665_8114" style="mask-type:alpha" maskUnits="userSpaceOnUse" x="4" y="11" width="6" height="4">
<path fill-rule="evenodd" clip-rule="evenodd" d="M6.85725 14.4C8.11961 14.4 9.14296 13.6836 9.14296 12.8C9.14296 11.9163 8.11961 11.2 6.85725 11.2C5.59488 11.2 4.57153 11.9163 4.57153 12.8C4.57153 13.6836 5.59488 14.4 6.85725 14.4Z" fill="white"/>
</mask>
<g mask="url(#mask3_2665_8114)">
<path fill-rule="evenodd" clip-rule="evenodd" d="M6.85731 13.6C7.69888 13.6 8.38112 13.2418 8.38112 12.8C8.38112 12.3582 7.69888 12 6.85731 12C6.01573 12 5.3335 12.3582 5.3335 12.8C5.3335 13.2418 6.01573 13.6 6.85731 13.6Z" fill="#DD404F"/>
</g>
<path fill-rule="evenodd" clip-rule="evenodd" d="M6.85725 17.6C8.11961 17.6 9.14296 17.2418 9.14296 16.8C9.14296 16.3582 8.11961 16 6.85725 16C5.59488 16 4.57153 16.3582 4.57153 16.8C4.57153 17.2418 5.59488 17.6 6.85725 17.6Z" fill="#28AE67"/>
<mask id="mask4_2665_8114" style="mask-type:alpha" maskUnits="userSpaceOnUse" x="4" y="16" width="6" height="2">
<path fill-rule="evenodd" clip-rule="evenodd" d="M6.85725 17.6C8.11961 17.6 9.14296 17.2418 9.14296 16.8C9.14296 16.3582 8.11961 16 6.85725 16C5.59488 16 4.57153 16.3582 4.57153 16.8C4.57153 17.2418 5.59488 17.6 6.85725 17.6Z" fill="white"/>
</mask>
<g mask="url(#mask4_2665_8114)">
</g>
<path fill-rule="evenodd" clip-rule="evenodd" d="M6.85725 9.5999C8.11961 9.5999 9.14296 8.88356 9.14296 7.9999C9.14296 7.11625 8.11961 6.3999 6.85725 6.3999C5.59488 6.3999 4.57153 7.11625 4.57153 7.9999C4.57153 8.88356 5.59488 9.5999 6.85725 9.5999Z" fill="#FBAF29"/>
<mask id="mask5_2665_8114" style="mask-type:alpha" maskUnits="userSpaceOnUse" x="4" y="6" width="6" height="4">
<path fill-rule="evenodd" clip-rule="evenodd" d="M6.85725 9.5999C8.11961 9.5999 9.14296 8.88356 9.14296 7.9999C9.14296 7.11625 8.11961 6.3999 6.85725 6.3999C5.59488 6.3999 4.57153 7.11625 4.57153 7.9999C4.57153 8.88356 5.59488 9.5999 6.85725 9.5999Z" fill="white"/>
</mask>
<g mask="url(#mask5_2665_8114)">
<path fill-rule="evenodd" clip-rule="evenodd" d="M6.85736 8.79995C7.27815 8.79995 7.61927 8.44178 7.61927 7.99995C7.61927 7.55812 7.27815 7.19995 6.85736 7.19995C6.43658 7.19995 6.09546 7.55812 6.09546 7.99995C6.09546 8.44178 6.43658 8.79995 6.85736 8.79995Z" fill="#DD404F"/>
<rect x="4.57153" y="6.3999" width="1.52381" height="3.2" fill="#28AE67"/>
<rect x="7.61914" y="6.3999" width="1.52381" height="3.2" fill="#28AE67"/>
</g>
<path fill-rule="evenodd" clip-rule="evenodd" d="M16.9401 5.08574C16.6697 5.4242 16.7117 5.9288 17.034 6.21281C17.3564 6.49681 17.837 6.45266 18.1074 6.1142C18.3779 5.77574 18.3359 5.27114 18.0135 4.98713C17.6912 4.70313 17.2106 4.74728 16.9401 5.08574ZM14.9659 8.18713C14.6436 7.90313 14.163 7.94728 13.8925 8.28574C13.622 8.6242 13.6641 9.1288 13.9864 9.41281C14.3088 9.69681 14.7893 9.65266 15.0598 9.3142C15.3303 8.97574 15.2882 8.47114 14.9659 8.18713ZM13.4421 6.58713C13.1198 6.30313 12.6392 6.34728 12.3687 6.68574C12.0982 7.0242 12.1403 7.5288 12.4626 7.81281C12.785 8.09681 13.2655 8.05266 13.536 7.7142C13.8065 7.37574 13.7644 6.87114 13.4421 6.58713ZM16.4897 3.38713C16.1674 3.10313 15.6868 3.14728 15.4163 3.48574C15.1458 3.8242 15.1879 4.3288 15.5102 4.61281C15.8326 4.89681 16.3131 4.85266 16.5836 4.5142C16.8541 4.17574 16.8121 3.67114 16.4897 3.38713ZM15.7278 5.78713C15.4055 5.50313 14.9249 5.54728 14.6544 5.88574C14.3839 6.2242 14.426 6.7288 14.7483 7.01281C15.0707 7.29681 15.5512 7.25266 15.8217 6.9142C16.0922 6.57574 16.0502 6.07114 15.7278 5.78713Z" fill="white"/>
<path fill-rule="evenodd" clip-rule="evenodd" d="M19.9727 11.3407C18.1578 13.2464 15.2152 13.2464 13.4003 11.3407C13.2244 11.1561 13.0656 10.9603 12.9238 10.7556C14.7411 12.1431 17.2999 11.9763 18.9389 10.2553C20.578 8.5343 20.7368 5.8476 19.4154 3.93945C19.6104 4.08832 19.7968 4.25508 19.9727 4.43973C21.7876 6.34539 21.7876 9.43508 19.9727 11.3407Z" fill="white"/>
</g>
</g>
<defs>
<filter id="filter0_i_2665_8114" x="0" y="0" width="32" height="24" filterUnits="userSpaceOnUse" color-interpolation-filters="sRGB">
<feFlood flood-opacity="0" result="BackgroundImageFix"/>
<feBlend mode="normal" in="SourceGraphic" in2="BackgroundImageFix" result="shape"/>
<feColorMatrix in="SourceAlpha" type="matrix" values="0 0 0 0 0 0 0 0 0 0 0 0 0 0 0 0 0 0 127 0" result="hardAlpha"/>
<feOffset/>
<feGaussianBlur stdDeviation="1.5"/>
<feComposite in2="hardAlpha" operator="arithmetic" k2="-1" k3="1"/>
<feColorMatrix type="matrix" values="0 0 0 0 0 0 0 0 0 0 0 0 0 0 0 0 0 0 0.08 0"/>
<feBlend mode="normal" in2="shape" result="effect1_innerShadow_2665_8114"/>
</filter>
</defs>
</svg>
