<svg width="24" height="24" viewBox="0 0 24 24" fill="none" xmlns="http://www.w3.org/2000/svg">
<path fill-rule="evenodd" clip-rule="evenodd" d="M8.62426 4.70711C9.01479 4.31658 9.01479 3.68342 8.62426 3.29289C8.23374 2.90237 7.60057 2.90237 7.21005 3.29289L3.35147 7.15147C2.88284 7.6201 2.88284 8.3799 3.35147 8.84853L7.21005 12.7071C7.60057 13.0976 8.23374 13.0976 8.62426 12.7071C9.01479 12.3166 9.01479 11.6834 8.62426 11.2929L6.33137 9H13.9172C16.6786 9 18.9172 11.2386 18.9172 14C18.9172 16.7614 16.6786 19 13.9172 19H11.9172C11.3649 19 10.9172 19.4477 10.9172 20C10.9172 20.5523 11.3649 21 11.9172 21H13.9172C17.7832 21 20.9172 17.866 20.9172 14C20.9172 10.134 17.7832 7 13.9172 7H6.33137L8.62426 4.70711Z" fill="#0B1125"/>
</svg>
