<svg width="24" height="24" viewBox="0 0 24 24" fill="none" xmlns="http://www.w3.org/2000/svg">
<path fill-rule="evenodd" clip-rule="evenodd" d="M14 11C15.6569 11 17 9.65685 17 8C17 6.34315 15.6569 5 14 5C12.3431 5 11 6.34315 11 8C11 9.65685 12.3431 11 14 11ZM14 13C16.7614 13 19 10.7614 19 8C19 5.23858 16.7614 3 14 3C11.2386 3 9 5.23858 9 8C9 10.7614 11.2386 13 14 13ZM10.6667 16C9.19391 16 8 17.1939 8 18.6667C8 18.8508 8.14924 19 8.33333 19H19.6667C19.8508 19 20 18.8508 20 18.6667C20 17.1939 18.8061 16 17.3333 16H10.6667ZM10.6667 14C8.08934 14 6 16.0893 6 18.6667C6 19.9553 7.04467 21 8.33333 21H19.6667C20.9553 21 22 19.9553 22 18.6667C22 16.0893 19.9107 14 17.3333 14H10.6667ZM2 11C2 10.4477 2.44772 10 3 10H4V9C4 8.44772 4.44772 8 5 8C5.55228 8 6 8.44772 6 9V10H7C7.55228 10 8 10.4477 8 11C8 11.5523 7.55228 12 7 12H6V13C6 13.5523 5.55228 14 5 14C4.44772 14 4 13.5523 4 13V12H3C2.44772 12 2 11.5523 2 11Z" fill="#0B1125"/>
</svg>
