<svg width="24" height="18" viewBox="0 0 24 18" fill="none" xmlns="http://www.w3.org/2000/svg">
<g filter="url(#filter0_i_2665_7254)">
<rect width="24" height="18" rx="2" fill="white"/>
<mask id="mask0_2665_7254" style="mask-type:alpha" maskUnits="userSpaceOnUse" x="0" y="0" width="24" height="18">
<rect width="24" height="18" rx="2" fill="white"/>
</mask>
<g mask="url(#mask0_2665_7254)">
<rect width="24" height="18" fill="#07319C"/>
<path fill-rule="evenodd" clip-rule="evenodd" d="M14.8572 9.00005C14.8572 8.06612 14.8572 6.97066 14.8572 6.13272C14.8572 5.39634 15.4541 4.80005 16.1905 4.80005H19.2381C19.9745 4.80005 20.5715 5.39634 20.5715 6.13272C20.5715 6.97066 20.5715 8.06612 20.5715 9.00005C20.5715 12 17.7143 13.2 17.7143 13.2C17.7143 13.2 14.8572 12 14.8572 9.00005Z" fill="#008339"/>
<mask id="mask1_2665_7254" style="mask-type:alpha" maskUnits="userSpaceOnUse" x="14" y="4" width="7" height="10">
<path fill-rule="evenodd" clip-rule="evenodd" d="M14.8572 9.00005C14.8572 8.06612 14.8572 6.97066 14.8572 6.13272C14.8572 5.39634 15.4541 4.80005 16.1905 4.80005H19.2381C19.9745 4.80005 20.5715 5.39634 20.5715 6.13272C20.5715 6.97066 20.5715 8.06612 20.5715 9.00005C20.5715 12 17.7143 13.2 17.7143 13.2C17.7143 13.2 14.8572 12 14.8572 9.00005Z" fill="white"/>
</mask>
<g mask="url(#mask1_2665_7254)">
<path fill-rule="evenodd" clip-rule="evenodd" d="M16.5714 7.2C16.887 7.2 17.1429 6.93137 17.1429 6.6C17.1429 6.26863 16.887 6 16.5714 6C16.2558 6 16 6.26863 16 6.6C16 6.93137 16.2558 7.2 16.5714 7.2ZM16.5714 9.6C16.2558 9.6 16 9.33137 16 9C16 8.66865 16.2558 8.40004 16.5714 8.4C16.2558 8.39996 16 8.13135 16 7.8C16 7.46863 16.2558 7.2 16.5714 7.2C16.887 7.2 17.1429 7.46863 17.1429 7.8C17.1429 8.13137 16.887 8.4 16.5714 8.4C16.887 8.4 17.1429 8.66863 17.1429 9C17.1429 9.33137 16.887 9.6 16.5714 9.6ZM16.5714 9.6C16.887 9.6 17.1429 9.86863 17.1429 10.2C17.1429 10.5314 16.887 10.8 16.5714 10.8C16.2558 10.8 16 10.5314 16 10.2C16 9.86863 16.2558 9.6 16.5714 9.6ZM19.4286 10.2C19.4286 10.5314 19.1727 10.8 18.8571 10.8C18.5416 10.8 18.2857 10.5314 18.2857 10.2C18.2857 9.86863 18.5416 9.6 18.8571 9.6C19.1727 9.6 19.4286 9.86863 19.4286 10.2ZM18.8571 8.4C19.1727 8.4 19.4286 8.66863 19.4286 9C19.4286 9.33137 19.1727 9.6 18.8571 9.6C18.5416 9.6 18.2857 9.33137 18.2857 9C18.2857 8.66863 18.5416 8.4 18.8571 8.4ZM18.8571 7.2C18.5416 7.2 18.2857 7.46863 18.2857 7.8C18.2857 8.13137 18.5416 8.4 18.8571 8.4C19.1727 8.4 19.4286 8.13137 19.4286 7.8C19.4286 7.46863 19.1727 7.2 18.8571 7.2ZM18.8571 7.2C18.5416 7.2 18.2857 6.93137 18.2857 6.6C18.2857 6.26863 18.5416 6 18.8571 6C19.1727 6 19.4286 6.26863 19.4286 6.6C19.4286 6.93137 19.1727 7.2 18.8571 7.2Z" fill="#FFD033"/>
<path fill-rule="evenodd" clip-rule="evenodd" d="M17.7143 10.2001C18.0298 10.2001 18.2857 9.39421 18.2857 8.4001C18.2857 7.40599 18.0298 6.6001 17.7143 6.6001C17.3987 6.6001 17.1428 7.40599 17.1428 8.4001C17.1428 9.39421 17.3987 10.2001 17.7143 10.2001Z" fill="white"/>
</g>
<path d="M14.2856 12C14.2856 13.1444 15.8467 13.8 17.7142 13.8C19.5818 13.8 21.1428 13.1444 21.1428 12C21.1428 11.6687 20.887 11.4 20.5714 11.4C20.2558 11.4 19.9999 11.6687 19.9999 12C19.9999 12.0115 19.8614 12.149 19.5223 12.2915C19.0619 12.4848 18.4134 12.6 17.7142 12.6C17.015 12.6 16.3665 12.4848 15.9061 12.2915C15.567 12.149 15.4285 12.0115 15.4285 12C15.4285 11.6687 15.1727 11.4 14.8571 11.4C14.5415 11.4 14.2856 11.6687 14.2856 12Z" fill="#FFD033"/>
<path d="M0 -0.333333H-0.868653L-0.222988 0.247765L3.66667 3.74845V4.63333L-0.2 7.53333L-0.333333 7.63333V7.8V8.4V9.01745L0.182885 8.67868L4.67104 5.73333H5.60317L9.46244 8.62778C9.55379 8.6963 9.6649 8.73333 9.77909 8.73333C10.2628 8.73333 10.4916 8.13688 10.1321 7.81332L6.61905 4.65155V3.76667L10.3524 0.966667C10.5203 0.840764 10.619 0.643171 10.619 0.433333V0V-0.617451L10.1028 -0.278683L5.61468 2.66667H4.68254L0.771429 -0.266667L0.68254 -0.333333H0.571429H0Z" fill="#DB1E36" stroke="white" stroke-width="0.666667"/>
<path fill-rule="evenodd" clip-rule="evenodd" d="M0 3V5.4H4V8.33333C4 8.70152 4.29848 9 4.66667 9H5.61905C5.98724 9 6.28571 8.70152 6.28571 8.33333V5.4H10.1905C10.5587 5.4 10.8571 5.10152 10.8571 4.73333V3.66667C10.8571 3.29848 10.5587 3 10.1905 3H6.28571V0H4V3H0Z" fill="white"/>
<path fill-rule="evenodd" clip-rule="evenodd" d="M0 3.6H4.57143V3V0H5.71429V3V3.6H10.2857V4.8H5.71429V5.4V8.4H4.57143V5.4V4.8H0V3.6Z" fill="#DB1E36"/>
</g>
</g>
<defs>
<filter id="filter0_i_2665_7254" x="0" y="0" width="24" height="18" filterUnits="userSpaceOnUse" color-interpolation-filters="sRGB">
<feFlood flood-opacity="0" result="BackgroundImageFix"/>
<feBlend mode="normal" in="SourceGraphic" in2="BackgroundImageFix" result="shape"/>
<feColorMatrix in="SourceAlpha" type="matrix" values="0 0 0 0 0 0 0 0 0 0 0 0 0 0 0 0 0 0 127 0" result="hardAlpha"/>
<feOffset/>
<feGaussianBlur stdDeviation="1.5"/>
<feComposite in2="hardAlpha" operator="arithmetic" k2="-1" k3="1"/>
<feColorMatrix type="matrix" values="0 0 0 0 0 0 0 0 0 0 0 0 0 0 0 0 0 0 0.08 0"/>
<feBlend mode="normal" in2="shape" result="effect1_innerShadow_2665_7254"/>
</filter>
</defs>
</svg>
