<svg width="16" height="16" viewBox="0 0 16 16" fill="none" xmlns="http://www.w3.org/2000/svg">
<path fill-rule="evenodd" clip-rule="evenodd" d="M13 8C13 8.35918 12.6336 9.3726 11.5631 10.4025C10.56 11.3676 9.28228 12 8 12C6.71772 12 5.43998 11.3676 4.4369 10.4025C3.36644 9.3726 3 8.35918 3 8C3 7.64082 3.36644 6.6274 4.4369 5.59751C5.43998 4.63244 6.71772 4 8 4C9.28228 4 10.56 4.63244 11.5631 5.59751C12.6336 6.6274 13 7.64082 13 8ZM15 8C15 10.25 11.866 14 8 14C4.13401 14 1 10.25 1 8C1 5.75 4.13401 2 8 2C11.866 2 15 5.75 15 8ZM8 10C9.10457 10 10 9.10457 10 8C10 6.89543 9.10457 6 8 6C6.89543 6 6 6.89543 6 8C6 9.10457 6.89543 10 8 10Z" fill="#0B1125"/>
</svg>
