<svg width="24" height="18" viewBox="0 0 24 18" fill="none" xmlns="http://www.w3.org/2000/svg">
<g filter="url(#filter0_i_2665_7224)">
<rect width="24" height="18" rx="2" fill="white"/>
<mask id="mask0_2665_7224" style="mask-type:alpha" maskUnits="userSpaceOnUse" x="0" y="0" width="24" height="18">
<rect width="24" height="18" rx="2" fill="white"/>
</mask>
<g mask="url(#mask0_2665_7224)">
<rect width="24" height="18" fill="#E31F37"/>
<path fill-rule="evenodd" clip-rule="evenodd" d="M-1.14282 9.60005H12.5715V-1.19995H-1.14282V9.60005Z" fill="#083B9A"/>
<path fill-rule="evenodd" clip-rule="evenodd" d="M5.7142 2.39994L4.90608 2.64847L5.14277 1.79994L4.90608 0.951416L5.7142 1.19994L6.52232 0.951416L6.28563 1.79994L6.52232 2.64847L5.7142 2.39994ZM5.7142 8.39994L4.90608 8.64847L5.14277 7.79994L4.90608 6.95142L5.7142 7.19994L6.52232 6.95142L6.28563 7.79994L6.52232 8.64847L5.7142 8.39994ZM2.62036 5.64847L3.42848 5.39994L4.23661 5.64847L3.99991 4.79994L4.23661 3.95142L3.42848 4.19994L2.62036 3.95142L2.85705 4.79994L2.62036 5.64847ZM8.57134 4.79994L7.76322 5.04847L7.99991 4.19994L7.76322 3.35142L8.57134 3.59994L9.37946 3.35142L9.14277 4.19994L9.37946 5.04847L8.57134 4.79994ZM7.42848 6.29994C7.42848 6.46563 7.30056 6.59994 7.14277 6.59994C6.98497 6.59994 6.85705 6.46563 6.85705 6.29994C6.85705 6.13426 6.98497 5.99994 7.14277 5.99994C7.30056 5.99994 7.42848 6.13426 7.42848 6.29994Z" fill="white"/>
</g>
</g>
<defs>
<filter id="filter0_i_2665_7224" x="0" y="0" width="24" height="18" filterUnits="userSpaceOnUse" color-interpolation-filters="sRGB">
<feFlood flood-opacity="0" result="BackgroundImageFix"/>
<feBlend mode="normal" in="SourceGraphic" in2="BackgroundImageFix" result="shape"/>
<feColorMatrix in="SourceAlpha" type="matrix" values="0 0 0 0 0 0 0 0 0 0 0 0 0 0 0 0 0 0 127 0" result="hardAlpha"/>
<feOffset/>
<feGaussianBlur stdDeviation="1.5"/>
<feComposite in2="hardAlpha" operator="arithmetic" k2="-1" k3="1"/>
<feColorMatrix type="matrix" values="0 0 0 0 0 0 0 0 0 0 0 0 0 0 0 0 0 0 0.08 0"/>
<feBlend mode="normal" in2="shape" result="effect1_innerShadow_2665_7224"/>
</filter>
</defs>
</svg>
