<svg width="24" height="18" viewBox="0 0 24 18" fill="none" xmlns="http://www.w3.org/2000/svg">
<g filter="url(#filter0_i_2665_7639)">
<rect width="24" height="18" rx="2" fill="#009F60"/>
<mask id="mask0_2665_7639" style="mask-type:alpha" maskUnits="userSpaceOnUse" x="0" y="0" width="24" height="18">
<rect width="24" height="18" rx="2" fill="white"/>
</mask>
<g mask="url(#mask0_2665_7639)">
<rect x="20.5715" y="9.59998" width="3.42857" height="8.4" fill="#EA8B42"/>
<path fill-rule="evenodd" clip-rule="evenodd" d="M17.1428 18H20.5714V9.59998H17.1428V18Z" fill="#1A1919"/>
<path fill-rule="evenodd" clip-rule="evenodd" d="M13.7144 18H17.1429V9.59998H13.7144V18Z" fill="#DB3C36"/>
<path fill-rule="evenodd" clip-rule="evenodd" d="M18.0123 3.13562C17.9336 3.13794 17.8757 3.1093 17.8549 3.06114C17.9834 2.98202 18.0702 2.99967 18.1779 3.10047C18.1986 3.02166 18.1779 2.93386 18.1324 2.88122C18.0868 2.82857 18.0495 2.82857 17.9875 2.82408C17.9253 2.81975 17.8632 2.80225 17.8217 2.80225C17.7611 2.66181 17.609 2.72127 17.4629 2.77887C17.2255 2.87239 17.0121 3.04225 16.9163 3.2118C16.8725 3.28937 16.8672 3.31988 16.8403 3.36385C16.8625 3.36091 16.8611 3.36091 16.8749 3.35208C16.8583 3.54517 16.8362 3.72354 16.8693 3.83766C16.828 4.00442 16.8611 4.10971 16.9107 4.16235C16.9605 4.215 16.9811 4.23699 16.9895 4.29846C16.9977 4.35977 17.0225 4.41675 17.064 4.4519C17.1054 4.48705 17.1302 4.5397 17.1344 4.57051C17.1385 4.60117 17.2666 4.7334 17.3207 4.76793C17.3414 4.78094 17.3455 4.80741 17.3705 4.84241C17.3166 5.17593 17.532 5.50945 17.4822 5.83848C17.5195 5.84282 17.5691 5.83848 17.619 5.82532C17.6603 6.10605 17.6851 6.24215 17.4532 6.32545C17.2213 6.40891 17.0945 6.49097 17.1592 6.58434C17.2047 6.65015 17.2991 6.59286 17.358 6.53603C17.4035 6.49221 17.4573 6.45273 17.4988 6.43957C17.5402 6.42641 17.5486 6.43957 17.5277 6.49655C17.507 6.55368 17.3953 6.67647 17.3911 6.73794C17.3869 6.79941 17.4366 6.84323 17.5154 6.79492C17.594 6.74661 17.6632 6.62026 17.681 6.54486C17.6933 6.49221 17.7142 6.45706 17.7099 6.54486C17.7058 6.63265 17.6561 6.79059 17.768 6.81691C17.8798 6.84323 17.913 6.70279 17.8757 6.57552C17.8383 6.44839 17.826 6.3781 17.8425 6.33428C17.8591 6.2903 17.8757 6.26414 17.917 6.27714C17.9584 6.2903 18.0413 6.27281 18.0371 6.20266C18.0329 6.13252 17.975 6.07539 17.9087 6.11487C17.8425 6.15435 17.7928 6.14847 17.8217 6.06223C17.8425 6.00075 17.8798 5.92612 17.8839 5.87797C17.9294 5.94811 18.1861 5.95694 18.2897 5.89113C18.3146 6.02274 18.3808 6.14119 18.236 6.26414C18.0909 6.38692 17.975 6.50537 17.9791 6.59317C17.9834 6.68096 18.0164 6.73345 18.0909 6.68963C18.1654 6.64581 18.211 6.58434 18.2276 6.52736C18.2442 6.47023 18.2774 6.47023 18.2608 6.54052C18.2442 6.61066 18.2152 6.71162 18.2276 6.77309C18.2401 6.83441 18.3312 6.8389 18.3683 6.78176C18.4057 6.72478 18.3973 6.65015 18.3891 6.57552C18.3808 6.50088 18.3933 6.42207 18.4098 6.39126C18.4264 6.3606 18.4595 6.31663 18.4927 6.40008C18.5259 6.48339 18.5423 6.54919 18.6086 6.57118C18.6749 6.59317 18.7245 6.56235 18.7122 6.47905C18.6997 6.39575 18.6127 6.30346 18.5259 6.23332C18.4389 6.16318 18.4678 6.12803 18.4719 6.06223C18.4761 5.99642 18.4637 5.87797 18.4595 5.82532C18.5382 5.88679 18.6252 5.87797 18.6665 5.87797C18.7079 5.87797 18.776 5.8645 18.7079 5.799C18.5713 5.66739 18.6168 5.58826 18.5216 5.4918C18.4264 5.39534 18.3394 5.24607 18.3105 5.11895C18.2814 4.99167 18.2176 4.7591 18.0909 4.64065C18.0205 4.57484 17.9998 4.39492 18.0164 4.18868C18.0329 3.98243 18.0371 3.75435 17.8591 3.64906C17.681 3.54377 17.6851 3.45598 17.7431 3.36385C17.801 3.27172 17.8755 3.18161 17.9709 3.1751C17.9923 3.17371 18.0419 3.16937 18.062 3.15389C18.053 3.14661 18.0385 3.135 18.0123 3.13562Z" fill="#EA8B42"/>
<path fill-rule="evenodd" clip-rule="evenodd" d="M16.8541 3.60962C16.8497 3.69881 16.8518 3.77731 16.8693 3.8377C16.828 4.00446 16.861 4.10975 16.9107 4.16239C16.9605 4.21504 16.9811 4.23703 16.9895 4.2985C16.9977 4.35981 17.0225 4.41679 17.064 4.45194C17.1054 4.48709 17.1302 4.53974 17.1343 4.57055C17.1385 4.60121 17.2666 4.73344 17.3207 4.76797C17.3414 4.78097 17.3455 4.80745 17.3705 4.84245C17.348 4.98103 17.3717 5.11961 17.404 5.25788C17.1113 5.51522 16.8224 5.39383 16.9439 5.1306C16.7009 5.3353 16.2814 5.32957 16.3753 5.1306C15.9942 5.27104 15.8783 5.15398 15.928 5.02531C15.6078 5.15987 15.4421 5.03119 15.4863 4.93752C15.2212 5.01354 15.05 4.96678 15.0224 4.92002C14.9949 4.87326 15.061 4.76797 15.1219 4.71532C15.0004 4.76208 14.8844 4.76208 14.7739 4.74459C14.6636 4.72694 14.6912 4.69179 14.7132 4.63914C14.7354 4.5865 14.7644 4.50319 14.8527 4.42128C14.6415 4.4651 14.3765 4.49592 14.1901 4.42996C14.155 4.41757 14.0949 4.40363 14.1321 4.3643C14.1694 4.32482 14.2812 4.2282 14.4179 4.16673C14.1073 4.21504 13.5192 4.25019 13.3536 4.05277C13.5151 4.08776 13.7221 4.01762 13.8547 3.96064C13.3329 3.89917 12.6207 3.52183 12.6123 3.15331C12.7614 3.40771 13.0183 3.4955 13.275 3.57447C12.927 3.3594 12.7822 3.10051 12.7698 2.92941C12.9685 3.13132 13.2707 3.3594 13.569 3.4122C13.3577 3.29375 13.0844 2.94707 13.0099 2.70567C13.1632 2.85045 13.5565 3.08301 13.8257 3.15765C13.6394 3.00405 13.3372 2.63987 13.3536 2.43811C13.424 2.51274 13.598 2.65303 13.954 2.87243C14.3102 3.09184 14.5034 3.07574 14.7974 3.14154C14.7437 3.06552 14.6953 2.96456 14.6912 2.93824C14.7782 2.9514 14.8609 2.98655 15.1094 3.14882C15.3579 3.31125 15.9008 3.36095 16.211 3.50433C16.4386 3.60962 16.763 3.54381 16.8541 3.60962Z" fill="#EA8B42"/>
<path fill-rule="evenodd" clip-rule="evenodd" d="M18.7282 5.863C18.7419 5.85154 18.7419 5.83172 18.7078 5.79905C18.5711 5.66744 18.6167 5.58832 18.5215 5.49185C18.4263 5.39539 18.3393 5.24612 18.3103 5.119C18.2812 4.99172 18.2175 4.75916 18.0908 4.6407C18.0204 4.5749 17.9997 4.39498 18.0163 4.18873C18.0304 4.01221 18.0355 3.81975 17.925 3.70192C18.1321 3.64045 18.3228 3.62713 18.3889 3.69727C18.7326 3.60514 19.0309 3.57727 19.3235 3.55699C19.6602 3.53345 20.2952 3.3814 20.748 3.05965C20.7204 3.1767 20.5658 3.35214 20.4277 3.43993C20.886 3.32287 21.4382 3.10641 21.9075 2.73789C21.9019 2.99539 21.7033 3.18832 21.5872 3.29376C21.9075 3.10641 22.3767 2.87245 22.5369 2.57996C22.6073 2.87972 22.1284 3.27178 21.8687 3.48824C22.1338 3.35369 22.4762 3.22935 22.6087 3.03038C22.6059 3.27317 22.305 3.57449 22.0179 3.74992C22.3106 3.63301 22.6363 3.51007 22.824 3.32876C22.846 3.57309 21.9488 4.13469 21.5043 4.28814C21.8909 4.18873 22.3933 4.05418 22.6142 3.91374C22.6031 3.96344 22.5131 4.03312 22.4475 4.0839C22.1775 4.29356 21.7632 4.40612 21.5099 4.45784C21.5431 4.60416 21.4989 4.68607 21.3443 4.69769C21.1897 4.70945 20.8156 4.64659 20.628 4.54703C20.6004 4.56452 20.5672 4.57056 20.5298 4.5749C20.712 4.71967 20.7742 4.82496 20.7369 4.88643C20.6997 4.9479 20.5692 4.93676 20.4699 4.91492C20.5485 5.14749 20.2855 5.13216 20.0661 5.00039C20.1531 5.119 20.1656 5.2198 20.0454 5.24612C19.9253 5.27245 19.83 5.26378 19.714 5.18465C19.7058 5.27245 19.6257 5.33098 19.5195 5.30171C19.8839 5.53428 19.8632 5.61913 19.801 5.70677C19.739 5.79456 19.5215 5.77707 19.4056 5.6981C19.3559 5.87802 19.1579 5.87864 19.01 5.73541C19.0087 5.8071 18.8677 5.9494 18.7282 5.863Z" fill="#EA8B42"/>
<path fill-rule="evenodd" clip-rule="evenodd" d="M17.0378 6.74526C17.0439 6.68983 17.0489 6.62541 17.093 6.58438C17.1372 6.54335 17.1648 6.50836 17.2034 6.54923C17.2421 6.59027 17.2173 6.62836 17.1648 6.64585C17.1123 6.66335 17.0765 6.71305 17.0681 6.74526C17.0599 6.77747 17.0323 6.79496 17.0378 6.74526Z" fill="black"/>
<path fill-rule="evenodd" clip-rule="evenodd" d="M17.3385 7.01442C17.3111 6.92244 17.3248 6.80384 17.3551 6.76869C17.3855 6.73354 17.4241 6.71016 17.46 6.74531C17.4958 6.78046 17.5097 6.83016 17.4434 6.85942C17.3848 6.88528 17.3799 6.95 17.3773 6.99692C17.3745 7.04368 17.3551 7.07 17.3385 7.01442Z" fill="black"/>
<path fill-rule="evenodd" clip-rule="evenodd" d="M17.7251 6.77748C17.7038 6.8151 17.7306 6.96762 17.8024 7.00555C17.8533 7.0325 17.8769 7.02615 17.8465 6.97629C17.8162 6.92659 17.8273 6.87982 17.8439 6.8535C17.8603 6.82718 17.8577 6.78042 17.8217 6.75704C17.7858 6.7335 17.7416 6.74821 17.7251 6.77748Z" fill="black"/>
<path fill-rule="evenodd" clip-rule="evenodd" d="M18.0372 6.63995C17.9916 6.60372 17.9489 6.64723 17.9323 6.67789C17.8991 6.73936 17.924 6.82715 17.9765 6.87686C18.0289 6.92656 18.0206 6.85936 18.004 6.83009C17.9875 6.80083 17.9847 6.7423 18.0206 6.73642C18.0564 6.73069 18.0814 6.67495 18.0372 6.63995Z" fill="black"/>
<path fill-rule="evenodd" clip-rule="evenodd" d="M18.2967 6.73941C18.2523 6.72563 18.2084 6.77456 18.2138 6.83309C18.218 6.87675 18.2222 6.93249 18.2635 6.96176C18.2913 6.98127 18.3105 6.99396 18.2967 6.94132C18.2829 6.88867 18.3051 6.8447 18.3298 6.83014C18.3546 6.81559 18.3436 6.75412 18.2967 6.73941Z" fill="black"/>
<path fill-rule="evenodd" clip-rule="evenodd" d="M18.6639 6.49069C18.6317 6.51453 18.6334 6.56981 18.6639 6.59025C18.6941 6.61069 18.7384 6.63995 18.7301 6.68966C18.7218 6.73936 18.7466 6.75701 18.7688 6.70142C18.7908 6.64584 18.7936 6.56393 18.7688 6.52584C18.7438 6.48775 18.6913 6.47025 18.6639 6.49069Z" fill="black"/>
<path fill-rule="evenodd" clip-rule="evenodd" d="M17.8632 3.05711C17.8824 3.10175 17.9374 3.12811 18.012 3.12591L18.012 3.12591C18.0357 3.12535 18.05 3.13202 18.0673 3.16167C18.0491 3.17568 18.0148 3.18191 17.9714 3.18473C17.8922 3.19012 17.8231 3.25391 17.7507 3.36917C17.6855 3.4727 17.7083 3.54885 17.8635 3.64059C18.0177 3.73176 18.0493 3.89056 18.0255 4.18946C18.008 4.40664 18.0332 4.57378 18.0969 4.63338C18.2024 4.73202 18.2703 4.90245 18.3193 5.11666C18.3472 5.23935 18.4318 5.38745 18.5279 5.48479C18.5505 5.50767 18.5666 5.53073 18.5795 5.55705C18.5869 5.57219 18.5923 5.58586 18.6011 5.61038C18.6314 5.69504 18.6519 5.73195 18.714 5.79182C18.7485 5.825 18.7552 5.85259 18.7339 5.87056C18.7199 5.88241 18.6945 5.88761 18.6664 5.88761L18.6511 5.88783C18.5843 5.88912 18.5412 5.88336 18.4917 5.85747C18.4844 5.85364 18.4773 5.84944 18.4703 5.84483L18.4745 5.89364C18.4763 5.91537 18.4777 5.93466 18.4789 5.95301C18.4818 5.99905 18.4827 6.03581 18.481 6.06283C18.4804 6.07306 18.4793 6.08197 18.4772 6.09602C18.4733 6.12196 18.4726 6.12906 18.4733 6.14034C18.4752 6.16801 18.4907 6.19283 18.5314 6.22561C18.6378 6.31157 18.7096 6.40039 18.7212 6.47752C18.734 6.56421 18.6822 6.60575 18.6057 6.58038C18.5589 6.56485 18.5348 6.53268 18.507 6.46294C18.5055 6.45909 18.5015 6.44871 18.4972 6.4375C18.4921 6.42426 18.4865 6.40987 18.4841 6.40379C18.4706 6.36977 18.4583 6.35886 18.4474 6.36214C18.4381 6.36496 18.4278 6.3774 18.4177 6.39597C18.4006 6.42789 18.3907 6.50697 18.3981 6.57437L18.3982 6.57508C18.4107 6.68907 18.4086 6.7372 18.3758 6.7872C18.3343 6.85104 18.2328 6.84528 18.2185 6.77506C18.212 6.74253 18.2156 6.69956 18.2273 6.64252C18.2305 6.62683 18.2342 6.61056 18.239 6.59057L18.2518 6.53815C18.2582 6.5111 18.2564 6.49594 18.2548 6.49563C18.2523 6.49512 18.2428 6.50783 18.2363 6.53017C18.2177 6.59395 18.1675 6.6556 18.0953 6.69805C18.0192 6.74283 17.9749 6.69727 17.9698 6.59361C17.966 6.51102 18.0531 6.4064 18.2301 6.25656C18.2645 6.22741 18.2876 6.19779 18.3013 6.16677C18.3261 6.11062 18.3225 6.0675 18.2952 5.95733C18.2896 5.93466 18.2861 5.91987 18.2832 5.90592C18.1786 5.96219 17.9597 5.95737 17.89 5.8987C17.8853 5.92179 17.8751 5.94998 17.8545 6.00155L17.8544 6.00181C17.8415 6.03418 17.836 6.04863 17.8303 6.06542C17.818 6.10208 17.8206 6.12143 17.8329 6.1267C17.8462 6.1324 17.8723 6.12534 17.9041 6.10641C17.9725 6.06564 18.0412 6.11903 18.0462 6.20203C18.0503 6.27075 17.9739 6.30533 17.9142 6.28638C17.8832 6.27662 17.8691 6.28952 17.8509 6.3378C17.8363 6.37677 17.8456 6.44073 17.8843 6.57263C17.9275 6.71983 17.8784 6.85282 17.7659 6.82632C17.697 6.8101 17.6789 6.75274 17.6886 6.65237C17.6898 6.63994 17.6912 6.62805 17.6936 6.6095C17.6989 6.56893 17.6999 6.55969 17.7007 6.54433C17.7013 6.53019 17.7014 6.51905 17.7008 6.51099C17.6973 6.51965 17.6932 6.53265 17.6898 6.54716C17.6685 6.63731 17.5931 6.75829 17.5199 6.80325C17.4413 6.85146 17.3767 6.81401 17.3818 6.7372C17.3838 6.70896 17.403 6.67292 17.4425 6.61462L17.4534 6.59859C17.5035 6.52587 17.5118 6.51306 17.5191 6.49303C17.5373 6.4433 17.5346 6.43824 17.5013 6.4488C17.464 6.46067 17.4123 6.49674 17.3641 6.54314C17.2823 6.62207 17.1955 6.65332 17.1517 6.59001C17.117 6.5399 17.1313 6.49046 17.1893 6.44347C17.2403 6.40213 17.3263 6.36084 17.4502 6.31626C17.6464 6.24575 17.6614 6.17791 17.6211 5.83468C17.5712 5.84785 17.5203 5.85263 17.473 5.83693C17.4933 5.70271 17.4774 5.59484 17.4167 5.34836C17.3547 5.09623 17.3384 4.98265 17.3631 4.84819C17.3566 4.83917 17.3512 4.83031 17.3456 4.82005L17.3337 4.79759C17.3275 4.78647 17.3226 4.7804 17.3158 4.77617C17.257 4.73859 17.1296 4.6051 17.1252 4.57182C17.1207 4.53824 17.0936 4.48948 17.0581 4.45941C17.0164 4.42404 16.9892 4.36643 16.9803 4.2998C16.9732 4.24778 16.9627 4.23107 16.9041 4.16914C16.8428 4.1042 16.8226 3.9874 16.8604 3.84045C16.8349 3.75234 16.8373 3.66749 16.8611 3.40276L16.864 3.36915C16.8613 3.37014 16.8584 3.37086 16.8545 3.37153L16.8414 3.37342L16.8325 3.35858C16.838 3.34963 16.8428 3.34089 16.8475 3.33133C16.8515 3.3231 16.8515 3.32309 16.8554 3.31464C16.8538 3.31819 16.8702 3.28142 16.8758 3.2695C16.8853 3.24939 16.8955 3.22947 16.9083 3.20681C17.0056 3.03464 17.2211 2.8637 17.4596 2.76977C17.6856 2.68065 17.7764 2.67423 17.8216 2.79254C17.8416 2.79254 17.8517 2.79401 17.9105 2.80406C17.9441 2.80982 17.9656 2.81283 17.988 2.8144L18.0022 2.8154C18.0551 2.81915 18.0773 2.82412 18.1042 2.84257C18.1159 2.85067 18.1274 2.86118 18.1391 2.87466C18.1879 2.93116 18.2077 3.02289 18.1867 3.10302L18.1717 3.10767C18.0634 3.0063 17.9807 2.9948 17.8632 3.05711ZM18.0563 3.16152C18.0418 3.14979 18.0311 3.14482 18.0124 3.14526L18.0125 3.14526C17.9313 3.14765 17.8692 3.11792 17.8502 3.05275C17.9741 2.9764 18.0636 2.98567 18.1724 3.08268C18.1714 3.08778 18.1703 3.09284 18.169 3.09785L18.1839 3.0932C18.1801 3.08959 18.1762 3.08608 18.1724 3.08268C18.1858 3.01269 18.167 2.93573 18.1255 2.88771C18.1148 2.87538 18.1045 2.86595 18.0941 2.85879C18.0707 2.84268 18.0509 2.83825 18.001 2.83471L17.9868 2.83371C17.9636 2.83209 17.9416 2.82901 17.9075 2.82317C17.8969 2.82134 17.8878 2.81981 17.88 2.81848C17.8459 2.81267 17.8351 2.81084 17.8133 2.80623C17.7659 2.6966 17.6826 2.70248 17.466 2.7879C17.2312 2.88039 17.0191 3.04866 16.9241 3.21671C16.9116 3.23894 16.9015 3.25843 16.8922 3.27811C16.8867 3.28983 16.8704 3.32644 16.8719 3.32299C16.8699 3.32733 16.869 3.3295 16.8679 3.33166C16.8669 3.33382 16.8659 3.33597 16.8638 3.34027C16.862 3.34383 16.8603 3.34729 16.8584 3.35069C16.8568 3.35137 16.8548 3.35187 16.8516 3.35243L16.8391 3.35422L16.848 3.36906C16.8517 3.36294 16.8551 3.35691 16.8584 3.35069C16.8588 3.35055 16.8591 3.35041 16.8594 3.35025C16.8613 3.34935 16.863 3.34831 16.87 3.34377L16.8839 3.35292L16.8794 3.40459C16.8558 3.66598 16.8535 3.75026 16.8781 3.84007C16.8419 3.98615 16.8609 4.09591 16.9171 4.15549C16.9783 4.22011 16.9907 4.23986 16.9985 4.29707C17.0068 4.35917 17.0319 4.41232 17.0696 4.44433C17.1087 4.47743 17.1382 4.53058 17.1434 4.56912C17.1468 4.59473 17.2709 4.72488 17.3253 4.75958C17.3351 4.76576 17.3419 4.77411 17.3495 4.78779L17.3615 4.81041C17.3629 4.81295 17.3643 4.81539 17.3657 4.81789C17.3696 4.82488 17.3738 4.83239 17.3794 4.844C17.3571 4.98226 17.3731 5.09403 17.4345 5.3435C17.4958 5.5926 17.512 5.7022 17.4831 5.82883C17.5171 5.83278 17.5611 5.82921 17.6141 5.82492C17.6187 5.82455 17.6233 5.82418 17.6279 5.82381C17.6808 6.18328 17.6638 6.25994 17.4561 6.33458C17.334 6.37852 17.2495 6.41909 17.2005 6.45882C17.1496 6.50005 17.1385 6.53821 17.1665 6.5786C17.2009 6.62825 17.2771 6.60078 17.3517 6.52885C17.4018 6.48066 17.4555 6.44314 17.496 6.43027C17.5468 6.41413 17.5591 6.4373 17.5362 6.49997C17.528 6.52244 17.5202 6.53466 17.4683 6.60996L17.4574 6.62587C17.4201 6.68089 17.4017 6.71543 17.4001 6.73859C17.3961 6.79923 17.4443 6.8272 17.5106 6.78653C17.5791 6.74445 17.6518 6.62792 17.672 6.5425C17.6789 6.51281 17.6877 6.49033 17.6965 6.48412C17.7073 6.47649 17.7153 6.48496 17.7178 6.4985C17.7197 6.50813 17.72 6.52359 17.719 6.5453C17.7182 6.56145 17.7172 6.57084 17.7118 6.61212C17.7094 6.63047 17.708 6.64217 17.7069 6.65432C17.698 6.74607 17.7131 6.79408 17.7699 6.80743C17.8638 6.82955 17.9065 6.71381 17.8668 6.57834C17.8268 6.44198 17.817 6.3754 17.8338 6.33067C17.8551 6.27424 17.8768 6.2544 17.9195 6.26784C17.9687 6.28347 18.0309 6.25528 18.0279 6.20325C18.0236 6.13324 17.9684 6.09031 17.9132 6.12326C17.8769 6.14486 17.846 6.15321 17.826 6.14463C17.8019 6.13431 17.7978 6.10411 17.813 6.05895C17.8188 6.04169 17.8244 6.02703 17.8375 5.99431L17.8376 5.99405C17.8634 5.92928 17.8725 5.90238 17.8747 5.87707L17.8914 5.87247C17.9338 5.93777 18.1852 5.94612 18.2849 5.88281L18.2987 5.88921C18.302 5.90721 18.3057 5.9231 18.313 5.95244C18.3413 6.06695 18.3452 6.11322 18.3179 6.17494C18.303 6.2088 18.2781 6.24071 18.2416 6.27165C18.07 6.41696 17.9847 6.51927 17.9882 6.59264C17.9926 6.68406 18.0249 6.71728 18.0864 6.68115C18.1545 6.64104 18.2016 6.58329 18.2187 6.52449C18.2277 6.49355 18.2427 6.47353 18.2582 6.47661C18.2754 6.48002 18.2784 6.50561 18.2696 6.54283L18.2568 6.59534C18.2521 6.61512 18.2484 6.63117 18.2452 6.6466C18.2341 6.70115 18.2306 6.74192 18.2365 6.77103C18.247 6.82277 18.3274 6.82734 18.3607 6.77623C18.3899 6.73159 18.392 6.68649 18.3799 6.57732L18.3799 6.5766C18.372 6.50547 18.3825 6.42242 18.4017 6.38643C18.4141 6.36361 18.4269 6.34822 18.4424 6.34354C18.4646 6.33681 18.4843 6.35437 18.501 6.3963C18.5035 6.40252 18.5091 6.41712 18.5143 6.43045C18.5186 6.44152 18.5225 6.45172 18.524 6.45545C18.5498 6.52043 18.5709 6.54853 18.6113 6.56192C18.6753 6.58316 18.7137 6.55236 18.703 6.48053C18.6924 6.40982 18.6231 6.3241 18.5202 6.24097C18.4757 6.20512 18.4572 6.17563 18.455 6.14168C18.4541 6.12836 18.4549 6.12057 18.4591 6.09302C18.4611 6.0795 18.4621 6.07108 18.4627 6.06156C18.4643 6.03559 18.4634 5.99956 18.4606 5.9543C18.4594 5.9361 18.458 5.91694 18.4562 5.89533L18.4502 5.82611L18.4648 5.81751C18.476 5.82626 18.4877 5.83377 18.4999 5.84013C18.5461 5.86429 18.5867 5.86972 18.6508 5.86848L18.6664 5.86826C18.6906 5.86826 18.7126 5.86375 18.7224 5.85546C18.7325 5.84696 18.729 5.83241 18.7016 5.80611C18.637 5.74382 18.6152 5.70446 18.5839 5.61721C18.5754 5.59335 18.5702 5.58024 18.5632 5.56594C18.5512 5.54147 18.5363 5.52012 18.5151 5.49874C18.4166 5.39893 18.3302 5.24761 18.3014 5.12118C18.2533 4.91068 18.1865 4.74302 18.0847 4.64786C18.0152 4.5828 17.9892 4.41079 18.0072 4.18783C18.0305 3.89607 18 3.74354 17.8545 3.65747C17.6905 3.5605 17.6639 3.47192 17.7354 3.35847C17.8107 3.23859 17.8836 3.17132 17.9702 3.16541C17.9827 3.1646 17.9944 3.16345 18.0052 3.16241C18.0284 3.16015 18.0468 3.15836 18.0563 3.16152Z" fill="black"/>
<path fill-rule="evenodd" clip-rule="evenodd" d="M16.6303 3.56386C16.7719 3.56911 16.8234 3.57577 16.8592 3.60162L16.8632 3.61011C16.8583 3.70938 16.8623 3.78082 16.8781 3.84013C16.8419 3.98621 16.8609 4.09596 16.9171 4.15555C16.9783 4.22017 16.9907 4.23992 16.9985 4.29713C17.0068 4.35923 17.0319 4.41238 17.0696 4.44439C17.1086 4.47749 17.1382 4.53064 17.1433 4.56918C17.1468 4.59479 17.2709 4.72494 17.3253 4.75964C17.3351 4.76582 17.3419 4.77417 17.3495 4.78785L17.3615 4.81047C17.3629 4.813 17.3643 4.81543 17.3657 4.81793C17.3696 4.82493 17.3738 4.83244 17.3794 4.84406C17.3601 4.9634 17.3724 5.08263 17.4098 5.26529C17.2712 5.3871 17.1215 5.43379 17.0158 5.39867C16.9199 5.36684 16.8822 5.27471 16.922 5.15994C16.8092 5.24357 16.6594 5.29237 16.5331 5.29164C16.403 5.29088 16.3296 5.23628 16.3587 5.14673C16.0444 5.25755 15.8695 5.19479 15.9126 5.04187C15.6524 5.14375 15.4369 5.07308 15.471 4.95174C15.2476 5.01191 15.0532 4.99067 15.0145 4.9251C14.9904 4.88405 15.0279 4.80111 15.0849 4.73826C14.9862 4.76869 14.8856 4.77205 14.7724 4.75414C14.7192 4.74562 14.6928 4.73247 14.6857 4.71006C14.6803 4.69297 14.682 4.68779 14.7022 4.64117L14.7047 4.6352C14.7047 4.63536 14.718 4.60306 14.7226 4.59251C14.7306 4.57403 14.7385 4.5576 14.7474 4.54124C14.7677 4.50396 14.7922 4.46963 14.8232 4.43707C14.5648 4.48783 14.3444 4.49481 14.1871 4.43912L14.1635 4.43114C14.1416 4.42349 14.1281 4.41681 14.1195 4.40738C14.1066 4.39319 14.1085 4.37543 14.1255 4.35746C14.1757 4.30431 14.2646 4.236 14.359 4.18512C13.9107 4.24717 13.4816 4.2201 13.3466 4.05916L13.3554 4.04327C13.4812 4.07053 13.643 4.03679 13.8178 3.96562C13.2453 3.88536 12.6108 3.4939 12.603 3.15353L12.62 3.14821C12.7361 3.34628 12.8911 3.44054 13.2104 3.544C12.934 3.35632 12.7745 3.12314 12.7606 2.93013L12.7761 2.92243C13.0019 3.15189 13.2708 3.33105 13.5177 3.3915C13.3132 3.25179 13.0711 2.93552 13.0011 2.70865L13.016 2.69845C13.172 2.84584 13.5339 3.05403 13.7848 3.13527C13.5564 2.9338 13.3304 2.60825 13.3444 2.43727L13.36 2.43127C13.4473 2.52381 13.6476 2.67245 13.9585 2.86406C14.1512 2.98274 14.298 3.03723 14.4913 3.07473C14.5187 3.08004 14.5452 3.08477 14.5868 3.09194C14.6896 3.10962 14.7275 3.11642 14.7761 3.12696C14.7311 3.05853 14.6866 2.96919 14.682 2.9398L14.6924 2.92865C14.789 2.94326 14.8814 2.98857 15.1141 3.14058C15.2263 3.2139 15.3634 3.25698 15.6961 3.33826L15.7114 3.34201C15.9799 3.40762 16.0993 3.44215 16.2146 3.49545C16.2747 3.52329 16.345 3.54069 16.4288 3.55083C16.4856 3.55769 16.5265 3.56001 16.6303 3.56386ZM16.8446 3.6147C16.8447 3.61284 16.8448 3.61098 16.8449 3.6091L16.8488 3.61759C16.8475 3.61659 16.8461 3.61563 16.8446 3.6147ZM13.3808 4.06743C13.5145 4.08641 13.6805 4.0459 13.858 3.96959L13.8556 3.95101C13.3043 3.88606 12.6793 3.51758 12.6251 3.19201C12.7503 3.38538 12.9227 3.47618 13.2723 3.58375L13.2795 3.56611C12.9845 3.38372 12.8089 3.1494 12.7817 2.95477C13.0223 3.19408 13.3088 3.37595 13.5674 3.42173L13.5732 3.40364C13.3744 3.29216 13.1177 2.97394 13.0301 2.73676C13.2101 2.8929 13.5823 3.10018 13.8233 3.16699L13.8313 3.15001C13.6056 2.96399 13.3687 2.63767 13.3622 2.46052C13.4576 2.55507 13.6538 2.6987 13.9493 2.88077C14.1439 3.00064 14.2926 3.05587 14.488 3.09377C14.5155 3.0991 14.5421 3.10386 14.5838 3.11104C14.7019 3.13136 14.734 3.13726 14.7954 3.15099L14.8047 3.13574C14.7628 3.07645 14.7173 2.98974 14.7038 2.95016C14.7926 2.96664 14.8852 3.01388 15.1044 3.15703C15.2191 3.23195 15.3569 3.27527 15.6919 3.35711L15.7073 3.36086C15.9746 3.42618 16.0933 3.46054 16.2072 3.51318C16.2693 3.54189 16.3413 3.55971 16.4268 3.57005C16.4841 3.57699 16.5254 3.57934 16.6297 3.5832C16.7604 3.58805 16.8128 3.59429 16.8446 3.6147C16.84 3.71315 16.8443 3.78486 16.8604 3.84051C16.8226 3.98746 16.8428 4.10426 16.9041 4.1692C16.9627 4.23113 16.9732 4.24784 16.9803 4.29986C16.9892 4.36648 17.0164 4.4241 17.0581 4.45947C17.0936 4.48954 17.1207 4.5383 17.1252 4.57188C17.1296 4.60516 17.257 4.73865 17.3158 4.77623C17.3226 4.78046 17.3275 4.78653 17.3337 4.79765L17.3456 4.82011C17.3512 4.83037 17.3566 4.83923 17.363 4.84825C17.3414 4.96336 17.354 5.0849 17.395 5.26018C17.2639 5.36836 17.1204 5.41311 17.0213 5.38021C16.9276 5.34909 16.8966 5.25489 16.9521 5.13482L16.9381 5.12303C16.8264 5.21708 16.666 5.27305 16.5332 5.27228C16.4048 5.27154 16.3434 5.21959 16.3834 5.1349L16.3721 5.12145C16.0438 5.24247 15.8791 5.17744 15.9364 5.02894L15.9245 5.01631C15.6553 5.12944 15.4417 5.05335 15.4944 4.94181L15.4838 4.92816C15.2602 4.9923 15.0641 4.97246 15.0301 4.91489C15.0086 4.87833 15.0608 4.78057 15.1276 4.72279L15.1186 4.70622C15.0101 4.748 14.9008 4.75489 14.7752 4.735C14.7283 4.7275 14.7072 4.71702 14.7031 4.70395C14.7 4.69412 14.7018 4.68869 14.7189 4.64922L14.7215 4.64303C14.7684 4.53186 14.7858 4.49997 14.8477 4.43903L14.8587 4.42853L14.8508 4.41178C14.5819 4.46758 14.3527 4.47733 14.193 4.42077L14.1693 4.41276C14.1502 4.4061 14.1385 4.40034 14.1327 4.39397C14.1274 4.3881 14.128 4.38219 14.1385 4.37112C14.1969 4.30939 14.3098 4.22581 14.4214 4.17562L14.4165 4.15714C13.9748 4.22583 13.537 4.20903 13.3808 4.06743ZM13.3808 4.06743C13.3733 4.06068 13.3665 4.05366 13.3604 4.04634L13.3517 4.06223C13.3612 4.0643 13.3709 4.06602 13.3808 4.06743ZM14.7038 2.95016C14.702 2.94469 14.7007 2.94013 14.7002 2.93665L14.6898 2.9478C14.6945 2.94851 14.6991 2.94929 14.7038 2.95016ZM13.3622 2.46052C13.362 2.45305 13.3621 2.44584 13.3627 2.43892L13.347 2.44492C13.3518 2.44996 13.3568 2.45516 13.3622 2.46052ZM13.0301 2.73676C13.0259 2.72519 13.022 2.71381 13.0186 2.70266L13.0037 2.71286C13.012 2.72067 13.0208 2.72864 13.0301 2.73676ZM12.7817 2.95477C12.7804 2.94599 12.7795 2.93728 12.7789 2.92867L12.7634 2.93636C12.7694 2.94254 12.7755 2.94867 12.7817 2.95477ZM12.6251 3.19201C12.6229 3.17895 12.6217 3.16596 12.6214 3.15306L12.6044 3.15838C12.6112 3.16993 12.6181 3.18113 12.6251 3.19201Z" fill="black"/>
<path fill-rule="evenodd" clip-rule="evenodd" d="M18.7236 5.8713L18.7226 5.85538C18.7326 5.84698 18.729 5.83237 18.7017 5.80615C18.637 5.74386 18.6152 5.70451 18.584 5.61725C18.5754 5.59339 18.5702 5.58028 18.5632 5.56598C18.5512 5.54151 18.5363 5.52016 18.5152 5.49878C18.4167 5.39897 18.3302 5.24765 18.3015 5.12122C18.2533 4.91072 18.1865 4.74306 18.0848 4.6479C18.0152 4.58284 17.9893 4.41083 18.0072 4.18787C18.0094 4.16046 18.0111 4.1344 18.0123 4.1096L18.0182 4.11294L18.0181 4.11367L18.0192 4.11345L18.0302 4.11945C18.029 4.14181 18.0275 4.16514 18.0255 4.1895C18.008 4.40668 18.0332 4.57382 18.097 4.63342C18.2024 4.73206 18.2703 4.9025 18.3193 5.1167C18.3473 5.23939 18.4318 5.38749 18.5279 5.48483C18.5505 5.50771 18.5666 5.53077 18.5795 5.55709C18.587 5.57223 18.5924 5.5859 18.6011 5.61042C18.6314 5.69508 18.6519 5.73199 18.714 5.79185C18.7425 5.8191 18.7521 5.84271 18.7427 5.86017C18.7394 5.85845 18.7361 5.8566 18.7329 5.85461L18.734 5.87053C18.7378 5.86737 18.7406 5.86391 18.7427 5.86017C18.854 5.91869 18.9993 5.8235 19.0009 5.73518L19.0163 5.72824C19.1656 5.87286 19.3511 5.86101 19.3968 5.69535L19.4107 5.68992C19.5295 5.77085 19.738 5.77975 19.7937 5.70093C19.8704 5.59282 19.8253 5.50812 19.5148 5.30994L19.5219 5.2923C19.6189 5.31903 19.6969 5.26912 19.705 5.18366L19.7191 5.17648C19.8261 5.24955 19.9167 5.26443 20.0436 5.2366C20.1476 5.21382 20.1496 5.12996 20.0589 5.00627L20.0707 4.99194C20.1797 5.0574 20.2983 5.09309 20.3789 5.08461C20.4639 5.07566 20.496 5.02071 20.4613 4.91812L20.4718 4.9054C20.5992 4.9334 20.7003 4.92899 20.7292 4.88117C20.7641 4.82372 20.6968 4.71963 20.5244 4.58258L20.5289 4.56523C20.5739 4.56 20.6005 4.55314 20.6322 4.53834C20.8028 4.62886 21.1716 4.70109 21.3437 4.68799C21.4877 4.67717 21.5341 4.60591 21.5082 4.44829C21.8775 4.3729 22.2173 4.25063 22.4422 4.07606C22.4665 4.05717 22.4774 4.04863 22.4913 4.03742C22.5111 4.02147 22.5279 4.00717 22.5426 3.9936C22.5653 3.97265 22.5822 3.95398 22.5929 3.93788C22.6019 3.9326 22.6106 3.9273 22.619 3.92198L22.6053 3.91149C22.6035 3.9193 22.5994 3.92812 22.5929 3.93788C22.4036 4.04898 22.0727 4.15192 21.5066 4.29749L21.5015 4.27889C22.0043 4.10534 22.7825 3.57686 22.8142 3.35093L22.8303 3.33584L22.8149 3.32963C22.8155 3.33638 22.8153 3.34349 22.8142 3.35093C22.6839 3.47058 22.5001 3.56579 22.1933 3.69012L22.1068 3.72484L22.0212 3.75892L22.0133 3.7415C22.3226 3.55255 22.5718 3.27521 22.5974 3.06227C22.6041 3.05364 22.6103 3.04486 22.6163 3.0359L22.5996 3.03022C22.5995 3.04072 22.5988 3.05141 22.5974 3.06227C22.5119 3.17403 22.3702 3.2601 22.0978 3.38893L22.089 3.39307L21.9712 3.44869C21.9335 3.46669 21.902 3.48208 21.8728 3.49691L21.8631 3.4806C21.9992 3.36713 22.0466 3.32676 22.1207 3.25898C22.2601 3.13137 22.3664 3.01552 22.438 2.90614C22.511 2.7945 22.5441 2.69424 22.5324 2.60642C22.5368 2.59922 22.5409 2.592 22.5449 2.58475L22.528 2.58223C22.5299 2.59019 22.5314 2.59825 22.5324 2.60642C22.4335 2.77122 22.2421 2.92228 21.9356 3.10424C21.8871 3.13308 21.7653 3.20275 21.6797 3.25171C21.6364 3.27648 21.6024 3.29596 21.5917 3.30218L21.5813 3.28639C21.7766 3.10899 21.8866 2.95363 21.8976 2.75766L21.9131 2.74561L21.8984 2.73762C21.8983 2.74435 21.898 2.75103 21.8976 2.75766C21.4797 3.08164 20.967 3.31212 20.4299 3.44929L20.425 3.43656L20.423 3.4316C20.5538 3.34845 20.691 3.19312 20.7314 3.08291L20.7532 3.06762L20.7392 3.05726C20.7372 3.06548 20.7346 3.07405 20.7314 3.08291C20.3379 3.35401 19.7525 3.53666 19.3241 3.5666C18.9365 3.59347 18.6856 3.6277 18.3825 3.70405C18.3247 3.64275 18.1543 3.64602 17.9422 3.70691C17.9388 3.7029 17.9353 3.69896 17.9316 3.69507L17.9276 3.71119L17.9422 3.70691C18.016 3.79315 18.0385 3.90729 18.0317 4.08785L18.0146 4.0914L18.0125 4.10535C18.0217 3.91079 17.9987 3.79411 17.9186 3.70867L17.9226 3.69256C18.1478 3.62569 18.3298 3.6207 18.3867 3.68785C18.6824 3.60859 18.9343 3.57423 19.3229 3.54729C19.7563 3.517 20.3525 3.32901 20.743 3.05158L20.757 3.06194C20.7324 3.16605 20.6078 3.31967 20.4778 3.41683C21.0002 3.27706 21.4971 3.04813 21.9021 2.73009L21.9168 2.73807C21.9126 2.92935 21.8206 3.08081 21.6526 3.24517L21.6712 3.23457C21.7567 3.18561 21.8782 3.11612 21.9266 3.08737C22.2437 2.89913 22.4362 2.74442 22.529 2.57507L22.5458 2.57759C22.5693 2.67744 22.5356 2.79098 22.4531 2.91713C22.3805 3.0281 22.2732 3.14501 22.1327 3.27359C22.0709 3.3302 22.0276 3.36773 21.9363 3.44419L21.9637 3.43106L22.0815 3.3754L22.0903 3.37127C22.3805 3.23402 22.5206 3.14589 22.6013 3.02478L22.618 3.03045C22.6156 3.23665 22.3954 3.50597 22.1051 3.70478L22.1867 3.67205C22.5042 3.5434 22.6888 3.44625 22.8178 3.32158L22.8332 3.32779C22.8517 3.53267 22.1797 4.01388 21.6606 4.23744C22.1538 4.10706 22.4443 4.01045 22.6095 3.9054L22.6232 3.91589C22.6174 3.94183 22.5939 3.97193 22.5547 4.00815C22.5397 4.02204 22.5226 4.0366 22.5025 4.05279C22.4885 4.0641 22.4775 4.07269 22.453 4.09165C22.2254 4.26834 21.8835 4.3914 21.5189 4.45554C21.5546 4.61277 21.5006 4.69561 21.345 4.70729C21.1697 4.72064 20.7976 4.64776 20.6328 4.55528C20.6114 4.56881 20.5879 4.57622 20.5533 4.5815C20.7201 4.71756 20.7858 4.82381 20.7447 4.89159C20.711 4.9472 20.6114 4.95364 20.4836 4.92764C20.5133 5.03226 20.4731 5.09415 20.3807 5.10387C20.3046 5.11187 20.1986 5.08319 20.0968 5.02873C20.1698 5.14482 20.158 5.2313 20.0473 5.25555C19.9206 5.28333 19.8273 5.26976 19.7211 5.20073C19.7071 5.27552 19.6439 5.32266 19.5633 5.3186C19.8469 5.50479 19.8901 5.59736 19.8084 5.7125C19.7474 5.79896 19.5381 5.79238 19.4109 5.71282C19.3567 5.87836 19.1694 5.89152 19.0171 5.75483C18.9969 5.85338 18.8409 5.94395 18.7236 5.8713ZM18.438 4.05564C18.4424 4.04303 18.4458 4.02939 18.4479 4.01471L18.437 4.00376L18.0317 4.08785L18.0311 4.10107L18.0208 4.09508L18.0182 4.11294L18.0192 4.11345L18.0306 4.11099L18.0302 4.11945C18.1878 4.20248 18.3619 4.19767 18.4255 4.08332C18.5635 4.16205 18.7815 4.12347 18.8519 4.01314C19.0497 4.08835 19.2347 4.04319 19.2676 3.85256L19.2556 3.84167L18.8672 3.98155C18.8727 3.96529 18.8753 3.94784 18.8744 3.92931L18.438 4.05564ZM18.4339 4.0661C18.4354 4.06269 18.4367 4.0592 18.438 4.05564L18.4196 4.06097L18.4176 4.07858L18.4255 4.08332L18.4281 4.07846L18.4463 4.07272C18.5762 4.138 18.7717 4.10093 18.8418 4.0092L18.8519 4.01314C18.8534 4.01078 18.8548 4.00838 18.8562 4.00595L18.8723 4.00014C19.0493 4.06234 19.2092 4.0229 19.2462 3.86551L19.2615 3.85998L19.2495 3.84909C19.2486 3.8547 19.2475 3.86017 19.2462 3.86551L18.8723 4.00014C18.8687 3.99884 18.865 3.9975 18.8613 3.99612C18.8635 3.99138 18.8655 3.98652 18.8672 3.98155L18.8565 3.9854C18.8634 3.97096 18.8674 3.95546 18.8679 3.93906L18.4463 4.07272C18.4421 4.07061 18.438 4.06841 18.4339 4.0661ZM18.8526 3.99281C18.8555 3.99394 18.8584 3.99504 18.8613 3.99612C18.8597 3.99945 18.858 4.00273 18.8562 4.00595L18.8475 4.00909L18.8476 4.00101C18.8494 3.99832 18.8511 3.99559 18.8526 3.99281ZM18.8526 3.99281C18.851 3.99218 18.8494 3.99154 18.8478 3.99089L18.8476 4.00101C18.8458 4.00379 18.8438 4.00652 18.8418 4.0092L18.8412 4.00898L18.8415 3.99078L18.8565 3.9854C18.8553 3.9879 18.854 3.99037 18.8526 3.99281ZM18.4339 4.0661C18.4321 4.07034 18.4302 4.07446 18.4281 4.07846L18.4248 4.0795L18.4269 4.06189L18.4339 4.0661ZM18.044 4.10813L18.0306 4.11099L18.0311 4.10107L18.044 4.10813ZM18.4273 4.02596C18.3956 4.17771 18.2125 4.1973 18.044 4.10813L18.4273 4.02596ZM18.4273 4.02596C18.4282 4.02136 18.4291 4.01664 18.4297 4.0118L18.4406 4.02311L18.4273 4.02596ZM20.425 3.43656L20.4308 3.45489C20.4398 3.45152 20.1799 3.55032 20.0887 3.58382C20.0616 3.59376 20.0355 3.60324 20.0101 3.61231C19.8268 3.67794 19.6888 3.7206 19.6011 3.73604L19.5968 3.71728L20.425 3.43656ZM18.0125 4.10535L18.0123 4.1096L18.012 4.10938L18.0125 4.10535ZM14.7857 3.14406C14.8442 3.23366 14.9978 3.36504 15.0945 3.39699C15.1015 3.46811 15.1301 3.53702 15.1782 3.59256L14.7408 3.44522L14.7291 3.45694C14.7393 3.49708 14.7566 3.53243 14.779 3.56261L14.4777 3.43434C14.5026 3.43484 14.53 3.43306 14.5598 3.42888L14.5648 3.41211L14.3485 3.20618C14.3866 3.21525 14.425 3.22228 14.4636 3.22714L14.4689 3.20893L13.6324 2.75556L13.6219 2.7712C13.822 2.97082 14.0543 3.12334 14.299 3.1932C14.2834 3.23028 14.2794 3.27742 14.2909 3.31868L13.8246 3.14416L13.8157 3.16075C13.9181 3.2496 14.0782 3.30218 14.2997 3.34247L14.3035 3.34998C14.3234 3.38646 14.3572 3.41209 14.4054 3.42495C14.3969 3.44677 14.3929 3.46777 14.393 3.48747C14.1703 3.44301 14.0294 3.42877 13.971 3.4558C13.9407 3.46991 13.9206 3.48992 13.9117 3.51298C13.8724 3.4969 13.8352 3.48343 13.7944 3.47022C13.7782 3.46498 13.7613 3.45973 13.7418 3.45388C13.7532 3.45732 13.6175 3.41723 13.5716 3.40291L13.9115 3.5136C13.9092 3.51968 13.9077 3.52597 13.907 3.53242C13.8675 3.51619 13.8302 3.50267 13.7891 3.48939C13.773 3.48419 13.7563 3.47897 13.7369 3.47315C13.7485 3.47663 13.6123 3.43643 13.5664 3.42209L13.5716 3.4029L13.5715 3.40287L13.5663 3.42206L13.9069 3.533C13.9036 3.56665 13.922 3.60452 13.965 3.63925C13.9801 3.65147 13.9982 3.66317 14.0188 3.67434C13.9753 3.69627 13.9588 3.73212 13.968 3.7705L13.2774 3.56513L13.27 3.58261C13.448 3.70154 13.6706 3.76502 13.9768 3.79415C13.9851 3.81065 13.998 3.82719 14.0153 3.8429C13.9945 3.86829 13.9864 3.89686 13.9895 3.92594C13.9484 3.92456 13.8896 3.93556 13.8512 3.95249L13.856 3.97165L13.9941 3.9482C14.0024 3.97609 14.0206 4.00383 14.0473 4.02912C14.2697 4.24044 14.8188 4.23636 15.338 4.04654C15.3498 4.07409 15.3801 4.09304 15.4285 4.10727C15.4481 4.11307 15.4681 4.11801 15.4882 4.12211L14.849 4.41236L14.854 4.43083C15.0481 4.40087 15.3207 4.2679 15.5221 4.12819C15.5755 4.13651 15.6303 4.13914 15.6855 4.13643C15.6619 4.18263 15.6578 4.24182 15.6748 4.29199L14.9987 4.54374L15.0044 4.56215C15.227 4.49325 15.518 4.3864 15.6823 4.31034C15.7025 4.35321 15.7401 4.38654 15.7965 4.39424L15.1181 4.70642L15.1241 4.72466C15.2826 4.6815 15.5969 4.53728 15.8374 4.3981C15.9064 4.40204 15.9825 4.39422 16.061 4.37722C16.0463 4.40919 16.0376 4.44071 16.0347 4.47067L15.387 4.78983L15.3931 4.80797C15.5894 4.75512 15.7666 4.66198 16.0336 4.49419C16.0338 4.53936 16.0478 4.58003 16.0747 4.61199L15.4821 4.9259L15.4881 4.94401C15.5525 4.92982 15.6293 4.89921 15.7166 4.85475C15.7644 4.83039 15.8145 4.80225 15.8668 4.7708C15.9415 4.72589 16.0003 4.6874 16.089 4.62703C16.119 4.655 16.1609 4.67423 16.2139 4.68093C16.22 4.68169 16.2262 4.68227 16.2325 4.68265L15.7474 4.92144L15.7532 4.93967C15.8609 4.91565 15.9638 4.87136 16.0746 4.80728C16.0997 4.79282 16.1506 4.76093 16.1961 4.7325L16.1961 4.73249L16.1961 4.73248C16.2315 4.71037 16.2635 4.69035 16.2773 4.68224C16.3327 4.67818 16.3943 4.66149 16.4595 4.63339C16.4304 4.68131 16.4148 4.71965 16.4124 4.75337L15.9169 5.01367L15.924 5.03147C16.0111 4.99951 16.2628 4.86456 16.4128 4.77575C16.4153 4.79821 16.4243 4.81895 16.4397 4.8397C16.4551 4.86041 16.4733 4.87165 16.4973 4.87364L16.1574 5.03988L16.1647 5.05764C16.2815 5.00811 16.4407 4.93056 16.5753 4.85791C16.6116 4.844 16.6562 4.82111 16.7121 4.78947C16.7561 4.76462 16.8079 4.72937 16.8673 4.68465C16.8829 4.6729 16.899 4.66055 16.9156 4.64756C16.9029 4.69585 16.9023 4.73749 16.9123 4.77222L16.3677 5.11935L16.3757 5.13666C16.5216 5.07779 16.7917 4.90015 16.9195 4.79218C16.9335 4.82376 16.9575 4.84854 16.9901 4.86624L16.6117 5.11946L16.6202 5.13654C16.7643 5.07237 16.931 4.95919 17.0116 4.87636L17.0152 4.87781C17.0993 4.91077 17.1839 4.91177 17.2633 4.8679L16.9383 5.12437L16.9485 5.14044C17.107 5.04164 17.295 4.8956 17.3567 4.81797L17.3442 4.80401L17.3434 4.8046L17.3409 4.78972L16.9579 4.61398C16.979 4.59699 17.001 4.57905 17.025 4.55921L17.1026 4.49466L17.0953 4.47754L16.8444 4.52638L17.0198 4.38512L17.0091 4.3694C16.953 4.40904 16.8681 4.47385 16.7887 4.53722L16.5621 4.58132C16.6966 4.50321 16.839 4.38295 16.9673 4.23025L16.9592 4.21425L16.628 4.26389L16.6722 4.23315L16.7725 4.16253C16.8106 4.13585 16.8411 4.11501 16.87 4.09593L16.8604 4.07939L16.8602 4.07953L16.5429 4.27665L16.25 4.32056C16.4304 4.25215 16.6024 4.14655 16.7078 4.03423C16.7525 4.02772 16.7988 4.01858 16.8458 4.00662L16.8482 4.00711L16.8482 4.00601L16.8522 4.005L16.8517 3.9861L16.3019 3.87517C16.337 3.87242 16.373 3.868 16.4097 3.86177L16.4108 3.84293L15.78 3.64861L15.7683 3.65743C15.768 3.66409 15.7682 3.67067 15.769 3.67717L15.1064 3.3375L15.0932 3.34571C15.0929 3.35315 15.0928 3.3606 15.0929 3.36804L14.7988 3.13088L14.7857 3.14406ZM15.0931 3.3761L15.0929 3.36804L15.1108 3.3825L15.1029 3.39954L15.0945 3.39699L15.0942 3.39347L15.0996 3.39787L15.1076 3.38083C15.1029 3.37953 15.0981 3.37794 15.0931 3.3761ZM15.0421 3.3515L14.8573 3.20238C14.8343 3.17811 14.8147 3.15431 14.8008 3.13308L14.7877 3.14625L14.8573 3.20238C14.91 3.25803 14.9808 3.31615 15.0421 3.3515ZM15.0421 3.3515C15.0602 3.36188 15.0774 3.37029 15.0931 3.3761C15.0933 3.3819 15.0937 3.38769 15.0942 3.39347L15.0421 3.3515ZM15.7897 3.68778L15.769 3.67717C15.7696 3.68159 15.7703 3.68597 15.7714 3.6903L15.759 3.69354L15.1112 3.36147C15.1112 3.35655 15.1113 3.35163 15.1116 3.34671L15.0984 3.35491L15.1112 3.36147C15.1107 3.49703 15.194 3.63142 15.3453 3.67929C15.4794 3.72173 15.611 3.72699 15.7222 3.70428C15.6938 3.71321 15.6655 3.72361 15.6378 3.73514C15.5451 3.74161 15.4433 3.73049 15.34 3.69782C15.2887 3.68159 15.2448 3.65586 15.2088 3.62365L15.2131 3.62006L15.2101 3.60331L15.1782 3.59256C15.1835 3.59871 15.1891 3.60468 15.1949 3.61048L15.1876 3.61605L14.7519 3.46926C14.75 3.4636 14.7484 3.45782 14.7469 3.45193L14.7352 3.46366L14.7519 3.46926C14.7707 3.52811 14.8064 3.57499 14.851 3.60831L14.8089 3.59712L14.8085 3.59675L14.8126 3.59546L14.8133 3.57723L14.779 3.56261C14.7837 3.56903 14.7887 3.5752 14.7939 3.58114L14.7819 3.58474L14.4226 3.43178L14.4237 3.42908C14.4402 3.43218 14.4582 3.43396 14.4777 3.43434L14.4213 3.41032L14.4095 3.41519L14.4054 3.42495L14.4161 3.42754L14.4144 3.42826L14.4226 3.43178C14.4145 3.45272 14.4109 3.47283 14.4118 3.49154L14.4076 3.49042L14.4071 3.4903L14.393 3.48747C14.393 3.4943 14.3935 3.50098 14.3946 3.50749C14.1742 3.4633 14.0321 3.44866 13.9784 3.47351C13.9109 3.50496 13.9041 3.56567 13.9761 3.62389C13.9947 3.6389 14.018 3.65311 14.0451 3.66651L14.0432 3.666L14.038 3.66622C14.0311 3.66865 14.0247 3.67137 14.0188 3.67434C14.0253 3.67787 14.0321 3.68134 14.0391 3.68477L14.0387 3.68478L14.0396 3.68503L14.0409 3.68564C13.9686 3.71278 13.9656 3.7773 14.0316 3.83284L14.0297 3.83257L14.0219 3.83533C14.0196 3.83782 14.0174 3.84034 14.0153 3.8429C14.0198 3.84699 14.0246 3.85102 14.0297 3.85497C13.9907 3.90217 14.0043 3.96242 14.0596 4.01474C14.2714 4.21602 14.7974 4.21607 15.3019 4.03906L15.3371 4.04423L15.338 4.04654L15.3444 4.04422L15.3426 4.0255L15.3423 4.02546L15.3436 4.0082L15.3332 4.00548C15.3356 3.98627 15.3434 3.96409 15.3566 3.93834C15.377 3.89885 15.4226 3.85643 15.4818 3.81724C15.4986 3.81428 15.5146 3.81108 15.5296 3.80764L15.5299 3.7888L15.5287 3.78849C15.5627 3.76912 15.5997 3.75105 15.6378 3.73514C15.6686 3.733 15.6983 3.72893 15.7267 3.72307C15.5697 3.77274 15.4136 3.86831 15.3728 3.94756C15.3304 4.03006 15.3484 4.06365 15.4334 4.08863C15.6807 4.16165 15.9751 4.09532 16.2 3.9298L16.2091 3.9347C16.2106 3.93754 16.2122 3.94033 16.214 3.94308C16.1223 4.01117 16.0192 4.06302 15.9121 4.09598L15.7006 4.11758L15.6939 4.12177C15.6909 4.12648 15.688 4.13138 15.6855 4.13643L15.7049 4.13525L15.7024 4.13685L15.7067 4.1364C15.6571 4.21884 15.6835 4.35967 15.7993 4.37511C15.8097 4.37649 15.8203 4.37755 15.8311 4.37831L15.7965 4.39424L15.797 4.39431L15.8041 4.3952C15.7241 4.44066 15.637 4.4863 15.5509 4.52837L15.3523 4.61978C15.2606 4.65912 15.1789 4.68976 15.1195 4.70592L15.1255 4.72416L15.3523 4.61978C15.4152 4.59279 15.4827 4.5617 15.5509 4.52837L15.8344 4.39792L15.8374 4.3981L15.851 4.39023L15.8458 4.37915C15.9155 4.38227 15.9927 4.37329 16.0721 4.35496C16.0681 4.36239 16.0644 4.36982 16.061 4.37722L16.0842 4.37195C16.012 4.51227 16.063 4.64235 16.2161 4.66171C16.2337 4.66394 16.2524 4.66443 16.2719 4.66324L16.2325 4.68265L16.2394 4.68298L16.1857 4.71647L16.1857 4.71649C16.1582 4.73371 16.1288 4.75207 16.1045 4.767L15.8525 4.89105C15.8183 4.9031 15.7841 4.913 15.7494 4.92074L15.7552 4.93897L15.8525 4.89105C15.9225 4.86641 15.9923 4.83279 16.0658 4.79031C16.0754 4.78478 16.0889 4.7766 16.1045 4.767L16.2766 4.68229L16.2773 4.68224L16.2815 4.67989L16.2736 4.66314C16.3347 4.65913 16.4043 4.63881 16.4782 4.60397C16.4714 4.61417 16.4652 4.62397 16.4595 4.63339C16.4697 4.62898 16.48 4.62428 16.4904 4.61931C16.4239 4.72073 16.4145 4.7743 16.4541 4.82778C16.4754 4.85646 16.5064 4.8617 16.5608 4.84256L16.4973 4.87364L16.5042 4.87396C16.3854 4.93596 16.2564 4.99789 16.1578 5.03968L16.1651 5.05744L16.5661 4.86131L16.5753 4.85791L16.596 4.84667L16.5889 4.83144C16.6201 4.81794 16.6577 4.7983 16.7034 4.77241C16.7466 4.74802 16.7978 4.71318 16.8566 4.6689C16.8772 4.65343 16.8985 4.63691 16.9209 4.61923L16.9253 4.61568C16.9215 4.62661 16.9183 4.63724 16.9156 4.64756L16.9319 4.6347L16.9408 4.62762C16.8999 4.74949 16.9343 4.8257 17.0216 4.85967C17.1249 4.90018 17.2281 4.88979 17.3207 4.80159L17.3335 4.80747L17.3308 4.79165L17.3207 4.80159L16.9411 4.62739L16.9579 4.61398L16.9393 4.60546L16.9368 4.60659C16.9609 4.58729 16.9859 4.56691 17.0136 4.54398L17.0621 4.50368L17.0986 4.49657L17.0913 4.47945L17.0621 4.50368L16.8121 4.55234L16.8444 4.52638L16.8292 4.52934C16.8993 4.47401 16.9705 4.42002 17.0194 4.38547L17.0087 4.36974L16.8045 4.53415L16.7887 4.53722L16.7563 4.5632L16.5052 4.61207C16.524 4.60269 16.5429 4.59243 16.5621 4.58132L16.4997 4.59346C16.6413 4.52212 16.7967 4.39923 16.9368 4.23716L16.9618 4.23341L16.9536 4.21742L16.9368 4.23716L16.5914 4.28893L16.628 4.26389L16.5906 4.2695L16.8698 4.09607L16.8602 4.07953C16.8311 4.09871 16.8006 4.11964 16.7624 4.1464L16.662 4.21704C16.6348 4.23614 16.6091 4.25387 16.5848 4.27037L16.5429 4.27665L16.5015 4.30242L16.1448 4.35589C16.1799 4.34565 16.2151 4.3338 16.25 4.32056L16.141 4.33689C16.3444 4.27739 16.5519 4.16292 16.6775 4.03825C16.6875 4.03704 16.6976 4.0357 16.7078 4.03423L16.7102 4.03163L16.7037 4.01743C16.7368 4.01259 16.7708 4.00626 16.8054 3.99834L16.8458 4.00662L16.8482 4.00601L16.8478 3.98793C16.8336 3.99166 16.8194 3.99513 16.8054 3.99834L16.2208 3.87863C16.2471 3.87847 16.2742 3.87734 16.3019 3.87517L16.2232 3.85928C16.2684 3.85888 16.3159 3.85559 16.3651 3.849L16.4057 3.86151L16.4068 3.84266C16.3928 3.84504 16.3789 3.84715 16.3651 3.849L15.7868 3.67087C15.7865 3.66673 15.7864 3.66256 15.7866 3.65837L15.7749 3.66719L15.7868 3.67087C15.7873 3.67657 15.7883 3.68221 15.7897 3.68778ZM15.791 3.69033L15.7912 3.68852L15.7897 3.68778L15.7903 3.68994L15.7878 3.68859L15.7844 3.68816L15.7845 3.68798L15.784 3.68811L15.7816 3.68779L15.7714 3.6903L15.7718 3.69191L15.7615 3.69485L15.759 3.69354C15.7467 3.69683 15.7345 3.70042 15.7222 3.70428C15.7356 3.70154 15.7487 3.69839 15.7615 3.69485L15.7746 3.70158L15.7773 3.7087C15.7605 3.71291 15.7436 3.71772 15.7267 3.72307C15.7443 3.71944 15.7614 3.71514 15.778 3.71018C15.8055 3.77509 15.8897 3.82794 16.0085 3.85622L15.6352 3.98514L15.6391 4.0046C15.8079 3.98211 15.9043 3.94429 16.0453 3.86434L16.0452 3.86394C16.0595 3.86659 16.0742 3.8689 16.0893 3.87086L16.2 3.9298L16.2052 3.92589C16.2063 3.92887 16.2077 3.93181 16.2091 3.9347L16.2135 3.93704L16.2123 3.92055L16.2052 3.92589C16.2029 3.92019 16.2013 3.91433 16.2003 3.9083L16.2218 3.91976L16.2231 3.93625L16.214 3.94308C16.2368 3.9787 16.2847 4.00657 16.3503 4.0244L16.2786 4.05855L15.9121 4.09598C15.8448 4.11669 15.776 4.12994 15.7076 4.13506L15.7091 4.13265L15.7049 4.13525L15.7076 4.13506L15.7067 4.1364L16.2266 4.08331L15.9131 4.23251L15.9197 4.25056C16.0454 4.2089 16.1839 4.14418 16.3062 4.07518L16.6014 4.04502C16.6262 4.04363 16.6516 4.04139 16.6775 4.03825L16.6787 4.03714L16.7045 4.0345L16.6972 4.01837L16.7037 4.01743L16.7027 4.01523L16.5626 4.02955C16.3494 4.03421 16.2021 3.9712 16.2189 3.87864L16.2208 3.87863L16.219 3.87827C16.2195 3.87547 16.2202 3.87264 16.221 3.86979L16.2105 3.87653L16.219 3.87827L16.2189 3.87864L16.2002 3.87856C16.201 3.87381 16.202 3.86897 16.2035 3.86407L16.211 3.85932L16.2232 3.85928L16.214 3.85742L16.211 3.85932C16.1702 3.85921 16.1314 3.85673 16.0949 3.85219L15.791 3.69033ZM15.7909 3.69203L15.791 3.69033L15.7903 3.68994L15.7909 3.69203ZM15.8028 3.71828C15.7976 3.70975 15.7936 3.70099 15.7909 3.69203L15.7898 3.70648L15.7841 3.70831L15.7824 3.70744L15.7857 3.70666L15.7795 3.70586L15.7824 3.70744L15.7773 3.7087L15.778 3.71018L15.7841 3.70831L15.8028 3.71828ZM16.0365 3.84277C16.0552 3.84651 16.0747 3.84967 16.0949 3.85219L16.1396 3.87595C16.1224 3.87468 16.1056 3.87298 16.0893 3.87086L16.0365 3.84277ZM15.8028 3.71828L16.0365 3.84277C15.9209 3.8196 15.8366 3.77401 15.8028 3.71828ZM16.1396 3.87595L16.2003 3.9083C16.1987 3.89877 16.1986 3.88885 16.2002 3.87856C16.1795 3.87828 16.1593 3.8774 16.1396 3.87595ZM16.6967 4.01843L16.697 4.0181L16.6972 4.01837L16.6967 4.01843ZM16.6967 4.01843C16.6499 4.02501 16.6049 4.02862 16.5626 4.02955L16.4441 4.04164C16.4217 4.03916 16.4003 4.03579 16.3803 4.03159L16.3825 4.03028L16.3741 4.0131L16.3503 4.0244L16.3538 4.02534C16.3366 4.0357 16.3188 4.04604 16.3007 4.05629L16.2786 4.05855L16.2266 4.08331L16.2576 4.08014C16.1466 4.1402 16.0252 4.19529 15.9141 4.2321L15.9207 4.25015L16.2834 4.07751L16.3062 4.07518C16.32 4.06735 16.3337 4.05946 16.3471 4.05155L16.4441 4.04164C16.4919 4.04691 16.5448 4.04821 16.6014 4.04502L16.6787 4.03714C16.6849 4.03092 16.6909 4.02469 16.6967 4.01843ZM16.3354 4.05275L16.3471 4.05155C16.3584 4.04491 16.3695 4.03825 16.3803 4.03159L16.38 4.03152L16.3816 4.03074L16.3732 4.01356L16.3538 4.02534C16.3623 4.02756 16.371 4.02963 16.38 4.03152L16.3354 4.05275ZM16.3354 4.05275L16.3007 4.05629C16.2866 4.0643 16.2722 4.07226 16.2576 4.08014L16.2834 4.07751L16.3354 4.05275ZM16.0433 3.8636L16.0452 3.86394L16.0383 3.84594L16.0085 3.85622L16.0164 3.85804C15.9807 3.87779 15.9478 3.89472 15.9154 3.90932L15.7643 3.96151C15.7259 3.97088 15.6843 3.97841 15.6369 3.98472L15.6408 4.00418L15.7643 3.96151C15.8184 3.94833 15.8663 3.93152 15.9154 3.90932L16.0438 3.86498L16.0433 3.8636ZM16.0433 3.8636C16.0342 3.86188 16.0252 3.86003 16.0164 3.85804L16.0368 3.84658L16.0433 3.8636ZM15.7746 3.70158C15.7736 3.69838 15.7726 3.69516 15.7718 3.69191L15.784 3.68811L15.7844 3.68816L15.7831 3.70593L15.7746 3.70158ZM16.0882 4.36437L16.0842 4.37195C16.1043 4.36716 16.1245 4.36179 16.1448 4.35589L16.0882 4.36437ZM16.0882 4.36437L16.0904 4.36037L16.0838 4.36503L16.0882 4.36437ZM16.5473 4.29555L16.5015 4.30242L16.26 4.4524L16.2679 4.4698C16.3675 4.43049 16.4609 4.37728 16.5914 4.28893L16.5491 4.29527L16.5906 4.2695L16.5848 4.27037L16.5473 4.29555ZM16.5218 4.31225L16.5473 4.29555L16.5491 4.29527L16.5218 4.31225ZM16.5218 4.31225C16.4929 4.33097 16.4658 4.34782 16.4399 4.36311L16.5218 4.31225ZM16.4399 4.36311C16.3764 4.40055 16.32 4.42859 16.2615 4.45167L16.2694 4.46907L16.4399 4.36311ZM16.4937 4.61431L16.4904 4.61931L16.5052 4.61207L16.4937 4.61431ZM16.4937 4.61431L16.4959 4.61108L16.49 4.61503L16.4937 4.61431ZM16.7722 4.5601L16.7563 4.5632C16.6834 4.62211 16.6196 4.67647 16.5937 4.70397L16.6057 4.71849L16.8121 4.55234L16.7963 4.55541L16.8292 4.52934L16.8045 4.53415L16.7722 4.5601ZM16.7722 4.5601L16.5946 4.70311L16.6067 4.71763C16.6354 4.6872 16.7124 4.6224 16.7963 4.55541L16.7722 4.5601ZM16.9409 4.6273L16.9408 4.62762L16.9411 4.62739L16.9409 4.6273ZM16.9409 4.6273L16.9442 4.61778L16.932 4.62321L16.9409 4.6273ZM16.9368 4.60659L16.9253 4.61568L16.927 4.61089L16.9368 4.60659ZM16.5885 4.8316L16.5889 4.83144L16.5879 4.8293L16.5608 4.84256L16.569 4.83955C16.548 4.85094 16.5263 4.86245 16.5042 4.87396C16.5216 4.87413 16.5419 4.86989 16.5661 4.86131L16.5957 4.84686L16.5885 4.8316ZM16.5885 4.8316L16.5876 4.82949L16.569 4.83955C16.5752 4.83719 16.5817 4.83454 16.5885 4.8316ZM16.4997 4.59346C16.4925 4.5971 16.4853 4.6006 16.4782 4.60397L16.4808 4.59994L16.4867 4.59599L16.4997 4.59346ZM16.2731 4.66316L16.2811 4.68008L16.2766 4.68229C16.2639 4.6832 16.2515 4.68343 16.2394 4.68298C16.2545 4.67367 16.2662 4.66655 16.2721 4.66323L16.2731 4.66316ZM16.2731 4.66316L16.2736 4.66314L16.2733 4.66255L16.2719 4.66324L16.2721 4.66323L16.2729 4.66274L16.2731 4.66316ZM16.141 4.33689C16.118 4.34364 16.095 4.34969 16.0721 4.35496L16.0746 4.35052L16.0812 4.34586L16.141 4.33689ZM15.8448 4.3791L15.8502 4.39064L15.8344 4.39792C15.8241 4.39728 15.814 4.39637 15.8041 4.3952L15.8333 4.37843L15.8448 4.3791ZM15.8448 4.3791L15.8458 4.37915L15.8428 4.3729L15.8311 4.37831L15.8333 4.37843L15.8421 4.37331L15.8448 4.3791ZM15.5257 3.79022L15.5287 3.78849L15.1063 3.67617C15.143 3.66619 15.178 3.64884 15.2088 3.62365L15.2041 3.61937L15.2016 3.605L15.1949 3.61048L15.2041 3.61937L15.2045 3.62175L15.1876 3.61605C15.1506 3.64337 15.1079 3.65936 15.0638 3.66489L14.851 3.60831C14.8724 3.62429 14.8958 3.63715 14.9204 3.64672L14.8431 3.62617C14.8311 3.6174 14.8196 3.6077 14.8089 3.59712L14.8081 3.5969L14.8085 3.59675L14.8064 3.59465L14.8072 3.57695L14.7939 3.58114C14.7979 3.58579 14.8021 3.59029 14.8064 3.59465L14.8064 3.59518L14.7819 3.58474L14.7725 3.58744L14.4118 3.49154C14.4121 3.49867 14.4131 3.50559 14.4147 3.51228L14.4033 3.50926L14.4036 3.50931L14.4031 3.50919L14.4033 3.50926L14.3946 3.50749C14.4108 3.60977 14.5491 3.66855 14.7725 3.60741L14.8431 3.62617C14.9065 3.67245 14.9862 3.6932 15.0626 3.68452L15.4855 3.79695C15.2478 3.84042 14.8338 3.83459 14.4918 3.78407L14.0451 3.66651C14.1489 3.71783 14.3102 3.75725 14.4918 3.78407L14.6347 3.82167C14.5848 3.81632 14.5356 3.81008 14.4878 3.80297L14.0413 3.68548L14.0438 3.68457L14.0391 3.68477L14.0396 3.68503L14.0413 3.68548L14.0409 3.68564C14.1467 3.73683 14.3075 3.77614 14.4878 3.80297L15.2841 4.01251L15.2625 4.01372L14.0316 3.83284C14.0417 3.84134 14.0534 3.84963 14.0667 3.85755L14.0318 3.85242L14.035 3.84898L14.0272 3.85174L14.0318 3.85242L14.0297 3.85497C14.0507 3.87133 14.0769 3.88647 14.108 3.89932C14.3223 3.98787 14.9156 4.05025 15.2616 4.03314L15.3019 4.03906L15.3322 4.0282L15.3331 4.02812C15.3338 4.03379 15.3352 4.03915 15.3371 4.04423L15.3401 4.04467L15.3385 4.02759L15.3422 4.02722L15.3423 4.02546L15.3393 4.02501L15.3405 4.00795L15.3329 4.0087L15.3332 4.00548L14.6347 3.82167C14.9411 3.85451 15.2744 3.85388 15.4818 3.81724C15.4895 3.81218 15.4973 3.80718 15.5054 3.80225L15.5254 3.80756L15.5257 3.79022ZM15.5257 3.79022C15.5188 3.79418 15.512 3.79819 15.5054 3.80225L15.4855 3.79695C15.4995 3.79438 15.5129 3.79164 15.5257 3.78872L15.5257 3.79022ZM15.3327 4.02404C15.3323 4.01915 15.3324 4.01405 15.3329 4.0087C15.3174 4.01019 15.3011 4.01145 15.2841 4.01251L15.322 4.02247L15.2625 4.01372C15.2271 4.01551 15.189 4.01644 15.149 4.0166L14.0667 3.85755C14.0809 3.86596 14.0969 3.87394 14.1147 3.8813C14.3048 3.95984 14.801 4.01792 15.149 4.0166L15.2616 4.03314C15.2865 4.03191 15.3101 4.03027 15.3322 4.0282L15.3331 4.02787L15.3331 4.02812L15.3385 4.02759L15.3384 4.02678L15.3391 4.02698L15.3393 4.02501L15.3327 4.02404ZM15.3328 4.02531L15.3327 4.02404L15.322 4.02247L15.3328 4.02531ZM15.337 4.02642L15.3331 4.02787L15.3328 4.02531L15.337 4.02642ZM15.337 4.02642L15.3384 4.02678L15.3383 4.02595L15.337 4.02642ZM14.9849 3.66387L14.9204 3.64672C14.9412 3.65483 14.9629 3.66058 14.9849 3.66387ZM14.9849 3.66387L15.0626 3.68452C15.0773 3.68284 15.0919 3.68007 15.1063 3.67617L15.0638 3.66489C15.0377 3.66818 15.0111 3.66778 14.9849 3.66387ZM14.7343 3.59724C14.7467 3.59438 14.7594 3.59111 14.7725 3.58744L14.8081 3.5969C14.796 3.60073 14.7842 3.60423 14.7725 3.60741L14.7343 3.59724ZM14.7343 3.59724L14.4147 3.51228C14.4343 3.59359 14.5472 3.64043 14.7343 3.59724ZM14.4161 3.42754L14.4237 3.42908L14.4261 3.4234L14.4161 3.42754ZM17.3431 4.80604L17.3436 4.80554L17.3434 4.8046L17.2633 4.8679C17.2889 4.85371 17.314 4.83482 17.3384 4.8108C17.2741 4.88763 17.0924 5.02825 16.9392 5.12379L16.9494 5.13986L17.3552 4.8195L17.3431 4.80604ZM17.3431 4.80604L17.3384 4.8108L17.3427 4.80554L17.3431 4.80604ZM17.0101 4.87578L17.0116 4.87636L17.0165 4.87122L17.0051 4.85623L16.9901 4.86624L16.9933 4.86797C16.9615 4.89978 16.9171 4.93595 16.8665 4.97187L16.7925 5.02139C16.7339 5.05837 16.6715 5.09266 16.613 5.11871L16.6215 5.1358L16.7925 5.02139C16.8181 5.00524 16.843 4.98858 16.8665 4.97187L17.0101 4.87578ZM17.0101 4.87578L17.0149 4.87257L17.0035 4.85758L16.9933 4.86797C16.9987 4.87076 17.0043 4.87336 17.0101 4.87578ZM16.9188 4.79066L16.9195 4.79218L16.929 4.78408L16.9184 4.76833L16.9123 4.77222L16.9126 4.77321C16.8611 4.81721 16.7841 4.87388 16.7012 4.92936L16.5727 5.01129C16.4966 5.05729 16.4238 5.09651 16.3691 5.11859L16.3772 5.13591L16.5727 5.01129C16.6153 4.9855 16.659 4.95758 16.7012 4.92936L16.9188 4.79066ZM16.9188 4.79066C16.9164 4.78505 16.9143 4.77923 16.9126 4.77321L16.9173 4.76913L16.9279 4.78489L16.9188 4.79066ZM16.4127 4.77485L16.4128 4.77575L16.4266 4.76752L16.418 4.75045L16.4124 4.75337L16.4124 4.75377C16.2646 4.84185 16.0054 4.98112 15.918 5.0132L15.9251 5.031L16.4127 4.77485ZM16.4127 4.77485C16.412 4.768 16.4119 4.76099 16.4124 4.75377L16.4175 4.75069L16.4262 4.76777L16.4127 4.77485ZM16.0884 4.62642L16.089 4.62703L16.0957 4.62246L16.0866 4.60569L16.0747 4.61199L16.0756 4.61309C16.0152 4.65416 15.9687 4.68504 15.9212 4.71494L15.5817 4.89478C15.5466 4.90834 15.514 4.91853 15.4843 4.92507L15.4903 4.94319L15.5817 4.89478C15.6209 4.87969 15.6633 4.86041 15.7086 4.83733C15.756 4.81317 15.8058 4.78523 15.8577 4.75399C15.8799 4.74066 15.9007 4.72789 15.9212 4.71494L16.0884 4.62642ZM16.0884 4.62642C16.0838 4.62217 16.0796 4.61772 16.0756 4.61309L16.0857 4.60621L16.0949 4.62298L16.0884 4.62642ZM16.0336 4.49259L16.0336 4.49419L16.0458 4.48654L16.0372 4.46947L16.0347 4.47067L16.0347 4.47097C15.9703 4.51153 15.9112 4.54777 15.8558 4.58017L15.5111 4.75005C15.4704 4.76515 15.4299 4.7781 15.3886 4.78922L15.3947 4.80736L15.5111 4.75005C15.6182 4.71033 15.7268 4.65569 15.8558 4.58017L16.0336 4.49259ZM16.0336 4.49259L16.045 4.487L16.0363 4.46993L16.0347 4.47097C16.034 4.47827 16.0336 4.48548 16.0336 4.49259ZM15.682 4.30985L15.6823 4.31034L15.6888 4.30731L15.682 4.28934L15.6748 4.29199L15.675 4.29254C15.5116 4.36822 15.2212 4.47487 14.9992 4.54358L15.0048 4.56199L15.682 4.30985ZM15.682 4.30985C15.6794 4.30423 15.6771 4.29845 15.675 4.29254L15.6813 4.28962L15.6881 4.30759L15.682 4.30985ZM15.5215 4.12809L15.5221 4.12819L15.5243 4.12662L15.5156 4.10965L15.4882 4.12211L15.4952 4.12351C15.4673 4.14245 15.4382 4.16121 15.4081 4.17956L14.9385 4.39281C14.9081 4.40104 14.8788 4.40742 14.8513 4.41168L14.8563 4.43014L14.9385 4.39281C15.084 4.35342 15.2571 4.2718 15.4081 4.17956L15.5215 4.12809ZM15.5215 4.12809C15.5127 4.12672 15.5039 4.12519 15.4952 4.12351L15.5142 4.11047L15.5229 4.12743L15.5215 4.12809ZM13.9935 3.9461L13.9941 3.9482L14.003 3.94669L14.0025 3.92686C13.9984 3.9264 13.9941 3.92609 13.9895 3.92594L13.9899 3.92863L13.8532 3.95185L13.8581 3.971C13.8956 3.95445 13.9551 3.94376 13.9935 3.9461ZM13.9935 3.9461C13.9918 3.94027 13.9906 3.93445 13.9899 3.92863L14.0001 3.92689L14.0006 3.94672L13.9935 3.9461ZM13.9763 3.79307L13.9768 3.79415L13.9822 3.79466L13.9855 3.77571L13.968 3.7705L13.9689 3.77395C13.9374 3.77086 13.9067 3.76739 13.877 3.76354L13.3419 3.60442C13.3206 3.59239 13.2999 3.57969 13.2799 3.56627L13.2724 3.58375L13.3419 3.60442C13.4851 3.68516 13.6576 3.73509 13.877 3.76354L13.9763 3.79307ZM13.9763 3.79307C13.9731 3.78667 13.9707 3.78028 13.9689 3.77395L13.9838 3.77538L13.9805 3.79433L13.9763 3.79307ZM13.9069 3.533L13.907 3.53242L13.9135 3.5351L13.9194 3.51618L13.9115 3.5136L13.9117 3.51298L13.92 3.51641L13.9141 3.53534L13.9069 3.533ZM14.2991 3.34108L14.2997 3.34247L14.3003 3.34258L14.305 3.32393L14.2909 3.31868L14.2917 3.32135C14.2537 3.3143 14.2175 3.30685 14.1832 3.29891L13.8821 3.1862C13.8622 3.17362 13.844 3.16019 13.8274 3.14581L13.8185 3.1624L13.8821 3.1862C13.9581 3.23432 14.0583 3.26996 14.1832 3.29891L14.2988 3.34216L14.2991 3.34108ZM14.2991 3.34108C14.2962 3.33472 14.2937 3.32812 14.2917 3.32135L14.3035 3.32351L14.2991 3.34108ZM14.3177 3.17839L14.3049 3.18063C14.3028 3.18466 14.3008 3.18887 14.299 3.1932L14.311 3.19658L14.3157 3.20107C14.2983 3.24267 14.2971 3.29929 14.3195 3.34034C14.3502 3.39684 14.421 3.42467 14.5374 3.41217L14.5524 3.42647L14.5574 3.4097C14.5506 3.41065 14.5439 3.41148 14.5374 3.41217L14.3157 3.20107L14.317 3.1982C14.3275 3.20101 14.338 3.20367 14.3485 3.20618L14.32 3.17902C14.3504 3.18722 14.3809 3.19411 14.4116 3.19963L14.4605 3.22614L14.4658 3.20793C14.4477 3.20565 14.4296 3.20288 14.4116 3.19963L13.685 2.80582C13.6679 2.78993 13.6511 2.7737 13.6345 2.75714L13.624 2.77277L13.685 2.80582C13.875 2.98306 14.0915 3.11684 14.3177 3.17839ZM14.3177 3.17839L14.3191 3.17815L14.32 3.17902L14.3177 3.17839ZM14.317 3.1982L14.311 3.19658L14.3068 3.19251L14.3209 3.19003C14.3195 3.19267 14.3182 3.1954 14.317 3.1982ZM17.3506 4.95074C17.3127 5.00419 17.2172 5.12264 17.1565 5.19133L17.1702 5.20419L17.3649 4.9628L17.3506 4.95074ZM17.3509 4.95026L17.3653 4.96232C17.327 5.01638 17.2311 5.13535 17.17 5.20452L17.1562 5.19166L17.3509 4.95026ZM20.4247 3.43665C20.4163 3.4399 20.1707 3.53321 20.0826 3.56555C20.0556 3.57547 20.0295 3.58493 20.0042 3.59398C19.8218 3.65928 19.6845 3.70174 19.5981 3.71695L19.6024 3.7357L20.4306 3.45498L20.4247 3.43665Z" fill="black"/>
<path fill-rule="evenodd" clip-rule="evenodd" d="M16.8777 3.36144C16.9054 3.34599 16.9192 3.34162 16.9503 3.33539C16.958 3.33384 16.9628 3.33275 16.9678 3.3312C16.9874 3.32521 17.0044 3.31369 17.0269 3.28952C17.0401 3.27542 17.0539 3.26116 17.0684 3.24685L17.586 2.93568C17.611 2.9608 17.6395 2.9675 17.6827 2.95052C17.7133 2.93841 17.7287 2.91501 17.7347 2.88133C17.7364 2.87172 17.737 2.86557 17.7383 2.84784L17.7386 2.844L17.7908 2.81262C17.8014 2.81187 17.8122 2.81165 17.8236 2.81195L17.8241 2.7926L17.7908 2.81262C17.7755 2.81369 17.7608 2.81585 17.7459 2.81916L17.7451 2.81933L17.7435 2.79991L17.7224 2.82396L17.741 2.80151L17.7435 2.79991C17.7406 2.8002 17.738 2.80077 17.7358 2.80168C17.713 2.80717 17.6891 2.81523 17.6584 2.82746C17.6381 2.83554 17.5504 2.87262 17.5513 2.87225C17.4153 2.9289 17.1733 3.10706 17.0205 3.26884L16.9474 3.31628L16.9469 3.31638C16.9141 3.32294 16.8988 3.32781 16.8691 3.34433L16.8777 3.36144ZM16.9559 3.31443L16.9474 3.31628L16.8777 3.36144L16.9559 3.31443ZM17.0053 3.28478L17.0138 3.27596L17.0205 3.26884L17.0966 3.21946C17.087 3.22859 17.0776 3.23773 17.0684 3.24685L17.0053 3.28478ZM17.5441 2.89631C17.4267 2.94952 17.2395 3.08405 17.0966 3.21946L17.5678 2.91389L17.5751 2.92325L17.5751 2.92325L17.5767 2.92532C17.5798 2.92906 17.5829 2.93251 17.586 2.93568L17.6031 2.9254C17.622 2.94192 17.643 2.94488 17.6764 2.93175C17.7003 2.9223 17.7118 2.90485 17.7167 2.87751C17.7179 2.87074 17.7185 2.86574 17.7193 2.85559L17.7386 2.844C17.7401 2.82507 17.7418 2.82011 17.7451 2.81979L17.7451 2.81933L17.7317 2.82204L17.7248 2.82341L17.7224 2.82396C17.7234 2.81874 17.7246 2.81452 17.7262 2.81115L17.741 2.80151L17.7421 2.80022L17.7358 2.80168C17.7315 2.80345 17.7284 2.80647 17.7262 2.81115L17.6866 2.83681C17.6688 2.84403 17.6416 2.85537 17.5977 2.8737L17.5977 2.8737L17.5977 2.8737L17.5977 2.8737L17.5685 2.88588C17.5589 2.87747 17.549 2.87521 17.5377 2.88076L17.5441 2.89631ZM17.5838 2.9035L17.5678 2.91389C17.5645 2.90977 17.5613 2.90576 17.5599 2.90426C17.5538 2.89774 17.5503 2.8965 17.5452 2.89897L17.5441 2.89631L17.558 2.89024L17.5685 2.88588L17.5727 2.89004C17.5748 2.89228 17.5797 2.89832 17.5838 2.9035ZM17.5838 2.9035L17.59 2.91151L17.5905 2.91206C17.5947 2.91719 17.5988 2.92164 17.6031 2.9254L17.7193 2.85559L17.72 2.84629C17.7206 2.83737 17.7213 2.83 17.7224 2.82396C17.7153 2.8257 17.707 2.82856 17.6866 2.83681L17.5838 2.9035ZM17.0053 3.28478L16.9559 3.31443L16.9627 3.31261C16.9767 3.30835 16.9892 3.30062 17.0053 3.28478ZM20.8481 3.82004L20.8396 3.82338L20.8332 3.80522L20.848 3.79947C20.8485 3.80609 20.8485 3.81295 20.8481 3.82004ZM20.7781 3.99184C20.806 3.95604 20.8318 3.90485 20.8426 3.85825C20.8456 3.84492 20.8475 3.83215 20.8481 3.82004C21.2489 3.66416 21.4725 3.56391 21.7414 3.40062C21.8803 3.31624 22.0094 3.22509 22.1285 3.12573L22.1171 3.11055C21.9988 3.2093 21.8704 3.29992 21.7322 3.38385C21.4659 3.5456 21.2439 3.64533 20.848 3.79947C20.8451 3.76019 20.8271 3.72958 20.7925 3.71175C21.1431 3.59181 21.4709 3.43039 21.5965 3.30064L21.5836 3.28682C21.4577 3.41687 21.1208 3.58115 20.7641 3.70102L20.7641 3.70101L20.7641 3.70102C20.6594 3.73621 20.553 3.76757 20.4497 3.79312C20.4257 3.78097 20.3965 3.77067 20.3622 3.76243C20.1428 3.70982 19.8125 3.7655 19.6105 3.88801C19.5834 3.88081 19.5564 3.87418 19.53 3.86825C19.5913 3.81074 19.6235 3.73694 19.5985 3.66763L19.5813 3.67451C19.632 3.81502 19.4075 3.9849 19.2148 3.94662L19.2114 3.96564C19.3177 3.98676 19.4333 3.94814 19.5119 3.88404C19.6091 3.90512 19.7155 3.93623 19.8107 3.97129L19.8109 3.97256L19.8131 3.97216C19.925 4.01351 20.0211 4.06027 20.0684 4.10255C20.1231 4.15127 20.1518 4.19459 20.1501 4.22769C20.1482 4.264 20.1083 4.29196 20.0231 4.30784C19.917 4.3277 19.8489 4.33271 19.7544 4.32189L19.6993 4.3108L19.6987 4.31422C19.6636 4.30871 19.6243 4.30146 19.5785 4.29243C19.4483 4.19576 19.2485 4.10069 19.0422 4.02594L19.0362 4.04425C19.2395 4.11788 19.4369 4.21175 19.5652 4.30625L19.5647 4.30938L19.5712 4.31067C19.6078 4.33812 19.6386 4.3656 19.6619 4.39262C19.7183 4.45822 19.7111 4.50175 19.6493 4.52685C19.5882 4.55162 19.4797 4.55441 19.3553 4.53464C19.1214 4.49733 18.7331 4.28805 18.5358 4.10251L18.5236 4.11695C18.6428 4.22904 18.8302 4.34935 19.0124 4.43623L19.0119 4.43675C19.0569 4.48445 19.0987 4.55396 19.1174 4.61722C19.1349 4.67652 19.1123 4.70548 19.0606 4.70117C18.9912 4.69559 18.9401 4.68293 18.8732 4.64943L18.8706 4.65538C18.8386 4.61684 18.7955 4.58011 18.7412 4.54887C18.5928 4.46346 18.3995 4.28401 18.3096 4.15238L18.2947 4.16369C18.3862 4.29767 18.5816 4.47906 18.7324 4.56586C18.903 4.66394 18.9552 4.81449 18.9032 4.89407C18.8572 4.96447 18.7039 4.9737 18.551 4.87808C18.3683 4.76365 18.1572 4.39996 18.1289 4.14376L18.1106 4.146C18.1396 4.40801 18.3539 4.77711 18.5416 4.89472C18.5722 4.91383 18.6029 4.92894 18.6329 4.94033C18.6468 4.98068 18.6525 5.03102 18.649 5.10969C18.6446 5.2083 18.5757 5.27492 18.4917 5.24153C18.4087 5.2086 18.3448 5.13539 18.302 5.04437L18.2855 5.05297C18.3302 5.14798 18.3972 5.22472 18.4852 5.25964C18.5083 5.26881 18.5304 5.27146 18.5507 5.26868C18.6004 5.37962 18.6277 5.46102 18.6242 5.49063C18.619 5.53526 18.6079 5.54887 18.5691 5.53937L18.565 5.55823C18.617 5.57096 18.6361 5.5475 18.6424 5.493C18.6465 5.45857 18.6195 5.37733 18.5692 5.26455C18.5795 5.26132 18.5892 5.25662 18.5982 5.25064C18.6681 5.34794 18.7193 5.41725 18.7825 5.49741C18.8014 5.52145 18.8198 5.54434 18.8376 5.56596C18.9039 5.64624 18.9603 5.70678 19.0044 5.74302L19.0157 5.72775C18.9727 5.69246 18.917 5.63267 18.8515 5.55326C18.8338 5.53175 18.8154 5.50898 18.7966 5.48505C18.7337 5.40523 18.6827 5.33613 18.613 5.23915C18.6446 5.21068 18.6649 5.1646 18.6673 5.1106C18.6694 5.06305 18.6683 5.02522 18.6639 4.99338C18.8461 5.2149 19.2738 5.63062 19.4011 5.70649L19.4102 5.68964C19.2799 5.61202 18.8234 5.16631 18.657 4.95485L18.6566 4.9552L18.6546 4.94796C18.7614 4.98249 18.857 4.96967 18.9042 4.92238C19.0109 5.06917 19.3435 5.27527 19.515 5.30979L19.5184 5.29078C19.35 5.25687 19.0175 5.0503 18.9166 4.90757L18.9183 4.90504C18.9495 4.85734 18.9482 4.78912 18.9135 4.72017C19.0347 4.82696 19.2386 4.98442 19.4273 5.12243L19.4378 5.10653C19.236 4.959 19.0166 4.78891 18.9007 4.68332C18.9538 4.70595 19.0004 4.71573 19.0592 4.72046C19.0864 4.72274 19.108 4.71657 19.1222 4.70321C19.2505 4.84375 19.5804 5.12672 19.7115 5.19485L19.7196 5.17749C19.5902 5.11022 19.2593 4.8262 19.1337 4.68788C19.1433 4.66926 19.1443 4.64333 19.1349 4.61147C19.1191 4.55799 19.0879 4.50078 19.0518 4.45452C19.1613 4.50397 19.2669 4.54011 19.3525 4.55377C19.3783 4.55787 19.4034 4.56102 19.4276 4.56322L19.4264 4.56461C19.5878 4.7151 19.8867 4.92106 20.0622 5.0091L20.0701 4.99162C19.902 4.90728 19.6185 4.71302 19.4552 4.56534C19.504 4.56839 19.5484 4.56734 19.5862 4.56218C19.6362 4.60472 19.7289 4.66434 19.862 4.74191L19.9157 4.77295C19.961 4.79894 20.07 4.86008 20.1378 4.89813L20.1378 4.89814L20.138 4.89829L20.1381 4.89835L20.1383 4.89842L20.1383 4.89844L20.1943 4.92991L20.203 4.91288L20.1468 4.88129C20.079 4.84324 19.9698 4.78195 19.9245 4.75595L19.8709 4.72497C19.7498 4.65444 19.6624 4.5988 19.611 4.558C19.6277 4.5546 19.6427 4.55024 19.6559 4.54491C19.6695 4.53939 19.6809 4.53288 19.6902 4.52546C20.0301 4.75112 20.2465 4.87022 20.4678 4.92432L20.472 4.90546C20.2542 4.85223 20.0398 4.7345 19.7039 4.51173C19.7205 4.49077 19.7231 4.46455 19.7108 4.4344C19.7494 4.45065 19.7948 4.47062 19.8526 4.49654L19.9998 4.56305L20.0419 4.58212L20.0789 4.59876C20.2909 4.69389 20.4239 4.74814 20.5152 4.77283L20.5198 4.75408C20.4297 4.72973 20.2972 4.67567 20.0861 4.58096L20.0491 4.56432L20.0071 4.54531L19.8598 4.47874C19.7912 4.44797 19.7399 4.42556 19.6968 4.40776L19.6968 4.4079C19.6909 4.39875 19.6838 4.38931 19.6755 4.37962C19.658 4.3594 19.6367 4.339 19.612 4.3186C19.6664 4.32893 19.7114 4.33639 19.7516 4.34104C20.1025 4.41296 20.4411 4.50747 20.5239 4.58221L20.5358 4.56752C20.4588 4.49793 20.1811 4.41517 19.8698 4.34643C19.9176 4.34476 19.9659 4.3382 20.0263 4.3269C20.0768 4.31748 20.1137 4.30341 20.1373 4.28479L20.1374 4.28612C20.1515 4.2846 20.1653 4.28292 20.1788 4.28107C20.3377 4.35323 20.5926 4.37299 20.7156 4.31084C20.7544 4.39209 20.6944 4.51448 20.6252 4.53778L20.6308 4.55621C20.6689 4.54337 20.7041 4.50552 20.7253 4.45939C20.906 4.50377 21.3122 4.51232 21.5091 4.4668L21.5052 4.44724C21.3123 4.49184 20.9129 4.48374 20.733 4.44076C20.7408 4.41907 20.7456 4.39615 20.7462 4.37352C21.0161 4.39922 21.3412 4.37782 21.5069 4.29453L21.4992 4.27637C21.3368 4.358 21.013 4.37912 20.7456 4.35339C20.7441 4.3354 20.7397 4.3179 20.7318 4.3017L20.7378 4.29773C20.7587 4.28323 20.7759 4.26706 20.7893 4.24988C21.1216 4.19972 21.3667 4.11861 21.5903 4.00089C21.6387 3.97543 21.7398 3.91549 21.8217 3.86702L21.8217 3.86698L21.8217 3.86698L21.8217 3.86697L21.8217 3.86697L21.8218 3.86695L21.8218 3.86694C21.8762 3.83468 21.9221 3.80752 21.9381 3.79899C21.9672 3.78343 21.9945 3.77024 22.0213 3.75886L22.0145 3.74091C21.9871 3.7525 21.9594 3.76592 21.9298 3.78172C21.9134 3.79044 21.8669 3.818 21.8119 3.85057C21.7302 3.89896 21.6299 3.95842 21.5821 3.98358C21.3642 4.09831 21.1257 4.17799 20.8042 4.22804C20.8191 4.20243 20.8266 4.17531 20.8269 4.14859C21.3857 4.00114 21.8696 3.7812 22.1949 3.50002L22.1833 3.48506C21.8611 3.76356 21.3808 3.98211 20.8259 4.12892C20.8207 4.08658 20.7972 4.0465 20.7565 4.0166C21.0517 3.95027 21.2456 3.85926 21.6192 3.64015L21.6436 3.62583C21.7497 3.56363 21.8069 3.53084 21.8729 3.49527L21.8646 3.47804C21.7983 3.51374 21.7409 3.54661 21.6347 3.60892L21.6103 3.62324C21.249 3.8351 21.057 3.92646 20.7781 3.99184ZM20.7561 4.01629C20.7634 4.00941 20.7708 4.00115 20.7781 3.99184L20.7516 3.99791L20.7552 4.01564L20.746 4.00935L20.7364 4.02585L20.7412 4.02909C20.5825 4.16227 20.4257 4.241 20.2154 4.27558C20.2052 4.27162 20.1953 4.26747 20.1857 4.26312L20.1784 4.28088L20.1788 4.28107C20.1912 4.27938 20.2034 4.27755 20.2154 4.27558C20.3809 4.33947 20.6282 4.35065 20.7277 4.28157C20.8335 4.2082 20.8329 4.09222 20.7412 4.02909L20.751 4.02079L20.7555 4.01684L20.7565 4.0166L20.7561 4.01629ZM20.7561 4.01629L20.7552 4.01564L20.7554 4.01685L20.7555 4.01684L20.7561 4.01629ZM20.8259 4.12892L20.8121 4.13254L20.8165 4.15133L20.8269 4.14859C20.827 4.142 20.8267 4.13544 20.8259 4.12892ZM20.8042 4.22804L20.7798 4.23176L20.7824 4.25092L20.7893 4.24988C20.7949 4.24276 20.7999 4.23547 20.8042 4.22804ZM20.7456 4.35339C20.7462 4.36005 20.7464 4.36677 20.7462 4.37352L20.7361 4.37253L20.7377 4.35262L20.7456 4.35339ZM20.733 4.44076L20.7226 4.43817L20.7183 4.45763L20.7253 4.45939C20.7281 4.45331 20.7307 4.44709 20.733 4.44076ZM20.7318 4.3017C20.7267 4.30493 20.7213 4.30797 20.7156 4.31084L20.7125 4.30475L20.7284 4.29499L20.7318 4.3017ZM20.1566 4.26445L20.1356 4.26686L20.1373 4.28479C20.1452 4.27853 20.1517 4.27174 20.1566 4.26445ZM20.1149 4.12154C20.1512 4.16069 20.1701 4.1967 20.1684 4.22875C20.1678 4.24176 20.1638 4.25366 20.1566 4.26445C20.397 4.23509 20.566 4.15365 20.7395 4.00575C20.7732 3.97691 20.8115 3.91113 20.8247 3.85369C20.8403 3.7861 20.8223 3.73877 20.7646 3.72119L20.7925 3.71175C20.784 3.70739 20.7746 3.70379 20.7641 3.70102L20.7641 3.70102L20.7596 3.71978L20.7646 3.72119C20.6678 3.75359 20.5696 3.78269 20.4738 3.80698C20.4664 3.80213 20.4584 3.7975 20.4497 3.79312L20.4491 3.79326L20.4533 3.81211L20.4738 3.80698C20.5076 3.8293 20.5276 3.85651 20.5342 3.8877C20.544 3.93403 20.5222 3.98507 20.4824 4.02464C20.4142 4.09238 20.2672 4.13211 20.1149 4.12154ZM20.0939 4.10031L20.0919 4.1001L20.09 4.11936C20.0983 4.12024 20.1067 4.12096 20.1149 4.12154C20.1085 4.11456 20.1015 4.10748 20.0939 4.10031ZM19.8505 3.96575C19.9508 4.00484 20.0357 4.04794 20.0803 4.08779L20.0939 4.10031C20.2492 4.11625 20.4026 4.07732 20.4698 4.01056C20.5054 3.97521 20.5244 3.93051 20.5163 3.8919C20.5061 3.84379 20.4556 3.80469 20.3581 3.78131C20.1492 3.7312 19.8355 3.78174 19.6363 3.89501L19.6105 3.88801L19.606 3.8908L19.6153 3.9075C19.6221 3.90325 19.6292 3.89909 19.6363 3.89501C19.6964 3.91168 19.7569 3.93101 19.8136 3.9518L19.8079 3.95283L19.8107 3.97129L19.8131 3.97216C19.8248 3.97003 19.8374 3.96789 19.8505 3.96575ZM19.8505 3.96575C19.9986 3.94172 20.2286 3.9183 20.3477 3.9183V3.8983C20.2179 3.8983 19.9589 3.92573 19.8136 3.9518C19.8261 3.95639 19.8384 3.96104 19.8505 3.96575ZM19.8698 4.34643C19.8319 4.34775 19.7944 4.34598 19.7516 4.34104L19.6959 4.32982L19.6987 4.31422C19.7185 4.31733 19.7369 4.31988 19.7544 4.32189C19.7932 4.32983 19.8318 4.33802 19.8698 4.34643ZM19.6968 4.4079L19.6901 4.42578L19.7108 4.4344C19.7073 4.42587 19.7027 4.41703 19.6968 4.4079ZM19.7039 4.51173C19.7001 4.5166 19.6955 4.52118 19.6902 4.52546L19.6843 4.52158L19.6941 4.50521L19.7039 4.51173ZM19.611 4.558C19.6055 4.55362 19.6004 4.54942 19.5957 4.54539L19.5841 4.56037L19.5862 4.56218C19.5948 4.561 19.6031 4.5596 19.611 4.558ZM19.4552 4.56534C19.4461 4.56477 19.4369 4.56406 19.4276 4.56322L19.4386 4.55012L19.4552 4.56534ZM19.1337 4.68788L19.1287 4.68235L19.1154 4.69561L19.1222 4.70321C19.1268 4.69885 19.1307 4.69373 19.1337 4.68788ZM18.8877 4.67759L18.9007 4.68332C18.8916 4.67509 18.8832 4.66724 18.8755 4.65984L18.8748 4.6606L18.8706 4.65538L18.8654 4.66691L18.8682 4.66831L18.8631 4.67415C18.8776 4.68808 18.8945 4.70351 18.9135 4.72017C18.9063 4.70595 18.8977 4.6917 18.8877 4.67759ZM18.8877 4.67759C18.8813 4.67469 18.8748 4.6716 18.8682 4.66831L18.8748 4.6606C18.8793 4.66623 18.8836 4.6719 18.8877 4.67759ZM18.9166 4.90757C18.913 4.91283 18.9088 4.91777 18.9042 4.92238C18.9014 4.91853 18.8988 4.91472 18.8963 4.91096L18.9114 4.89993L18.9166 4.90757ZM18.6566 4.9552C18.6596 4.96701 18.6621 4.97964 18.6639 4.99338C18.6565 4.98432 18.6494 4.97558 18.6429 4.96721L18.6566 4.9552ZM18.613 5.23915L18.6076 5.23158L18.5929 5.24326L18.5982 5.25064C18.6034 5.24722 18.6083 5.24338 18.613 5.23915ZM18.5692 5.26455L18.563 5.25075L18.5464 5.25908L18.5507 5.26868C18.5571 5.26782 18.5632 5.26643 18.5692 5.26455ZM18.6546 4.94796C18.6474 4.94563 18.6402 4.94309 18.6329 4.94033L18.6319 4.9375L18.6491 4.93068C18.6511 4.93627 18.653 4.94201 18.6546 4.94796ZM19.0518 4.45452C19.0387 4.44861 19.0256 4.44251 19.0124 4.43623L19.025 4.42312C19.0341 4.43281 19.0431 4.44334 19.0518 4.45452ZM19.612 4.3186C19.6014 4.30987 19.5903 4.30114 19.5785 4.29243L19.5681 4.29036L19.5652 4.30625L19.5712 4.31067L19.612 4.3186ZM19.5119 3.88404C19.5182 3.87893 19.5242 3.87366 19.53 3.86825L19.5075 3.86334L19.5039 3.88231L19.5119 3.88404ZM18.3908 3.68791C18.3138 3.7109 18.2706 3.73414 18.1896 3.78889L18.1993 3.80589C18.2789 3.75207 18.3207 3.72957 18.3957 3.70719L18.3908 3.68791ZM18.7488 4.08749C18.9603 4.21349 19.2446 4.3551 19.4419 4.43036L19.4481 4.41216C19.2518 4.33729 18.9685 4.19614 18.7579 4.07065L18.7488 4.08749ZM19.5177 4.09842C19.3651 4.06536 19.2333 4.04371 19.1005 4.03158L19.1021 4.01229C19.2357 4.0245 19.3681 4.04626 19.5214 4.07946C19.5828 4.09278 19.6463 4.10759 19.7276 4.12734L19.8045 4.14617L19.9398 4.17926L19.9356 4.19813L19.8003 4.16501L19.7235 4.1462C19.6423 4.12648 19.579 4.1117 19.5177 4.09842ZM18.2022 4.16543C18.2395 4.28373 18.5038 4.63211 18.6284 4.71467L18.6382 4.69828C18.5171 4.61808 18.2555 4.27331 18.2196 4.15932L18.2022 4.16543ZM18.4342 5.00404C18.393 4.89826 18.1375 4.49753 18.0006 4.30869L18.0152 4.29694C18.1531 4.48719 18.4092 4.88876 18.4512 4.99669L18.4342 5.00404ZM18.3697 4.13812C18.455 4.24 18.7345 4.46403 18.8618 4.51803L18.8686 4.50008C18.7442 4.4473 18.467 4.22508 18.3835 4.12531L18.3697 4.13812ZM17.8507 3.05251C17.7993 3.08058 17.7618 3.12162 17.7308 3.17877L17.7467 3.18893C17.7759 3.13491 17.8109 3.09661 17.859 3.07039L17.8507 3.05251ZM16.9968 3.68478C16.9918 3.61193 16.9989 3.51709 17.0177 3.44896L17.0354 3.45437C17.0172 3.5201 17.0102 3.61268 17.0151 3.68337L16.9968 3.68478ZM17.0094 3.80481C16.9943 3.87234 17.0054 4.0295 17.026 4.11641L17.0438 4.11172C17.0239 4.02753 17.013 3.87324 17.0273 3.80923L17.0094 3.80481ZM17.0744 4.3246C17.0658 4.31035 17.0594 4.29692 17.0552 4.28431L17.0725 4.27756C17.0761 4.28855 17.0819 4.30064 17.0897 4.31369C17.0995 4.33002 17.1121 4.34741 17.1273 4.36601C17.1399 4.38138 17.1501 4.39294 17.1697 4.41436L17.1567 4.42847C17.1369 4.40679 17.1265 4.39503 17.1136 4.3793C17.0979 4.36002 17.0847 4.34188 17.0744 4.3246ZM17.1458 3.92037C17.1374 4.03265 17.1961 4.24574 17.2557 4.31799C17.2688 4.43751 17.3477 4.60857 17.4591 4.72647L17.4721 4.71281C17.3636 4.59795 17.2865 4.43083 17.2718 4.3104C17.2134 4.23716 17.1561 4.02922 17.1641 3.9219L17.1458 3.92037ZM17.121 3.79521C17.1115 3.72426 17.1093 3.6531 17.117 3.60789L17.1351 3.61131C17.1278 3.65408 17.13 3.72341 17.1392 3.79251L17.121 3.79521ZM17.279 3.16721C17.2424 3.26419 17.222 3.46941 17.2329 3.5495C17.2349 3.56485 17.2346 3.56873 17.2282 3.63316C17.2165 3.75067 17.2211 3.83978 17.2581 3.9549L17.2755 3.94869C17.2395 3.83664 17.235 3.75016 17.2465 3.63519C17.2532 3.56784 17.2534 3.56458 17.2511 3.54678C17.2406 3.46992 17.2607 3.26812 17.296 3.17436L17.279 3.16721ZM17.4071 3.91074C17.3679 3.77255 17.3665 3.4407 17.407 3.26512L17.4249 3.26969C17.3851 3.44207 17.3865 3.77044 17.4247 3.9052L17.4071 3.91074ZM17.3572 3.96282C17.335 4.0659 17.3374 4.18524 17.3658 4.27506L17.3832 4.26894C17.3559 4.18268 17.3536 4.06689 17.3751 3.96709L17.3572 3.96282ZM17.6906 3.80466C17.5805 3.67556 17.5139 3.48305 17.5184 3.33275L17.5368 3.33337C17.5324 3.47868 17.5974 3.66633 17.7043 3.79172L17.6906 3.80466ZM17.4895 3.81507C17.4768 3.98184 17.4859 4.13501 17.5148 4.22254C17.5223 4.24512 17.5275 4.27257 17.5349 4.32285L17.542 4.37183C17.5449 4.39112 17.5476 4.40736 17.5504 4.42293C17.5643 4.49886 17.5825 4.55474 17.6113 4.59793L17.6264 4.58679C17.5993 4.54631 17.5818 4.49274 17.5684 4.41927C17.5656 4.40394 17.563 4.3879 17.5602 4.3688L17.553 4.3199C17.5455 4.26846 17.5401 4.24025 17.5322 4.21618C17.5043 4.13169 17.4953 3.98094 17.5078 3.81662L17.4895 3.81507ZM17.6374 4.08699L17.6306 4.05957L17.6483 4.0546L17.6552 4.08213C17.6648 4.12092 17.6704 4.15017 17.673 4.17937C17.6768 4.22153 17.6732 4.25791 17.6603 4.28902L17.6435 4.2813C17.6549 4.25358 17.6582 4.22035 17.6547 4.18119C17.6522 4.15323 17.6468 4.12487 17.6374 4.08699ZM17.7383 3.93263C17.7689 4.03804 17.7879 4.167 17.7835 4.22305L17.8018 4.22464C17.8064 4.16577 17.7871 4.03453 17.7559 3.92698L17.7383 3.93263ZM17.8676 4.78575C17.8298 4.7159 17.7955 4.60433 17.7877 4.51427L17.8059 4.51251C17.8135 4.59975 17.847 4.70867 17.8835 4.77616L17.8676 4.78575ZM17.6514 4.77967C17.6861 4.88945 17.7456 5.00278 17.7995 5.04745L17.8109 5.03224C17.7605 4.99047 17.7025 4.88005 17.6689 4.77356L17.6514 4.77967ZM18.1609 5.08686C18.1241 4.9699 18.1 4.91308 18.0419 4.82617L18.0569 4.81502C18.1162 4.90379 18.141 4.96217 18.1783 5.08077L18.1609 5.08686Z" fill="black"/>
<path fill-rule="evenodd" clip-rule="evenodd" d="M17.3694 4.85201C17.3808 4.8533 17.388 4.85377 17.4077 4.85481C17.4534 4.85721 17.4695 4.86211 17.4901 4.88503C17.5037 4.90014 17.5172 4.92298 17.5317 4.95622C17.5826 5.07228 17.7215 5.24972 17.8027 5.30499L17.8026 5.30504C17.9101 5.50373 17.9579 5.766 17.9245 5.90677C17.9149 5.84484 17.8815 5.79718 17.83 5.75815C17.81 5.74298 17.7972 5.73526 17.7624 5.7158C17.7164 5.75806 17.6493 5.80669 17.6154 5.81429L17.6193 5.83322C17.6575 5.82464 17.7276 5.77383 17.7649 5.73088C17.7818 5.74643 17.793 5.75456 17.8054 5.76358L17.8193 5.77386C17.8673 5.81021 17.8978 5.85381 17.9064 5.91015L17.9244 5.90708L17.9232 5.91196L17.941 5.91702C17.9767 5.77814 17.9335 5.52281 17.8319 5.32104C17.9571 5.38158 18.0371 5.44982 18.0528 5.54606L18.0702 5.54838L18.0792 5.52719C18.121 5.42844 18.1368 5.36057 18.1209 5.29048L18.1225 5.29248L18.1372 5.31106C18.1833 5.36931 18.2172 5.41217 18.2423 5.44457L18.2405 5.44483C18.243 5.46326 18.2453 5.49134 18.2481 5.53415C18.2486 5.54179 18.2499 5.56392 18.2514 5.58907C18.2535 5.62325 18.2559 5.66299 18.257 5.67955C18.2636 5.78122 18.2702 5.84896 18.2792 5.89314L18.2971 5.88908C18.2884 5.84612 18.2818 5.77896 18.2753 5.67823C18.2742 5.66174 18.2718 5.6221 18.2698 5.58796C18.2682 5.56275 18.2669 5.54052 18.2664 5.53284C18.2648 5.50695 18.2632 5.48638 18.2618 5.46995C18.3008 5.52136 18.3111 5.53946 18.3164 5.55891C18.318 5.56482 18.3191 5.57086 18.3205 5.578L18.3205 5.578L18.3221 5.5859C18.3374 5.66285 18.3963 5.76838 18.4553 5.83618L18.4689 5.82309C18.4118 5.75765 18.3546 5.65504 18.34 5.58192L18.3381 5.57178L18.3381 5.57178L18.3381 5.57178L18.3381 5.57178L18.3381 5.57178C18.3366 5.56405 18.3354 5.55755 18.3336 5.55119C18.3244 5.5176 18.301 5.48793 18.1536 5.30162L18.1536 5.30162L18.1536 5.30162L18.1536 5.30162L18.1536 5.30162L18.1366 5.28009C18.1241 5.26422 18.1128 5.24969 18.1021 5.23566L18.0866 5.24576C18.1231 5.32941 18.1128 5.39893 18.0645 5.51454C18.0372 5.42234 17.9535 5.35715 17.8296 5.29869C17.758 5.26499 17.6019 5.07021 17.5484 4.94811C17.5331 4.91311 17.5186 4.88857 17.5034 4.87171C17.4787 4.84422 17.4587 4.83811 17.4086 4.83548C17.3892 4.83446 17.3823 4.834 17.3713 4.83276L17.3694 4.85201ZM18.2618 5.46995C18.2608 5.45893 18.2598 5.44976 18.2587 5.44211L18.2423 5.44457C18.2495 5.45385 18.2559 5.46227 18.2618 5.46995ZM17.9244 5.90708L17.9246 5.90706L17.9245 5.90677L17.9244 5.90708ZM17.8319 5.32104L17.8221 5.31636C17.8161 5.31353 17.8096 5.30971 17.8027 5.30499L17.8186 5.29545C17.8231 5.30387 17.8276 5.31241 17.8319 5.32104ZM17.4981 5.14536C17.5303 5.24748 17.5559 5.3701 17.5585 5.44106L17.5769 5.44031C17.5742 5.36724 17.5483 5.24296 17.5156 5.13926L17.4981 5.14536ZM17.7766 5.64883C17.7737 5.59155 17.7395 5.44155 17.7054 5.34161L17.7227 5.33506C17.7573 5.43663 17.7919 5.58835 17.7949 5.64781L17.7766 5.64883ZM18.0975 5.61394C18.1241 5.68163 18.141 5.78848 18.1356 5.85216L18.1539 5.85388C18.1595 5.787 18.1422 5.67703 18.1144 5.60652L18.0975 5.61394Z" fill="black"/>
</g>
</g>
<defs>
<filter id="filter0_i_2665_7639" x="0" y="0" width="24" height="18" filterUnits="userSpaceOnUse" color-interpolation-filters="sRGB">
<feFlood flood-opacity="0" result="BackgroundImageFix"/>
<feBlend mode="normal" in="SourceGraphic" in2="BackgroundImageFix" result="shape"/>
<feColorMatrix in="SourceAlpha" type="matrix" values="0 0 0 0 0 0 0 0 0 0 0 0 0 0 0 0 0 0 127 0" result="hardAlpha"/>
<feOffset/>
<feGaussianBlur stdDeviation="1.5"/>
<feComposite in2="hardAlpha" operator="arithmetic" k2="-1" k3="1"/>
<feColorMatrix type="matrix" values="0 0 0 0 0 0 0 0 0 0 0 0 0 0 0 0 0 0 0.08 0"/>
<feBlend mode="normal" in2="shape" result="effect1_innerShadow_2665_7639"/>
</filter>
</defs>
</svg>
